%!PS-Adobe-2.0 EPSF-2.0
%%Title: /home/gijs/.chiplotle/output/20140702_232828.eps
%%Creator: hp2xx 3.4.4 (c) 1991-1994 by H. Werntges, 1999-2003 by M. Kroeker
%%CreationDate: Wed Jul  2 23:28:28 2014
%%Pages: 1
%%BoundingBox: 0 0 2127 3544
%%EndComments

%%BeginProcSet:
/PSSave save def
/PSDict 200 dict def
PSDict begin
/@restore /restore load def
/restore
   {vmstatus pop
    dup @VMused lt {pop @VMused} if
    exch pop exch @restore /@VMused exch def
   } def
/@pri
   {
    ( ) print
    (                                       ) cvs print
   } def
/@start
   {
    vmstatus pop /@VMused exch def pop
   } def
/@end
   {(VM Used: ) print @VMused @pri
    (. Unused: ) print vmstatus @VMused sub @pri pop pop
    (\n) print flush
    end
    PSSave restore
   } def
/bop
   {
    /SaveImage save def
   } def
/eop
   {
    showpage
    SaveImage restore
   } def
/@line
   {
%%    1 setlinejoin      %% now set from LA command
%%    1 setmiterlimit    %% now set from LA command
   } def
/@SetPlot
   {
    2.834646 2.834646 scale
      0.050   0.050 translate
     0.100 setlinewidth
   } def
/C {setrgbcolor} def
/D {lineto} def
/M {moveto} def
/S {stroke} def
/W {setlinewidth} def
/Z {stroke newpath} def
end
%%EndProcSet

%%BeginSetup
/#copies 1 def
%%EndSetup
%%Page: 1 1
%%BeginPageSetup
PSDict begin
@start
@line
@SetPlot

bop
%%EndPageSetup
  0.100 W
 S
  0.00   0.00 M  0.100 W
 S
  0.00   0.00 M 1 setlinecap
 S
  0.00   0.00 M 1 setlinejoin
 S
  0.00   0.00 M  1.000  0.000  0.000 C
 S
  0.00   0.00 M   0.00   0.00 D 250.00 500.00 D S
250.00 500.00 M 250.00 500.00 D 500.00 250.00 D S
500.00 250.00 M 500.00 250.00 D 250.00 1250.00 D S
250.00 1250.00 M 250.00 1250.00 D 750.00 250.00 D S
750.00 250.00 M  0.000  1.000  0.000 C
 S
  0.00   0.00 M   0.00   0.00 D 250.00 500.00 D S
250.00 500.00 M 250.00 500.00 D 500.00 250.00 D S
500.00 250.00 M 500.00 250.00 D 250.00 1250.00 D S
250.00 1250.00 M  0.000  0.000  1.000 C
 S
  0.00   0.00 M   0.00   0.00 D 250.00 500.00 D S
250.00 500.00 M 250.00 500.00 D 500.00 250.00 D S
500.00 250.00 M  0.000  1.000  1.000 C
 S
  0.00   0.00 M   0.00   0.00 D 250.00 500.00 D S
250.00 500.00 M  1.000  0.000  0.000 C
 S
  0.00   0.00 M   0.00   0.00 D 250.00 500.00 D S
250.00 500.00 M 250.00 500.00 D 500.00 250.00 D S
500.00 250.00 M 500.00 250.00 D 250.00 1250.00 D S
250.00 1250.00 M 250.00 1250.00 D 750.00 250.00 D S
750.00 250.00 M  0.000  1.000  0.000 C
 S
  2.50   5.00 M   2.50   5.00 D 252.50 497.50 D S
252.50 497.50 M 252.50 497.50 D 497.50 260.00 D S
497.50 260.00 M 497.50 260.00 D 255.00 1240.00 D S
255.00 1240.00 M  0.000  0.000  1.000 C
 S
  5.00   9.93 M   5.00   9.93 D 254.95 495.12 D S
254.95 495.13 M 254.95 495.12 D 495.08 269.80 D S
495.08 269.80 M  0.000  1.000  1.000 C
 S
  7.50  14.78 M   7.50  14.78 D 257.35 492.87 D S
257.35 492.87 M  1.000  0.000  0.000 C
 S
  0.00   0.00 M   0.00   0.00 D 250.00 500.00 D S
250.00 500.00 M 250.00 500.00 D 500.00 250.00 D S
500.00 250.00 M 500.00 250.00 D 250.00 1250.00 D S
250.00 1250.00 M 250.00 1250.00 D 750.00 250.00 D S
750.00 250.00 M  0.000  1.000  0.000 C
 S
  5.00  10.00 M   5.00  10.00 D 255.00 495.00 D S
255.00 495.00 M 255.00 495.00 D 495.00 270.00 D S
495.00 270.00 M 495.00 270.00 D 260.00 1230.00 D S
260.00 1230.00 M  0.000  0.000  1.000 C
 S
 10.00  19.70 M  10.00  19.70 D 259.80 490.50 D S
259.80 490.50 M 259.80 490.50 D 490.30 289.20 D S
490.30 289.20 M  0.000  1.000  1.000 C
 S
 15.00  29.12 M  15.00  29.12 D 264.41 486.47 D S
264.41 486.47 M  1.000  0.000  0.000 C
 S
  0.00   0.00 M   0.00   0.00 D 250.00 500.00 D S
250.00 500.00 M 250.00 500.00 D 500.00 250.00 D S
500.00 250.00 M 500.00 250.00 D 250.00 1250.00 D S
250.00 1250.00 M 250.00 1250.00 D 750.00 250.00 D S
750.00 250.00 M  0.000  1.000  0.000 C
 S
  7.50  15.00 M   7.50  15.00 D 257.50 492.50 D S
257.50 492.50 M 257.50 492.50 D 492.50 280.00 D S
492.50 280.00 M 492.50 280.00 D 265.00 1220.00 D S
265.00 1220.00 M  0.000  0.000  1.000 C
 S
 15.00  29.33 M  15.00  29.33 D 264.55 486.12 D S
264.55 486.13 M 264.55 486.12 D 485.68 308.20 D S
485.68 308.20 M  0.000  1.000  1.000 C
 S
 22.49  43.03 M  22.49  43.03 D 271.18 480.79 D S
271.18 480.79 M  1.000  0.000  0.000 C
 S
  0.00   0.00 M   0.00   0.00 D 250.00 500.00 D S
250.00 500.00 M 250.00 500.00 D 500.00 250.00 D S
500.00 250.00 M 500.00 250.00 D 250.00 1250.00 D S
250.00 1250.00 M 250.00 1250.00 D 750.00 250.00 D S
750.00 250.00 M  0.000  1.000  0.000 C
 S
 10.00  20.00 M  10.00  20.00 D 260.00 490.00 D S
260.00 490.00 M 260.00 490.00 D 490.00 290.00 D S
490.00 290.00 M 490.00 290.00 D 270.00 1210.00 D S
270.00 1210.00 M  0.000  0.000  1.000 C
 S
 20.00  38.80 M  20.00  38.80 D 269.20 482.00 D S
269.20 482.00 M 269.20 482.00 D 481.20 326.80 D S
481.20 326.80 M  0.000  1.000  1.000 C
 S
 29.97  56.53 M  29.97  56.53 D 277.68 475.79 D S
277.68 475.79 M  1.000  0.000  0.000 C
 S
  0.00   0.00 M   0.00   0.00 D 250.00 500.00 D S
250.00 500.00 M 250.00 500.00 D 500.00 250.00 D S
500.00 250.00 M 500.00 250.00 D 250.00 1250.00 D S
250.00 1250.00 M 250.00 1250.00 D 750.00 250.00 D S
750.00 250.00 M  0.000  1.000  0.000 C
 S
 12.50  25.00 M  12.50  25.00 D 262.50 487.50 D S
262.50 487.50 M 262.50 487.50 D 487.50 300.00 D S
487.50 300.00 M 487.50 300.00 D 275.00 1200.00 D S
275.00 1200.00 M  0.000  0.000  1.000 C
 S
 25.00  48.13 M  25.00  48.12 D 273.75 478.12 D S
273.75 478.13 M 273.75 478.12 D 476.88 345.00 D S
476.88 345.00 M  0.000  1.000  1.000 C
 S
 37.44  69.63 M  37.44  69.62 D 283.91 471.47 D S
283.91 471.47 M  1.000  0.000  0.000 C
 S
  0.00   0.00 M   0.00   0.00 D 250.00 500.00 D S
250.00 500.00 M 250.00 500.00 D 500.00 250.00 D S
500.00 250.00 M 500.00 250.00 D 250.00 1250.00 D S
250.00 1250.00 M 250.00 1250.00 D 750.00 250.00 D S
750.00 250.00 M  0.000  1.000  0.000 C
 S
 15.00  30.00 M  15.00  30.00 D 265.00 485.00 D S
265.00 485.00 M 265.00 485.00 D 485.00 310.00 D S
485.00 310.00 M 485.00 310.00 D 280.00 1190.00 D S
280.00 1190.00 M  0.000  0.000  1.000 C
 S
 30.00  57.30 M  30.00  57.30 D 278.20 474.50 D S
278.20 474.50 M 278.20 474.50 D 472.70 362.80 D S
472.70 362.80 M  0.000  1.000  1.000 C
 S
 44.89  82.33 M  44.89  82.33 D 289.87 467.80 D S
289.87 467.80 M  1.000  0.000  0.000 C
 S
  0.00   0.00 M   0.00   0.00 D 250.00 500.00 D S
250.00 500.00 M 250.00 500.00 D 500.00 250.00 D S
500.00 250.00 M 500.00 250.00 D 250.00 1250.00 D S
250.00 1250.00 M 250.00 1250.00 D 750.00 250.00 D S
750.00 250.00 M  0.000  1.000  0.000 C
 S
 17.50  35.00 M  17.50  35.00 D 267.50 482.50 D S
267.50 482.50 M 267.50 482.50 D 482.50 320.00 D S
482.50 320.00 M 482.50 320.00 D 285.00 1180.00 D S
285.00 1180.00 M  0.000  0.000  1.000 C
 S
 35.00  66.33 M  35.00  66.33 D 282.55 471.12 D S
282.55 471.13 M 282.55 471.12 D 468.68 380.20 D S
468.68 380.20 M  0.000  1.000  1.000 C
 S
 52.33  94.66 M  52.33  94.66 D 295.58 464.76 D S
295.58 464.76 M  1.000  0.000  0.000 C
 S
  0.00   0.00 M   0.00   0.00 D 250.00 500.00 D S
250.00 500.00 M 250.00 500.00 D 500.00 250.00 D S
500.00 250.00 M 500.00 250.00 D 250.00 1250.00 D S
250.00 1250.00 M 250.00 1250.00 D 750.00 250.00 D S
750.00 250.00 M  0.000  1.000  0.000 C
 S
 20.00  40.00 M  20.00  40.00 D 270.00 480.00 D S
270.00 480.00 M 270.00 480.00 D 480.00 330.00 D S
480.00 330.00 M 480.00 330.00 D 290.00 1170.00 D S
290.00 1170.00 M  0.000  0.000  1.000 C
 S
 40.00  75.20 M  40.00  75.20 D 286.80 468.00 D S
286.80 468.00 M 286.80 468.00 D 464.80 397.20 D S
464.80 397.20 M  0.000  1.000  1.000 C
 S
 59.74 106.62 M  59.74 106.62 D 301.04 462.34 D S
301.04 462.34 M  1.000  0.000  0.000 C
 S
  0.00   0.00 M   0.00   0.00 D 250.00 500.00 D S
250.00 500.00 M 250.00 500.00 D 500.00 250.00 D S
500.00 250.00 M 500.00 250.00 D 250.00 1250.00 D S
250.00 1250.00 M 250.00 1250.00 D 750.00 250.00 D S
750.00 250.00 M  0.000  1.000  0.000 C
 S
 22.50  45.00 M  22.50  45.00 D 272.50 477.50 D S
272.50 477.50 M 272.50 477.50 D 477.50 340.00 D S
477.50 340.00 M 477.50 340.00 D 295.00 1160.00 D S
295.00 1160.00 M  0.000  0.000  1.000 C
 S
 45.00  83.93 M  45.00  83.93 D 290.95 465.12 D S
290.95 465.13 M 290.95 465.12 D 461.08 413.80 D S
461.08 413.80 M  0.000  1.000  1.000 C
 S
 67.14 118.23 M  67.14 118.23 D 306.26 460.51 D S
306.26 460.51 M  1.000  0.000  0.000 C
 S
  0.00   0.00 M   0.00   0.00 D 250.00 500.00 D S
250.00 500.00 M 250.00 500.00 D 500.00 250.00 D S
500.00 250.00 M 500.00 250.00 D 250.00 1250.00 D S
250.00 1250.00 M 250.00 1250.00 D 750.00 250.00 D S
750.00 250.00 M  0.000  1.000  0.000 C
 S
 25.00  50.00 M  25.00  50.00 D 275.00 475.00 D S
275.00 475.00 M 275.00 475.00 D 475.00 350.00 D S
475.00 350.00 M 475.00 350.00 D 300.00 1150.00 D S
300.00 1150.00 M  0.000  0.000  1.000 C
 S
 50.00  92.50 M  50.00  92.50 D 295.00 462.50 D S
295.00 462.50 M 295.00 462.50 D 457.50 430.00 D S
457.50 430.00 M  0.000  1.000  1.000 C
 S
 74.50 129.50 M  74.50 129.50 D 311.25 459.25 D S
311.25 459.25 M  1.000  0.000  0.000 C
 S
  0.00   0.00 M   0.00   0.00 D 250.00 500.00 D S
250.00 500.00 M 250.00 500.00 D 500.00 250.00 D S
500.00 250.00 M 500.00 250.00 D 250.00 1250.00 D S
250.00 1250.00 M 250.00 1250.00 D 750.00 250.00 D S
750.00 250.00 M  0.000  1.000  0.000 C
 S
 27.50  55.00 M  27.50  55.00 D 277.50 472.50 D S
277.50 472.50 M 277.50 472.50 D 472.50 360.00 D S
472.50 360.00 M 472.50 360.00 D 305.00 1140.00 D S
305.00 1140.00 M  0.000  0.000  1.000 C
 S
 55.00 100.93 M  55.00 100.93 D 298.95 460.12 D S
298.95 460.13 M 298.95 460.12 D 454.08 445.80 D S
454.08 445.80 M  0.000  1.000  1.000 C
 S
 81.83 140.44 M  81.83 140.44 D 316.01 458.55 D S
316.01 458.55 M  1.000  0.000  0.000 C
 S
  0.00   0.00 M   0.00   0.00 D 250.00 500.00 D S
250.00 500.00 M 250.00 500.00 D 500.00 250.00 D S
500.00 250.00 M 500.00 250.00 D 250.00 1250.00 D S
250.00 1250.00 M 250.00 1250.00 D 750.00 250.00 D S
750.00 250.00 M  0.000  1.000  0.000 C
 S
 30.00  60.00 M  30.00  60.00 D 280.00 470.00 D S
280.00 470.00 M 280.00 470.00 D 470.00 370.00 D S
470.00 370.00 M 470.00 370.00 D 310.00 1130.00 D S
310.00 1130.00 M  0.000  0.000  1.000 C
 S
 60.00 109.20 M  60.00 109.20 D 302.80 458.00 D S
302.80 458.00 M 302.80 458.00 D 450.80 461.20 D S
450.80 461.20 M  0.000  1.000  1.000 C
 S
 89.14 151.06 M  89.14 151.06 D 320.56 458.38 D S
320.56 458.38 M  1.000  0.000  0.000 C
 S
  0.00   0.00 M   0.00   0.00 D 250.00 500.00 D S
250.00 500.00 M 250.00 500.00 D 500.00 250.00 D S
500.00 250.00 M 500.00 250.00 D 250.00 1250.00 D S
250.00 1250.00 M 250.00 1250.00 D 750.00 250.00 D S
750.00 250.00 M  0.000  1.000  0.000 C
 S
 32.50  65.00 M  32.50  65.00 D 282.50 467.50 D S
282.50 467.50 M 282.50 467.50 D 467.50 380.00 D S
467.50 380.00 M 467.50 380.00 D 315.00 1120.00 D S
315.00 1120.00 M  0.000  0.000  1.000 C
 S
 65.00 117.33 M  65.00 117.33 D 306.55 456.12 D S
306.55 456.13 M 306.55 456.12 D 447.68 476.20 D S
447.68 476.20 M  0.000  1.000  1.000 C
 S
 96.40 161.37 M  96.40 161.37 D 324.90 458.73 D S
324.90 458.73 M  1.000  0.000  0.000 C
 S
  0.00   0.00 M   0.00   0.00 D 250.00 500.00 D S
250.00 500.00 M 250.00 500.00 D 500.00 250.00 D S
500.00 250.00 M 500.00 250.00 D 250.00 1250.00 D S
250.00 1250.00 M 250.00 1250.00 D 750.00 250.00 D S
750.00 250.00 M  0.000  1.000  0.000 C
 S
 35.00  70.00 M  35.00  70.00 D 285.00 465.00 D S
285.00 465.00 M 285.00 465.00 D 465.00 390.00 D S
465.00 390.00 M 465.00 390.00 D 320.00 1110.00 D S
320.00 1110.00 M  0.000  0.000  1.000 C
 S
 70.00 125.30 M  70.00 125.30 D 310.20 454.50 D S
310.20 454.50 M 310.20 454.50 D 444.70 490.80 D S
444.70 490.80 M  0.000  1.000  1.000 C
 S
103.63 171.39 M 103.63 171.39 D 329.03 459.58 D S
329.03 459.58 M  1.000  0.000  0.000 C
 S
  0.00   0.00 M   0.00   0.00 D 250.00 500.00 D S
250.00 500.00 M 250.00 500.00 D 500.00 250.00 D S
500.00 250.00 M 500.00 250.00 D 250.00 1250.00 D S
250.00 1250.00 M 250.00 1250.00 D 750.00 250.00 D S
750.00 250.00 M  0.000  1.000  0.000 C
 S
 37.50  75.00 M  37.50  75.00 D 287.50 462.50 D S
287.50 462.50 M 287.50 462.50 D 462.50 400.00 D S
462.50 400.00 M 462.50 400.00 D 325.00 1100.00 D S
325.00 1100.00 M  0.000  0.000  1.000 C
 S
 75.00 133.13 M  75.00 133.12 D 313.75 453.12 D S
313.75 453.13 M 313.75 453.12 D 441.88 505.00 D S
441.88 505.00 M  0.000  1.000  1.000 C
 S
110.81 181.13 M 110.81 181.12 D 332.97 460.91 D S
332.97 460.91 M  1.000  0.000  0.000 C
 S
  0.00   0.00 M   0.00   0.00 D 250.00 500.00 D S
250.00 500.00 M 250.00 500.00 D 500.00 250.00 D S
500.00 250.00 M 500.00 250.00 D 250.00 1250.00 D S
250.00 1250.00 M 250.00 1250.00 D 750.00 250.00 D S
750.00 250.00 M  0.000  1.000  0.000 C
 S
 40.00  80.00 M  40.00  80.00 D 290.00 460.00 D S
290.00 460.00 M 290.00 460.00 D 460.00 410.00 D S
460.00 410.00 M 460.00 410.00 D 330.00 1090.00 D S
330.00 1090.00 M  0.000  0.000  1.000 C
 S
 80.00 140.80 M  80.00 140.80 D 317.20 452.00 D S
317.20 452.00 M 317.20 452.00 D 439.20 518.80 D S
439.20 518.80 M  0.000  1.000  1.000 C
 S
117.95 190.59 M 117.95 190.59 D 336.72 462.69 D S
336.72 462.69 M  1.000  0.000  0.000 C
 S
  0.00   0.00 M   0.00   0.00 D 250.00 500.00 D S
250.00 500.00 M 250.00 500.00 D 500.00 250.00 D S
500.00 250.00 M 500.00 250.00 D 250.00 1250.00 D S
250.00 1250.00 M 250.00 1250.00 D 750.00 250.00 D S
750.00 250.00 M  0.000  1.000  0.000 C
 S
 42.50  85.00 M  42.50  85.00 D 292.50 457.50 D S
292.50 457.50 M 292.50 457.50 D 457.50 420.00 D S
457.50 420.00 M 457.50 420.00 D 335.00 1080.00 D S
335.00 1080.00 M  0.000  0.000  1.000 C
 S
 85.00 148.33 M  85.00 148.32 D 320.55 451.12 D S
320.55 451.13 M 320.55 451.12 D 436.68 532.20 D S
436.68 532.20 M  0.000  1.000  1.000 C
 S
125.04 199.80 M 125.04 199.80 D 340.29 464.91 D S
340.29 464.91 M  1.000  0.000  0.000 C
 S
  0.00   0.00 M   0.00   0.00 D 250.00 500.00 D S
250.00 500.00 M 250.00 500.00 D 500.00 250.00 D S
500.00 250.00 M 500.00 250.00 D 250.00 1250.00 D S
250.00 1250.00 M 250.00 1250.00 D 750.00 250.00 D S
750.00 250.00 M  0.000  1.000  0.000 C
 S
 45.00  90.00 M  45.00  90.00 D 295.00 455.00 D S
295.00 455.00 M 295.00 455.00 D 455.00 430.00 D S
455.00 430.00 M 455.00 430.00 D 340.00 1070.00 D S
340.00 1070.00 M  0.000  0.000  1.000 C
 S
 90.00 155.70 M  90.00 155.70 D 323.80 450.50 D S
323.80 450.50 M 323.80 450.50 D 434.30 545.20 D S
434.30 545.20 M  0.000  1.000  1.000 C
 S
132.08 208.76 M 132.08 208.76 D 343.69 467.55 D S
343.69 467.55 M  1.000  0.000  0.000 C
 S
  0.00   0.00 M   0.00   0.00 D 250.00 500.00 D S
250.00 500.00 M 250.00 500.00 D 500.00 250.00 D S
500.00 250.00 M 500.00 250.00 D 250.00 1250.00 D S
250.00 1250.00 M 250.00 1250.00 D 750.00 250.00 D S
750.00 250.00 M  0.000  1.000  0.000 C
 S
 47.50  95.00 M  47.50  95.00 D 297.50 452.50 D S
297.50 452.50 M 297.50 452.50 D 452.50 440.00 D S
452.50 440.00 M 452.50 440.00 D 345.00 1060.00 D S
345.00 1060.00 M  0.000  0.000  1.000 C
 S
 95.00 162.93 M  95.00 162.93 D 326.95 450.12 D S
326.95 450.13 M 326.95 450.12 D 432.08 557.80 D S
432.08 557.80 M  0.000  1.000  1.000 C
 S
139.07 217.49 M 139.07 217.49 D 346.92 470.58 D S
346.92 470.58 M  1.000  0.000  0.000 C
 S
  0.00   0.00 M   0.00   0.00 D 250.00 500.00 D S
250.00 500.00 M 250.00 500.00 D 500.00 250.00 D S
500.00 250.00 M 500.00 250.00 D 250.00 1250.00 D S
250.00 1250.00 M 250.00 1250.00 D 750.00 250.00 D S
750.00 250.00 M  0.000  1.000  0.000 C
 S
 50.00 100.00 M  50.00 100.00 D 300.00 450.00 D S
300.00 450.00 M 300.00 450.00 D 450.00 450.00 D S
450.00 450.00 M 450.00 450.00 D 350.00 1050.00 D S
350.00 1050.00 M  0.000  0.000  1.000 C
 S
100.00 170.00 M 100.00 170.00 D 330.00 450.00 D S
330.00 450.00 M 330.00 450.00 D 430.00 570.00 D S
430.00 570.00 M  0.000  1.000  1.000 C
 S
146.00 226.00 M 146.00 226.00 D 350.00 474.00 D S
350.00 474.00 M  1.000  0.000  0.000 C
 S
  0.00   0.00 M   0.00   0.00 D 250.00 500.00 D S
250.00 500.00 M 250.00 500.00 D 500.00 250.00 D S
500.00 250.00 M 500.00 250.00 D 250.00 1250.00 D S
250.00 1250.00 M 250.00 1250.00 D 750.00 250.00 D S
750.00 250.00 M  0.000  1.000  0.000 C
 S
 52.50 105.00 M  52.50 105.00 D 302.50 447.50 D S
302.50 447.50 M 302.50 447.50 D 447.50 460.00 D S
447.50 460.00 M 447.50 460.00 D 355.00 1040.00 D S
355.00 1040.00 M  0.000  0.000  1.000 C
 S
105.00 176.93 M 105.00 176.93 D 332.95 450.12 D S
332.95 450.13 M 332.95 450.12 D 428.08 581.80 D S
428.08 581.80 M  0.000  1.000  1.000 C
 S
152.87 234.30 M 152.87 234.30 D 352.93 477.78 D S
352.93 477.78 M  1.000  0.000  0.000 C
 S
  0.00   0.00 M   0.00   0.00 D 250.00 500.00 D S
250.00 500.00 M 250.00 500.00 D 500.00 250.00 D S
500.00 250.00 M 500.00 250.00 D 250.00 1250.00 D S
250.00 1250.00 M 250.00 1250.00 D 750.00 250.00 D S
750.00 250.00 M  0.000  1.000  0.000 C
 S
 55.00 110.00 M  55.00 110.00 D 305.00 445.00 D S
305.00 445.00 M 305.00 445.00 D 445.00 470.00 D S
445.00 470.00 M 445.00 470.00 D 360.00 1030.00 D S
360.00 1030.00 M  0.000  0.000  1.000 C
 S
110.00 183.70 M 110.00 183.70 D 335.80 450.50 D S
335.80 450.50 M 335.80 450.50 D 426.30 593.20 D S
426.30 593.20 M  0.000  1.000  1.000 C
 S
159.68 242.40 M 159.68 242.40 D 355.71 481.89 D S
355.71 481.89 M  1.000  0.000  0.000 C
 S
  0.00   0.00 M   0.00   0.00 D 250.00 500.00 D S
250.00 500.00 M 250.00 500.00 D 500.00 250.00 D S
500.00 250.00 M 500.00 250.00 D 250.00 1250.00 D S
250.00 1250.00 M 250.00 1250.00 D 750.00 250.00 D S
750.00 250.00 M  0.000  1.000  0.000 C
 S
 57.50 115.00 M  57.50 115.00 D 307.50 442.50 D S
307.50 442.50 M 307.50 442.50 D 442.50 480.00 D S
442.50 480.00 M 442.50 480.00 D 365.00 1020.00 D S
365.00 1020.00 M  0.000  0.000  1.000 C
 S
115.00 190.33 M 115.00 190.32 D 338.55 451.12 D S
338.55 451.13 M 338.55 451.12 D 424.68 604.20 D S
424.68 604.20 M  0.000  1.000  1.000 C
 S
166.42 250.31 M 166.42 250.31 D 358.36 486.33 D S
358.36 486.33 M  1.000  0.000  0.000 C
 S
  0.00   0.00 M   0.00   0.00 D 250.00 500.00 D S
250.00 500.00 M 250.00 500.00 D 500.00 250.00 D S
500.00 250.00 M 500.00 250.00 D 250.00 1250.00 D S
250.00 1250.00 M 250.00 1250.00 D 750.00 250.00 D S
750.00 250.00 M  0.000  1.000  0.000 C
 S
 60.00 120.00 M  60.00 120.00 D 310.00 440.00 D S
310.00 440.00 M 310.00 440.00 D 440.00 490.00 D S
440.00 490.00 M 440.00 490.00 D 370.00 1010.00 D S
370.00 1010.00 M  0.000  0.000  1.000 C
 S
120.00 196.80 M 120.00 196.80 D 341.20 452.00 D S
341.20 452.00 M 341.20 452.00 D 423.20 614.80 D S
423.20 614.80 M  0.000  1.000  1.000 C
 S
173.09 258.05 M 173.09 258.05 D 360.88 491.07 D S
360.88 491.07 M  1.000  0.000  0.000 C
 S
  0.00   0.00 M   0.00   0.00 D 250.00 500.00 D S
250.00 500.00 M 250.00 500.00 D 500.00 250.00 D S
500.00 250.00 M 500.00 250.00 D 250.00 1250.00 D S
250.00 1250.00 M 250.00 1250.00 D 750.00 250.00 D S
750.00 250.00 M  0.000  1.000  0.000 C
 S
 62.50 125.00 M  62.50 125.00 D 312.50 437.50 D S
312.50 437.50 M 312.50 437.50 D 437.50 500.00 D S
437.50 500.00 M 437.50 500.00 D 375.00 1000.00 D S
375.00 1000.00 M  0.000  0.000  1.000 C
 S
125.00 203.13 M 125.00 203.12 D 343.75 453.12 D S
343.75 453.13 M 343.75 453.12 D 421.88 625.00 D S
421.88 625.00 M  0.000  1.000  1.000 C
 S
179.69 265.63 M 179.69 265.62 D 363.28 496.09 D S
363.28 496.09 M  1.000  0.000  0.000 C
 S
  0.00   0.00 M   0.00   0.00 D 250.00 500.00 D S
250.00 500.00 M 250.00 500.00 D 500.00 250.00 D S
500.00 250.00 M 500.00 250.00 D 250.00 1250.00 D S
250.00 1250.00 M 250.00 1250.00 D 750.00 250.00 D S
750.00 250.00 M  0.000  1.000  0.000 C
 S
 65.00 130.00 M  65.00 130.00 D 315.00 435.00 D S
315.00 435.00 M 315.00 435.00 D 435.00 510.00 D S
435.00 510.00 M 435.00 510.00 D 380.00 990.00 D S
380.00 990.00 M  0.000  0.000  1.000 C
 S
130.00 209.30 M 130.00 209.30 D 346.20 454.50 D S
346.20 454.50 M 346.20 454.50 D 420.70 634.80 D S
420.70 634.80 M  0.000  1.000  1.000 C
 S
186.21 273.05 M 186.21 273.05 D 365.57 501.38 D S
365.57 501.38 M  1.000  0.000  0.000 C
 S
  0.00   0.00 M   0.00   0.00 D 250.00 500.00 D S
250.00 500.00 M 250.00 500.00 D 500.00 250.00 D S
500.00 250.00 M 500.00 250.00 D 250.00 1250.00 D S
250.00 1250.00 M 250.00 1250.00 D 750.00 250.00 D S
750.00 250.00 M  0.000  1.000  0.000 C
 S
 67.50 135.00 M  67.50 135.00 D 317.50 432.50 D S
317.50 432.50 M 317.50 432.50 D 432.50 520.00 D S
432.50 520.00 M 432.50 520.00 D 385.00 980.00 D S
385.00 980.00 M  0.000  0.000  1.000 C
 S
135.00 215.33 M 135.00 215.32 D 348.55 456.12 D S
348.55 456.13 M 348.55 456.12 D 419.68 644.20 D S
419.68 644.20 M  0.000  1.000  1.000 C
 S
192.66 280.34 M 192.66 280.34 D 367.75 506.91 D S
367.75 506.91 M  1.000  0.000  0.000 C
 S
  0.00   0.00 M   0.00   0.00 D 250.00 500.00 D S
250.00 500.00 M 250.00 500.00 D 500.00 250.00 D S
500.00 250.00 M 500.00 250.00 D 250.00 1250.00 D S
250.00 1250.00 M 250.00 1250.00 D 750.00 250.00 D S
750.00 250.00 M  0.000  1.000  0.000 C
 S
 70.00 140.00 M  70.00 140.00 D 320.00 430.00 D S
320.00 430.00 M 320.00 430.00 D 430.00 530.00 D S
430.00 530.00 M 430.00 530.00 D 390.00 970.00 D S
390.00 970.00 M  0.000  0.000  1.000 C
 S
140.00 221.20 M 140.00 221.20 D 350.80 458.00 D S
350.80 458.00 M 350.80 458.00 D 418.80 653.20 D S
418.80 653.20 M  0.000  1.000  1.000 C
 S
199.02 287.50 M 199.02 287.50 D 369.84 512.66 D S
369.84 512.66 M  1.000  0.000  0.000 C
 S
  0.00   0.00 M   0.00   0.00 D 250.00 500.00 D S
250.00 500.00 M 250.00 500.00 D 500.00 250.00 D S
500.00 250.00 M 500.00 250.00 D 250.00 1250.00 D S
250.00 1250.00 M 250.00 1250.00 D 750.00 250.00 D S
750.00 250.00 M  0.000  1.000  0.000 C
 S
 72.50 145.00 M  72.50 145.00 D 322.50 427.50 D S
322.50 427.50 M 322.50 427.50 D 427.50 540.00 D S
427.50 540.00 M 427.50 540.00 D 395.00 960.00 D S
395.00 960.00 M  0.000  0.000  1.000 C
 S
145.00 226.93 M 145.00 226.93 D 352.95 460.12 D S
352.95 460.13 M 352.95 460.12 D 418.08 661.80 D S
418.08 661.80 M  0.000  1.000  1.000 C
 S
205.31 294.55 M 205.31 294.55 D 371.84 518.61 D S
371.84 518.61 M  1.000  0.000  0.000 C
 S
  0.00   0.00 M   0.00   0.00 D 250.00 500.00 D S
250.00 500.00 M 250.00 500.00 D 500.00 250.00 D S
500.00 250.00 M 500.00 250.00 D 250.00 1250.00 D S
250.00 1250.00 M 250.00 1250.00 D 750.00 250.00 D S
750.00 250.00 M  0.000  1.000  0.000 C
 S
 75.00 150.00 M  75.00 150.00 D 325.00 425.00 D S
325.00 425.00 M 325.00 425.00 D 425.00 550.00 D S
425.00 550.00 M 425.00 550.00 D 400.00 950.00 D S
400.00 950.00 M  0.000  0.000  1.000 C
 S
150.00 232.50 M 150.00 232.50 D 355.00 462.50 D S
355.00 462.50 M 355.00 462.50 D 417.50 670.00 D S
417.50 670.00 M  0.000  1.000  1.000 C
 S
211.50 301.50 M 211.50 301.50 D 373.75 524.75 D S
373.75 524.75 M  1.000  0.000  0.000 C
 S
  0.00   0.00 M   0.00   0.00 D 250.00 500.00 D S
250.00 500.00 M 250.00 500.00 D 500.00 250.00 D S
500.00 250.00 M 500.00 250.00 D 250.00 1250.00 D S
250.00 1250.00 M 250.00 1250.00 D 750.00 250.00 D S
750.00 250.00 M  0.000  1.000  0.000 C
 S
 77.50 155.00 M  77.50 155.00 D 327.50 422.50 D S
327.50 422.50 M 327.50 422.50 D 422.50 560.00 D S
422.50 560.00 M 422.50 560.00 D 405.00 940.00 D S
405.00 940.00 M  0.000  0.000  1.000 C
 S
155.00 237.93 M 155.00 237.93 D 356.95 465.12 D S
356.95 465.13 M 356.95 465.12 D 417.08 677.80 D S
417.08 677.80 M  0.000  1.000  1.000 C
 S
217.60 308.36 M 217.60 308.36 D 375.59 531.05 D S
375.59 531.05 M  1.000  0.000  0.000 C
 S
  0.00   0.00 M   0.00   0.00 D 250.00 500.00 D S
250.00 500.00 M 250.00 500.00 D 500.00 250.00 D S
500.00 250.00 M 500.00 250.00 D 250.00 1250.00 D S
250.00 1250.00 M 250.00 1250.00 D 750.00 250.00 D S
750.00 250.00 M  0.000  1.000  0.000 C
 S
 80.00 160.00 M  80.00 160.00 D 330.00 420.00 D S
330.00 420.00 M 330.00 420.00 D 420.00 570.00 D S
420.00 570.00 M 420.00 570.00 D 410.00 930.00 D S
410.00 930.00 M  0.000  0.000  1.000 C
 S
160.00 243.20 M 160.00 243.20 D 358.80 468.00 D S
358.80 468.00 M 358.80 468.00 D 416.80 685.20 D S
416.80 685.20 M  0.000  1.000  1.000 C
 S
223.62 315.14 M 223.62 315.14 D 377.36 537.50 D S
377.36 537.50 M  1.000  0.000  0.000 C
 S
  0.00   0.00 M   0.00   0.00 D 250.00 500.00 D S
250.00 500.00 M 250.00 500.00 D 500.00 250.00 D S
500.00 250.00 M 500.00 250.00 D 250.00 1250.00 D S
250.00 1250.00 M 250.00 1250.00 D 750.00 250.00 D S
750.00 250.00 M  0.000  1.000  0.000 C
 S
 82.50 165.00 M  82.50 165.00 D 332.50 417.50 D S
332.50 417.50 M 332.50 417.50 D 417.50 580.00 D S
417.50 580.00 M 417.50 580.00 D 415.00 920.00 D S
415.00 920.00 M  0.000  0.000  1.000 C
 S
165.00 248.33 M 165.00 248.32 D 360.55 471.12 D S
360.55 471.13 M 360.55 471.12 D 416.68 692.20 D S
416.68 692.20 M  0.000  1.000  1.000 C
 S
229.53 321.85 M 229.53 321.85 D 379.07 544.08 D S
379.07 544.08 M  1.000  0.000  0.000 C
 S
  0.00   0.00 M   0.00   0.00 D 250.00 500.00 D S
250.00 500.00 M 250.00 500.00 D 500.00 250.00 D S
500.00 250.00 M 500.00 250.00 D 250.00 1250.00 D S
250.00 1250.00 M 250.00 1250.00 D 750.00 250.00 D S
750.00 250.00 M  0.000  1.000  0.000 C
 S
 85.00 170.00 M  85.00 170.00 D 335.00 415.00 D S
335.00 415.00 M 335.00 415.00 D 415.00 590.00 D S
415.00 590.00 M 415.00 590.00 D 420.00 910.00 D S
420.00 910.00 M  0.000  0.000  1.000 C
 S
170.00 253.30 M 170.00 253.30 D 362.20 474.50 D S
362.20 474.50 M 362.20 474.50 D 416.70 698.80 D S
416.70 698.80 M  0.000  1.000  1.000 C
 S
235.35 328.51 M 235.35 328.51 D 380.73 550.76 D S
380.73 550.76 M  1.000  0.000  0.000 C
 S
  0.00   0.00 M   0.00   0.00 D 250.00 500.00 D S
250.00 500.00 M 250.00 500.00 D 500.00 250.00 D S
500.00 250.00 M 500.00 250.00 D 250.00 1250.00 D S
250.00 1250.00 M 250.00 1250.00 D 750.00 250.00 D S
750.00 250.00 M  0.000  1.000  0.000 C
 S
 87.50 175.00 M  87.50 175.00 D 337.50 412.50 D S
337.50 412.50 M 337.50 412.50 D 412.50 600.00 D S
412.50 600.00 M 412.50 600.00 D 425.00 900.00 D S
425.00 900.00 M  0.000  0.000  1.000 C
 S
175.00 258.13 M 175.00 258.12 D 363.75 478.12 D S
363.75 478.13 M 363.75 478.12 D 416.88 705.00 D S
416.88 705.00 M  0.000  1.000  1.000 C
 S
241.06 335.13 M 241.06 335.12 D 382.34 557.53 D S
382.34 557.53 M  1.000  0.000  0.000 C
 S
  0.00   0.00 M   0.00   0.00 D 250.00 500.00 D S
250.00 500.00 M 250.00 500.00 D 500.00 250.00 D S
500.00 250.00 M 500.00 250.00 D 250.00 1250.00 D S
250.00 1250.00 M 250.00 1250.00 D 750.00 250.00 D S
750.00 250.00 M  0.000  1.000  0.000 C
 S
 90.00 180.00 M  90.00 180.00 D 340.00 410.00 D S
340.00 410.00 M 340.00 410.00 D 410.00 610.00 D S
410.00 610.00 M 410.00 610.00 D 430.00 890.00 D S
430.00 890.00 M  0.000  0.000  1.000 C
 S
180.00 262.80 M 180.00 262.80 D 365.20 482.00 D S
365.20 482.00 M 365.20 482.00 D 417.20 710.80 D S
417.20 710.80 M  0.000  1.000  1.000 C
 S
246.67 341.71 M 246.67 341.71 D 383.92 564.37 D S
383.92 564.37 M  1.000  0.000  0.000 C
 S
  0.00   0.00 M   0.00   0.00 D 250.00 500.00 D S
250.00 500.00 M 250.00 500.00 D 500.00 250.00 D S
500.00 250.00 M 500.00 250.00 D 250.00 1250.00 D S
250.00 1250.00 M 250.00 1250.00 D 750.00 250.00 D S
750.00 250.00 M  0.000  1.000  0.000 C
 S
 92.50 185.00 M  92.50 185.00 D 342.50 407.50 D S
342.50 407.50 M 342.50 407.50 D 407.50 620.00 D S
407.50 620.00 M 407.50 620.00 D 435.00 880.00 D S
435.00 880.00 M  0.000  0.000  1.000 C
 S
185.00 267.33 M 185.00 267.33 D 366.55 486.12 D S
366.55 486.13 M 366.55 486.12 D 417.68 716.20 D S
417.68 716.20 M  0.000  1.000  1.000 C
 S
252.17 348.28 M 252.17 348.28 D 385.47 571.25 D S
385.47 571.25 M  1.000  0.000  0.000 C
 S
  0.00   0.00 M   0.00   0.00 D 250.00 500.00 D S
250.00 500.00 M 250.00 500.00 D 500.00 250.00 D S
500.00 250.00 M 500.00 250.00 D 250.00 1250.00 D S
250.00 1250.00 M 250.00 1250.00 D 750.00 250.00 D S
750.00 250.00 M  0.000  1.000  0.000 C
 S
 95.00 190.00 M  95.00 190.00 D 345.00 405.00 D S
345.00 405.00 M 345.00 405.00 D 405.00 630.00 D S
405.00 630.00 M 405.00 630.00 D 440.00 870.00 D S
440.00 870.00 M  0.000  0.000  1.000 C
 S
190.00 271.70 M 190.00 271.70 D 367.80 490.50 D S
367.80 490.50 M 367.80 490.50 D 418.30 721.20 D S
418.30 721.20 M  0.000  1.000  1.000 C
 S
257.56 354.84 M 257.56 354.84 D 386.99 578.17 D S
386.99 578.17 M  1.000  0.000  0.000 C
 S
  0.00   0.00 M   0.00   0.00 D 250.00 500.00 D S
250.00 500.00 M 250.00 500.00 D 500.00 250.00 D S
500.00 250.00 M 500.00 250.00 D 250.00 1250.00 D S
250.00 1250.00 M 250.00 1250.00 D 750.00 250.00 D S
750.00 250.00 M  0.000  1.000  0.000 C
 S
 97.50 195.00 M  97.50 195.00 D 347.50 402.50 D S
347.50 402.50 M 347.50 402.50 D 402.50 640.00 D S
402.50 640.00 M 402.50 640.00 D 445.00 860.00 D S
445.00 860.00 M  0.000  0.000  1.000 C
 S
195.00 275.93 M 195.00 275.93 D 368.95 495.12 D S
368.95 495.13 M 368.95 495.12 D 419.08 725.80 D S
419.08 725.80 M  0.000  1.000  1.000 C
 S
262.84 361.41 M 262.84 361.41 D 388.50 585.09 D S
388.50 585.09 M  1.000  0.000  0.000 C
 S
  0.00   0.00 M   0.00   0.00 D 250.00 500.00 D S
250.00 500.00 M 250.00 500.00 D 500.00 250.00 D S
500.00 250.00 M 500.00 250.00 D 250.00 1250.00 D S
250.00 1250.00 M 250.00 1250.00 D 750.00 250.00 D S
750.00 250.00 M  0.000  1.000  0.000 C
 S
100.00 200.00 M 100.00 200.00 D 350.00 400.00 D S
350.00 400.00 M 350.00 400.00 D 400.00 650.00 D S
400.00 650.00 M 400.00 650.00 D 450.00 850.00 D S
450.00 850.00 M  0.000  0.000  1.000 C
 S
200.00 280.00 M 200.00 280.00 D 370.00 500.00 D S
370.00 500.00 M 370.00 500.00 D 420.00 730.00 D S
420.00 730.00 M  0.000  1.000  1.000 C
 S
268.00 368.00 M 268.00 368.00 D 390.00 592.00 D S
390.00 592.00 M  1.000  0.000  0.000 C
 S
  0.00   0.00 M   0.00   0.00 D 250.00 500.00 D S
250.00 500.00 M 250.00 500.00 D 500.00 250.00 D S
500.00 250.00 M 500.00 250.00 D 250.00 1250.00 D S
250.00 1250.00 M 250.00 1250.00 D 750.00 250.00 D S
750.00 250.00 M  0.000  1.000  0.000 C
 S
102.50 205.00 M 102.50 205.00 D 352.50 397.50 D S
352.50 397.50 M 352.50 397.50 D 397.50 660.00 D S
397.50 660.00 M 397.50 660.00 D 455.00 840.00 D S
455.00 840.00 M  0.000  0.000  1.000 C
 S
205.00 283.93 M 205.00 283.93 D 370.95 505.12 D S
370.95 505.13 M 370.95 505.12 D 421.08 733.80 D S
421.08 733.80 M  0.000  1.000  1.000 C
 S
273.04 374.62 M 273.04 374.62 D 391.50 598.88 D S
391.50 598.88 M  1.000  0.000  0.000 C
 S
  0.00   0.00 M   0.00   0.00 D 250.00 500.00 D S
250.00 500.00 M 250.00 500.00 D 500.00 250.00 D S
500.00 250.00 M 500.00 250.00 D 250.00 1250.00 D S
250.00 1250.00 M 250.00 1250.00 D 750.00 250.00 D S
750.00 250.00 M  0.000  1.000  0.000 C
 S
105.00 210.00 M 105.00 210.00 D 355.00 395.00 D S
355.00 395.00 M 355.00 395.00 D 395.00 670.00 D S
395.00 670.00 M 395.00 670.00 D 460.00 830.00 D S
460.00 830.00 M  0.000  0.000  1.000 C
 S
210.00 287.70 M 210.00 287.70 D 371.80 510.50 D S
371.80 510.50 M 371.80 510.50 D 422.30 737.20 D S
422.30 737.20 M  0.000  1.000  1.000 C
 S
277.96 381.28 M 277.96 381.28 D 393.01 605.71 D S
393.01 605.71 M  1.000  0.000  0.000 C
 S
  0.00   0.00 M   0.00   0.00 D 250.00 500.00 D S
250.00 500.00 M 250.00 500.00 D 500.00 250.00 D S
500.00 250.00 M 500.00 250.00 D 250.00 1250.00 D S
250.00 1250.00 M 250.00 1250.00 D 750.00 250.00 D S
750.00 250.00 M  0.000  1.000  0.000 C
 S
107.50 215.00 M 107.50 215.00 D 357.50 392.50 D S
357.50 392.50 M 357.50 392.50 D 392.50 680.00 D S
392.50 680.00 M 392.50 680.00 D 465.00 820.00 D S
465.00 820.00 M  0.000  0.000  1.000 C
 S
215.00 291.33 M 215.00 291.33 D 372.55 516.12 D S
372.55 516.13 M 372.55 516.12 D 423.68 740.20 D S
423.68 740.20 M  0.000  1.000  1.000 C
 S
282.75 387.99 M 282.75 387.99 D 394.53 612.48 D S
394.53 612.48 M  1.000  0.000  0.000 C
 S
  0.00   0.00 M   0.00   0.00 D 250.00 500.00 D S
250.00 500.00 M 250.00 500.00 D 500.00 250.00 D S
500.00 250.00 M 500.00 250.00 D 250.00 1250.00 D S
250.00 1250.00 M 250.00 1250.00 D 750.00 250.00 D S
750.00 250.00 M  0.000  1.000  0.000 C
 S
110.00 220.00 M 110.00 220.00 D 360.00 390.00 D S
360.00 390.00 M 360.00 390.00 D 390.00 690.00 D S
390.00 690.00 M 390.00 690.00 D 470.00 810.00 D S
470.00 810.00 M  0.000  0.000  1.000 C
 S
220.00 294.80 M 220.00 294.80 D 373.20 522.00 D S
373.20 522.00 M 373.20 522.00 D 425.20 742.80 D S
425.20 742.80 M  0.000  1.000  1.000 C
 S
287.41 394.77 M 287.41 394.77 D 396.08 619.15 D S
396.08 619.15 M  1.000  0.000  0.000 C
 S
  0.00   0.00 M   0.00   0.00 D 250.00 500.00 D S
250.00 500.00 M 250.00 500.00 D 500.00 250.00 D S
500.00 250.00 M 500.00 250.00 D 250.00 1250.00 D S
250.00 1250.00 M 250.00 1250.00 D 750.00 250.00 D S
750.00 250.00 M  0.000  1.000  0.000 C
 S
112.50 225.00 M 112.50 225.00 D 362.50 387.50 D S
362.50 387.50 M 362.50 387.50 D 387.50 700.00 D S
387.50 700.00 M 387.50 700.00 D 475.00 800.00 D S
475.00 800.00 M  0.000  0.000  1.000 C
 S
225.00 298.13 M 225.00 298.12 D 373.75 528.12 D S
373.75 528.13 M 373.75 528.12 D 426.88 745.00 D S
426.88 745.00 M  0.000  1.000  1.000 C
 S
291.94 401.63 M 291.94 401.62 D 397.66 625.72 D S
397.66 625.72 M  1.000  0.000  0.000 C
 S
  0.00   0.00 M   0.00   0.00 D 250.00 500.00 D S
250.00 500.00 M 250.00 500.00 D 500.00 250.00 D S
500.00 250.00 M 500.00 250.00 D 250.00 1250.00 D S
250.00 1250.00 M 250.00 1250.00 D 750.00 250.00 D S
750.00 250.00 M  0.000  1.000  0.000 C
 S
115.00 230.00 M 115.00 230.00 D 365.00 385.00 D S
365.00 385.00 M 365.00 385.00 D 385.00 710.00 D S
385.00 710.00 M 385.00 710.00 D 480.00 790.00 D S
480.00 790.00 M  0.000  0.000  1.000 C
 S
230.00 301.30 M 230.00 301.30 D 374.20 534.50 D S
374.20 534.50 M 374.20 534.50 D 428.70 746.80 D S
428.70 746.80 M  0.000  1.000  1.000 C
 S
296.33 408.57 M 296.33 408.57 D 399.27 632.16 D S
399.27 632.16 M  1.000  0.000  0.000 C
 S
  0.00   0.00 M   0.00   0.00 D 250.00 500.00 D S
250.00 500.00 M 250.00 500.00 D 500.00 250.00 D S
500.00 250.00 M 500.00 250.00 D 250.00 1250.00 D S
250.00 1250.00 M 250.00 1250.00 D 750.00 250.00 D S
750.00 250.00 M  0.000  1.000  0.000 C
 S
117.50 235.00 M 117.50 235.00 D 367.50 382.50 D S
367.50 382.50 M 367.50 382.50 D 382.50 720.00 D S
382.50 720.00 M 382.50 720.00 D 485.00 780.00 D S
485.00 780.00 M  0.000  0.000  1.000 C
 S
235.00 304.33 M 235.00 304.33 D 374.55 541.12 D S
374.55 541.13 M 374.55 541.12 D 430.68 748.20 D S
430.68 748.20 M  0.000  1.000  1.000 C
 S
300.59 415.62 M 300.59 415.62 D 400.93 638.45 D S
400.93 638.45 M  1.000  0.000  0.000 C
 S
  0.00   0.00 M   0.00   0.00 D 250.00 500.00 D S
250.00 500.00 M 250.00 500.00 D 500.00 250.00 D S
500.00 250.00 M 500.00 250.00 D 250.00 1250.00 D S
250.00 1250.00 M 250.00 1250.00 D 750.00 250.00 D S
750.00 250.00 M  0.000  1.000  0.000 C
 S
120.00 240.00 M 120.00 240.00 D 370.00 380.00 D S
370.00 380.00 M 370.00 380.00 D 380.00 730.00 D S
380.00 730.00 M 380.00 730.00 D 490.00 770.00 D S
490.00 770.00 M  0.000  0.000  1.000 C
 S
240.00 307.20 M 240.00 307.20 D 374.80 548.00 D S
374.80 548.00 M 374.80 548.00 D 432.80 749.20 D S
432.80 749.20 M  0.000  1.000  1.000 C
 S
304.70 422.78 M 304.70 422.78 D 402.64 644.58 D S
402.64 644.58 M  1.000  0.000  0.000 C
 S
  0.00   0.00 M   0.00   0.00 D 250.00 500.00 D S
250.00 500.00 M 250.00 500.00 D 500.00 250.00 D S
500.00 250.00 M 500.00 250.00 D 250.00 1250.00 D S
250.00 1250.00 M 250.00 1250.00 D 750.00 250.00 D S
750.00 250.00 M  0.000  1.000  0.000 C
 S
122.50 245.00 M 122.50 245.00 D 372.50 377.50 D S
372.50 377.50 M 372.50 377.50 D 377.50 740.00 D S
377.50 740.00 M 377.50 740.00 D 495.00 760.00 D S
495.00 760.00 M  0.000  0.000  1.000 C
 S
245.00 309.93 M 245.00 309.93 D 374.95 555.12 D S
374.95 555.13 M 374.95 555.12 D 435.08 749.80 D S
435.08 749.80 M  0.000  1.000  1.000 C
 S
308.68 430.07 M 308.68 430.07 D 404.41 650.52 D S
404.41 650.52 M  1.000  0.000  0.000 C
 S
  0.00   0.00 M   0.00   0.00 D 250.00 500.00 D S
250.00 500.00 M 250.00 500.00 D 500.00 250.00 D S
500.00 250.00 M 500.00 250.00 D 250.00 1250.00 D S
250.00 1250.00 M 250.00 1250.00 D 750.00 250.00 D S
750.00 250.00 M  0.000  1.000  0.000 C
 S
125.00 250.00 M 125.00 250.00 D 375.00 375.00 D S
375.00 375.00 M 375.00 375.00 D 375.00 750.00 D S
375.00 750.00 M 375.00 750.00 D 500.00 750.00 D S
500.00 750.00 M  0.000  0.000  1.000 C
 S
250.00 312.50 M 250.00 312.50 D 375.00 562.50 D S
375.00 562.50 M 375.00 562.50 D 437.50 750.00 D S
437.50 750.00 M  0.000  1.000  1.000 C
 S
312.50 437.50 M 312.50 437.50 D 406.25 656.25 D S
406.25 656.25 M  1.000  0.000  0.000 C
 S
  0.00   0.00 M   0.00   0.00 D 250.00 500.00 D S
250.00 500.00 M 250.00 500.00 D 500.00 250.00 D S
500.00 250.00 M 500.00 250.00 D 250.00 1250.00 D S
250.00 1250.00 M 250.00 1250.00 D 750.00 250.00 D S
750.00 250.00 M  0.000  1.000  0.000 C
 S
127.50 255.00 M 127.50 255.00 D 377.50 372.50 D S
377.50 372.50 M 377.50 372.50 D 372.50 760.00 D S
372.50 760.00 M 372.50 760.00 D 505.00 740.00 D S
505.00 740.00 M  0.000  0.000  1.000 C
 S
255.00 314.93 M 255.00 314.93 D 374.95 570.12 D S
374.95 570.13 M 374.95 570.12 D 440.08 749.80 D S
440.08 749.80 M  0.000  1.000  1.000 C
 S
316.17 445.08 M 316.17 445.08 D 408.16 661.76 D S
408.16 661.76 M  1.000  0.000  0.000 C
 S
  0.00   0.00 M   0.00   0.00 D 250.00 500.00 D S
250.00 500.00 M 250.00 500.00 D 500.00 250.00 D S
500.00 250.00 M 500.00 250.00 D 250.00 1250.00 D S
250.00 1250.00 M 250.00 1250.00 D 750.00 250.00 D S
750.00 250.00 M  0.000  1.000  0.000 C
 S
130.00 260.00 M 130.00 260.00 D 380.00 370.00 D S
380.00 370.00 M 380.00 370.00 D 370.00 770.00 D S
370.00 770.00 M 370.00 770.00 D 510.00 730.00 D S
510.00 730.00 M  0.000  0.000  1.000 C
 S
260.00 317.20 M 260.00 317.20 D 374.80 578.00 D S
374.80 578.00 M 374.80 578.00 D 442.80 749.20 D S
442.80 749.20 M  0.000  1.000  1.000 C
 S
319.70 452.82 M 319.70 452.82 D 410.16 667.02 D S
410.16 667.02 M  1.000  0.000  0.000 C
 S
  0.00   0.00 M   0.00   0.00 D 250.00 500.00 D S
250.00 500.00 M 250.00 500.00 D 500.00 250.00 D S
500.00 250.00 M 500.00 250.00 D 250.00 1250.00 D S
250.00 1250.00 M 250.00 1250.00 D 750.00 250.00 D S
750.00 250.00 M  0.000  1.000  0.000 C
 S
132.50 265.00 M 132.50 265.00 D 382.50 367.50 D S
382.50 367.50 M 382.50 367.50 D 367.50 780.00 D S
367.50 780.00 M 367.50 780.00 D 515.00 720.00 D S
515.00 720.00 M  0.000  0.000  1.000 C
 S
265.00 319.33 M 265.00 319.33 D 374.55 586.12 D S
374.55 586.13 M 374.55 586.12 D 445.68 748.20 D S
445.68 748.20 M  0.000  1.000  1.000 C
 S
323.06 460.73 M 323.06 460.73 D 412.25 672.02 D S
412.25 672.02 M  1.000  0.000  0.000 C
 S
  0.00   0.00 M   0.00   0.00 D 250.00 500.00 D S
250.00 500.00 M 250.00 500.00 D 500.00 250.00 D S
500.00 250.00 M 500.00 250.00 D 250.00 1250.00 D S
250.00 1250.00 M 250.00 1250.00 D 750.00 250.00 D S
750.00 250.00 M  0.000  1.000  0.000 C
 S
135.00 270.00 M 135.00 270.00 D 385.00 365.00 D S
385.00 365.00 M 385.00 365.00 D 365.00 790.00 D S
365.00 790.00 M 365.00 790.00 D 520.00 710.00 D S
520.00 710.00 M  0.000  0.000  1.000 C
 S
270.00 321.30 M 270.00 321.30 D 374.20 594.50 D S
374.20 594.50 M 374.20 594.50 D 448.70 746.80 D S
448.70 746.80 M  0.000  1.000  1.000 C
 S
326.27 468.83 M 326.27 468.83 D 414.43 676.74 D S
414.43 676.74 M  1.000  0.000  0.000 C
 S
  0.00   0.00 M   0.00   0.00 D 250.00 500.00 D S
250.00 500.00 M 250.00 500.00 D 500.00 250.00 D S
500.00 250.00 M 500.00 250.00 D 250.00 1250.00 D S
250.00 1250.00 M 250.00 1250.00 D 750.00 250.00 D S
750.00 250.00 M  0.000  1.000  0.000 C
 S
137.50 275.00 M 137.50 275.00 D 387.50 362.50 D S
387.50 362.50 M 387.50 362.50 D 362.50 800.00 D S
362.50 800.00 M 362.50 800.00 D 525.00 700.00 D S
525.00 700.00 M  0.000  0.000  1.000 C
 S
275.00 323.13 M 275.00 323.12 D 373.75 603.12 D S
373.75 603.13 M 373.75 603.12 D 451.88 745.00 D S
451.88 745.00 M  0.000  1.000  1.000 C
 S
329.31 477.13 M 329.31 477.12 D 416.72 681.16 D S
416.72 681.16 M  1.000  0.000  0.000 C
 S
  0.00   0.00 M   0.00   0.00 D 250.00 500.00 D S
250.00 500.00 M 250.00 500.00 D 500.00 250.00 D S
500.00 250.00 M 500.00 250.00 D 250.00 1250.00 D S
250.00 1250.00 M 250.00 1250.00 D 750.00 250.00 D S
750.00 250.00 M  0.000  1.000  0.000 C
 S
140.00 280.00 M 140.00 280.00 D 390.00 360.00 D S
390.00 360.00 M 390.00 360.00 D 360.00 810.00 D S
360.00 810.00 M 360.00 810.00 D 530.00 690.00 D S
530.00 690.00 M  0.000  0.000  1.000 C
 S
280.00 324.80 M 280.00 324.80 D 373.20 612.00 D S
373.20 612.00 M 373.20 612.00 D 455.20 742.80 D S
455.20 742.80 M  0.000  1.000  1.000 C
 S
332.19 485.63 M 332.19 485.63 D 419.12 685.25 D S
419.12 685.25 M  1.000  0.000  0.000 C
 S
  0.00   0.00 M   0.00   0.00 D 250.00 500.00 D S
250.00 500.00 M 250.00 500.00 D 500.00 250.00 D S
500.00 250.00 M 500.00 250.00 D 250.00 1250.00 D S
250.00 1250.00 M 250.00 1250.00 D 750.00 250.00 D S
750.00 250.00 M  0.000  1.000  0.000 C
 S
142.50 285.00 M 142.50 285.00 D 392.50 357.50 D S
392.50 357.50 M 392.50 357.50 D 357.50 820.00 D S
357.50 820.00 M 357.50 820.00 D 535.00 680.00 D S
535.00 680.00 M  0.000  0.000  1.000 C
 S
285.00 326.33 M 285.00 326.33 D 372.55 621.12 D S
372.55 621.13 M 372.55 621.12 D 458.68 740.20 D S
458.68 740.20 M  0.000  1.000  1.000 C
 S
334.90 494.36 M 334.90 494.36 D 421.64 689.00 D S
421.64 689.00 M  1.000  0.000  0.000 C
 S
  0.00   0.00 M   0.00   0.00 D 250.00 500.00 D S
250.00 500.00 M 250.00 500.00 D 500.00 250.00 D S
500.00 250.00 M 500.00 250.00 D 250.00 1250.00 D S
250.00 1250.00 M 250.00 1250.00 D 750.00 250.00 D S
750.00 250.00 M  0.000  1.000  0.000 C
 S
145.00 290.00 M 145.00 290.00 D 395.00 355.00 D S
395.00 355.00 M 395.00 355.00 D 355.00 830.00 D S
355.00 830.00 M 355.00 830.00 D 540.00 670.00 D S
540.00 670.00 M  0.000  0.000  1.000 C
 S
290.00 327.70 M 290.00 327.70 D 371.80 630.50 D S
371.80 630.50 M 371.80 630.50 D 462.30 737.20 D S
462.30 737.20 M  0.000  1.000  1.000 C
 S
337.44 503.32 M 337.44 503.32 D 424.29 692.39 D S
424.29 692.39 M  1.000  0.000  0.000 C
 S
  0.00   0.00 M   0.00   0.00 D 250.00 500.00 D S
250.00 500.00 M 250.00 500.00 D 500.00 250.00 D S
500.00 250.00 M 500.00 250.00 D 250.00 1250.00 D S
250.00 1250.00 M 250.00 1250.00 D 750.00 250.00 D S
750.00 250.00 M  0.000  1.000  0.000 C
 S
147.50 295.00 M 147.50 295.00 D 397.50 352.50 D S
397.50 352.50 M 397.50 352.50 D 352.50 840.00 D S
352.50 840.00 M 352.50 840.00 D 545.00 660.00 D S
545.00 660.00 M  0.000  0.000  1.000 C
 S
295.00 328.93 M 295.00 328.93 D 370.95 640.12 D S
370.95 640.13 M 370.95 640.12 D 466.08 733.80 D S
466.08 733.80 M  0.000  1.000  1.000 C
 S
339.81 512.53 M 339.81 512.53 D 427.07 695.39 D S
427.07 695.39 M  1.000  0.000  0.000 C
 S
  0.00   0.00 M   0.00   0.00 D 250.00 500.00 D S
250.00 500.00 M 250.00 500.00 D 500.00 250.00 D S
500.00 250.00 M 500.00 250.00 D 250.00 1250.00 D S
250.00 1250.00 M 250.00 1250.00 D 750.00 250.00 D S
750.00 250.00 M  0.000  1.000  0.000 C
 S
150.00 300.00 M 150.00 300.00 D 400.00 350.00 D S
400.00 350.00 M 400.00 350.00 D 350.00 850.00 D S
350.00 850.00 M 350.00 850.00 D 550.00 650.00 D S
550.00 650.00 M  0.000  0.000  1.000 C
 S
300.00 330.00 M 300.00 330.00 D 370.00 650.00 D S
370.00 650.00 M 370.00 650.00 D 470.00 730.00 D S
470.00 730.00 M  0.000  1.000  1.000 C
 S
342.00 522.00 M 342.00 522.00 D 430.00 698.00 D S
430.00 698.00 M  1.000  0.000  0.000 C
 S
  0.00   0.00 M   0.00   0.00 D 250.00 500.00 D S
250.00 500.00 M 250.00 500.00 D 500.00 250.00 D S
500.00 250.00 M 500.00 250.00 D 250.00 1250.00 D S
250.00 1250.00 M 250.00 1250.00 D 750.00 250.00 D S
750.00 250.00 M  0.000  1.000  0.000 C
 S
152.50 305.00 M 152.50 305.00 D 402.50 347.50 D S
402.50 347.50 M 402.50 347.50 D 347.50 860.00 D S
347.50 860.00 M 347.50 860.00 D 555.00 640.00 D S
555.00 640.00 M  0.000  0.000  1.000 C
 S
305.00 330.93 M 305.00 330.93 D 368.95 660.12 D S
368.95 660.13 M 368.95 660.12 D 474.08 725.80 D S
474.08 725.80 M  0.000  1.000  1.000 C
 S
344.01 531.74 M 344.01 531.74 D 433.08 700.19 D S
433.08 700.19 M  1.000  0.000  0.000 C
 S
  0.00   0.00 M   0.00   0.00 D 250.00 500.00 D S
250.00 500.00 M 250.00 500.00 D 500.00 250.00 D S
500.00 250.00 M 500.00 250.00 D 250.00 1250.00 D S
250.00 1250.00 M 250.00 1250.00 D 750.00 250.00 D S
750.00 250.00 M  0.000  1.000  0.000 C
 S
155.00 310.00 M 155.00 310.00 D 405.00 345.00 D S
405.00 345.00 M 405.00 345.00 D 345.00 870.00 D S
345.00 870.00 M 345.00 870.00 D 560.00 630.00 D S
560.00 630.00 M  0.000  0.000  1.000 C
 S
310.00 331.70 M 310.00 331.70 D 367.80 670.50 D S
367.80 670.50 M 367.80 670.50 D 478.30 721.20 D S
478.30 721.20 M  0.000  1.000  1.000 C
 S
345.84 541.76 M 345.84 541.76 D 436.31 701.93 D S
436.31 701.93 M  1.000  0.000  0.000 C
 S
  0.00   0.00 M   0.00   0.00 D 250.00 500.00 D S
250.00 500.00 M 250.00 500.00 D 500.00 250.00 D S
500.00 250.00 M 500.00 250.00 D 250.00 1250.00 D S
250.00 1250.00 M 250.00 1250.00 D 750.00 250.00 D S
750.00 250.00 M  0.000  1.000  0.000 C
 S
157.50 315.00 M 157.50 315.00 D 407.50 342.50 D S
407.50 342.50 M 407.50 342.50 D 342.50 880.00 D S
342.50 880.00 M 342.50 880.00 D 565.00 620.00 D S
565.00 620.00 M  0.000  0.000  1.000 C
 S
315.00 332.33 M 315.00 332.33 D 366.55 681.12 D S
366.55 681.13 M 366.55 681.12 D 482.68 716.20 D S
482.68 716.20 M  0.000  1.000  1.000 C
 S
347.48 552.07 M 347.48 552.07 D 439.71 703.22 D S
439.71 703.22 M  1.000  0.000  0.000 C
 S
  0.00   0.00 M   0.00   0.00 D 250.00 500.00 D S
250.00 500.00 M 250.00 500.00 D 500.00 250.00 D S
500.00 250.00 M 500.00 250.00 D 250.00 1250.00 D S
250.00 1250.00 M 250.00 1250.00 D 750.00 250.00 D S
750.00 250.00 M  0.000  1.000  0.000 C
 S
160.00 320.00 M 160.00 320.00 D 410.00 340.00 D S
410.00 340.00 M 410.00 340.00 D 340.00 890.00 D S
340.00 890.00 M 340.00 890.00 D 570.00 610.00 D S
570.00 610.00 M  0.000  0.000  1.000 C
 S
320.00 332.80 M 320.00 332.80 D 365.20 692.00 D S
365.20 692.00 M 365.20 692.00 D 487.20 710.80 D S
487.20 710.80 M  0.000  1.000  1.000 C
 S
348.93 562.69 M 348.93 562.69 D 443.28 704.03 D S
443.28 704.03 M  1.000  0.000  0.000 C
 S
  0.00   0.00 M   0.00   0.00 D 250.00 500.00 D S
250.00 500.00 M 250.00 500.00 D 500.00 250.00 D S
500.00 250.00 M 500.00 250.00 D 250.00 1250.00 D S
250.00 1250.00 M 250.00 1250.00 D 750.00 250.00 D S
750.00 250.00 M  0.000  1.000  0.000 C
 S
162.50 325.00 M 162.50 325.00 D 412.50 337.50 D S
412.50 337.50 M 412.50 337.50 D 337.50 900.00 D S
337.50 900.00 M 337.50 900.00 D 575.00 600.00 D S
575.00 600.00 M  0.000  0.000  1.000 C
 S
325.00 333.13 M 325.00 333.12 D 363.75 703.12 D S
363.75 703.13 M 363.75 703.12 D 491.88 705.00 D S
491.88 705.00 M  0.000  1.000  1.000 C
 S
350.19 573.63 M 350.19 573.62 D 447.03 704.34 D S
447.03 704.34 M  1.000  0.000  0.000 C
 S
  0.00   0.00 M   0.00   0.00 D 250.00 500.00 D S
250.00 500.00 M 250.00 500.00 D 500.00 250.00 D S
500.00 250.00 M 500.00 250.00 D 250.00 1250.00 D S
250.00 1250.00 M 250.00 1250.00 D 750.00 250.00 D S
750.00 250.00 M  0.000  1.000  0.000 C
 S
165.00 330.00 M 165.00 330.00 D 415.00 335.00 D S
415.00 335.00 M 415.00 335.00 D 335.00 910.00 D S
335.00 910.00 M 335.00 910.00 D 580.00 590.00 D S
580.00 590.00 M  0.000  0.000  1.000 C
 S
330.00 333.30 M 330.00 333.30 D 362.20 714.50 D S
362.20 714.50 M 362.20 714.50 D 496.70 698.80 D S
496.70 698.80 M  0.000  1.000  1.000 C
 S
351.25 584.89 M 351.25 584.89 D 450.97 704.14 D S
450.97 704.14 M  1.000  0.000  0.000 C
 S
  0.00   0.00 M   0.00   0.00 D 250.00 500.00 D S
250.00 500.00 M 250.00 500.00 D 500.00 250.00 D S
500.00 250.00 M 500.00 250.00 D 250.00 1250.00 D S
250.00 1250.00 M 250.00 1250.00 D 750.00 250.00 D S
750.00 250.00 M  0.000  1.000  0.000 C
 S
167.50 335.00 M 167.50 335.00 D 417.50 332.50 D S
417.50 332.50 M 417.50 332.50 D 332.50 920.00 D S
332.50 920.00 M 332.50 920.00 D 585.00 580.00 D S
585.00 580.00 M  0.000  0.000  1.000 C
 S
335.00 333.33 M 335.00 333.33 D 360.55 726.12 D S
360.55 726.13 M 360.55 726.12 D 501.68 692.20 D S
501.68 692.20 M  0.000  1.000  1.000 C
 S
352.12 596.50 M 352.12 596.50 D 455.10 703.40 D S
455.10 703.40 M  1.000  0.000  0.000 C
 S
  0.00   0.00 M   0.00   0.00 D 250.00 500.00 D S
250.00 500.00 M 250.00 500.00 D 500.00 250.00 D S
500.00 250.00 M 500.00 250.00 D 250.00 1250.00 D S
250.00 1250.00 M 250.00 1250.00 D 750.00 250.00 D S
750.00 250.00 M  0.000  1.000  0.000 C
 S
170.00 340.00 M 170.00 340.00 D 420.00 330.00 D S
420.00 330.00 M 420.00 330.00 D 330.00 930.00 D S
330.00 930.00 M 330.00 930.00 D 590.00 570.00 D S
590.00 570.00 M  0.000  0.000  1.000 C
 S
340.00 333.20 M 340.00 333.20 D 358.80 738.00 D S
358.80 738.00 M 358.80 738.00 D 506.80 685.20 D S
506.80 685.20 M  0.000  1.000  1.000 C
 S
352.78 608.46 M 352.78 608.46 D 459.44 702.10 D S
459.44 702.10 M  1.000  0.000  0.000 C
 S
  0.00   0.00 M   0.00   0.00 D 250.00 500.00 D S
250.00 500.00 M 250.00 500.00 D 500.00 250.00 D S
500.00 250.00 M 500.00 250.00 D 250.00 1250.00 D S
250.00 1250.00 M 250.00 1250.00 D 750.00 250.00 D S
750.00 250.00 M  0.000  1.000  0.000 C
 S
172.50 345.00 M 172.50 345.00 D 422.50 327.50 D S
422.50 327.50 M 422.50 327.50 D 327.50 940.00 D S
327.50 940.00 M 327.50 940.00 D 595.00 560.00 D S
595.00 560.00 M  0.000  0.000  1.000 C
 S
345.00 332.93 M 345.00 332.93 D 356.95 750.12 D S
356.95 750.13 M 356.95 750.12 D 512.08 677.80 D S
512.08 677.80 M  0.000  1.000  1.000 C
 S
353.25 620.79 M 353.25 620.79 D 463.99 700.22 D S
463.99 700.22 M  1.000  0.000  0.000 C
 S
  0.00   0.00 M   0.00   0.00 D 250.00 500.00 D S
250.00 500.00 M 250.00 500.00 D 500.00 250.00 D S
500.00 250.00 M 500.00 250.00 D 250.00 1250.00 D S
250.00 1250.00 M 250.00 1250.00 D 750.00 250.00 D S
750.00 250.00 M  0.000  1.000  0.000 C
 S
175.00 350.00 M 175.00 350.00 D 425.00 325.00 D S
425.00 325.00 M 425.00 325.00 D 325.00 950.00 D S
325.00 950.00 M 325.00 950.00 D 600.00 550.00 D S
600.00 550.00 M  0.000  0.000  1.000 C
 S
350.00 332.50 M 350.00 332.50 D 355.00 762.50 D S
355.00 762.50 M 355.00 762.50 D 517.50 670.00 D S
517.50 670.00 M  0.000  1.000  1.000 C
 S
353.50 633.50 M 353.50 633.50 D 468.75 697.75 D S
468.75 697.75 M  1.000  0.000  0.000 C
 S
  0.00   0.00 M   0.00   0.00 D 250.00 500.00 D S
250.00 500.00 M 250.00 500.00 D 500.00 250.00 D S
500.00 250.00 M 500.00 250.00 D 250.00 1250.00 D S
250.00 1250.00 M 250.00 1250.00 D 750.00 250.00 D S
750.00 250.00 M  0.000  1.000  0.000 C
 S
177.50 355.00 M 177.50 355.00 D 427.50 322.50 D S
427.50 322.50 M 427.50 322.50 D 322.50 960.00 D S
322.50 960.00 M 322.50 960.00 D 605.00 540.00 D S
605.00 540.00 M  0.000  0.000  1.000 C
 S
355.00 331.93 M 355.00 331.93 D 352.95 775.12 D S
352.95 775.13 M 352.95 775.12 D 523.08 661.80 D S
523.08 661.80 M  0.000  1.000  1.000 C
 S
353.54 646.60 M 353.54 646.60 D 473.74 694.66 D S
473.74 694.66 M  1.000  0.000  0.000 C
 S
  0.00   0.00 M   0.00   0.00 D 250.00 500.00 D S
250.00 500.00 M 250.00 500.00 D 500.00 250.00 D S
500.00 250.00 M 500.00 250.00 D 250.00 1250.00 D S
250.00 1250.00 M 250.00 1250.00 D 750.00 250.00 D S
750.00 250.00 M  0.000  1.000  0.000 C
 S
180.00 360.00 M 180.00 360.00 D 430.00 320.00 D S
430.00 320.00 M 430.00 320.00 D 320.00 970.00 D S
320.00 970.00 M 320.00 970.00 D 610.00 530.00 D S
610.00 530.00 M  0.000  0.000  1.000 C
 S
360.00 331.20 M 360.00 331.20 D 350.80 788.00 D S
350.80 788.00 M 350.80 788.00 D 528.80 653.20 D S
528.80 653.20 M  0.000  1.000  1.000 C
 S
353.38 660.10 M 353.38 660.10 D 478.96 690.94 D S
478.96 690.94 M  1.000  0.000  0.000 C
 S
  0.00   0.00 M   0.00   0.00 D 250.00 500.00 D S
250.00 500.00 M 250.00 500.00 D 500.00 250.00 D S
500.00 250.00 M 500.00 250.00 D 250.00 1250.00 D S
250.00 1250.00 M 250.00 1250.00 D 750.00 250.00 D S
750.00 250.00 M  0.000  1.000  0.000 C
 S
182.50 365.00 M 182.50 365.00 D 432.50 317.50 D S
432.50 317.50 M 432.50 317.50 D 317.50 980.00 D S
317.50 980.00 M 317.50 980.00 D 615.00 520.00 D S
615.00 520.00 M  0.000  0.000  1.000 C
 S
365.00 330.33 M 365.00 330.33 D 348.55 801.12 D S
348.55 801.13 M 348.55 801.12 D 534.67 644.20 D S
534.67 644.20 M  0.000  1.000  1.000 C
 S
352.99 674.01 M 352.99 674.01 D 484.42 686.57 D S
484.42 686.57 M  1.000  0.000  0.000 C
 S
  0.00   0.00 M   0.00   0.00 D 250.00 500.00 D S
250.00 500.00 M 250.00 500.00 D 500.00 250.00 D S
500.00 250.00 M 500.00 250.00 D 250.00 1250.00 D S
250.00 1250.00 M 250.00 1250.00 D 750.00 250.00 D S
750.00 250.00 M  0.000  1.000  0.000 C
 S
185.00 370.00 M 185.00 370.00 D 435.00 315.00 D S
435.00 315.00 M 435.00 315.00 D 315.00 990.00 D S
315.00 990.00 M 315.00 990.00 D 620.00 510.00 D S
620.00 510.00 M  0.000  0.000  1.000 C
 S
370.00 329.30 M 370.00 329.30 D 346.20 814.50 D S
346.20 814.50 M 346.20 814.50 D 540.70 634.80 D S
540.70 634.80 M  0.000  1.000  1.000 C
 S
352.39 688.35 M 352.39 688.35 D 490.13 681.52 D S
490.13 681.52 M  1.000  0.000  0.000 C
 S
  0.00   0.00 M   0.00   0.00 D 250.00 500.00 D S
250.00 500.00 M 250.00 500.00 D 500.00 250.00 D S
500.00 250.00 M 500.00 250.00 D 250.00 1250.00 D S
250.00 1250.00 M 250.00 1250.00 D 750.00 250.00 D S
750.00 250.00 M  0.000  1.000  0.000 C
 S
187.50 375.00 M 187.50 375.00 D 437.50 312.50 D S
437.50 312.50 M 437.50 312.50 D 312.50 1000.00 D S
312.50 1000.00 M 312.50 1000.00 D 625.00 500.00 D S
625.00 500.00 M  0.000  0.000  1.000 C
 S
375.00 328.13 M 375.00 328.12 D 343.75 828.12 D S
343.75 828.13 M 343.75 828.12 D 546.88 625.00 D S
546.88 625.00 M  0.000  1.000  1.000 C
 S
351.56 703.13 M 351.56 703.12 D 496.09 675.78 D S
496.09 675.78 M  1.000  0.000  0.000 C
 S
  0.00   0.00 M   0.00   0.00 D 250.00 500.00 D S
250.00 500.00 M 250.00 500.00 D 500.00 250.00 D S
500.00 250.00 M 500.00 250.00 D 250.00 1250.00 D S
250.00 1250.00 M 250.00 1250.00 D 750.00 250.00 D S
750.00 250.00 M  0.000  1.000  0.000 C
 S
190.00 380.00 M 190.00 380.00 D 440.00 310.00 D S
440.00 310.00 M 440.00 310.00 D 310.00 1010.00 D S
310.00 1010.00 M 310.00 1010.00 D 630.00 490.00 D S
630.00 490.00 M  0.000  0.000  1.000 C
 S
380.00 326.80 M 380.00 326.80 D 341.20 842.00 D S
341.20 842.00 M 341.20 842.00 D 553.20 614.80 D S
553.20 614.80 M  0.000  1.000  1.000 C
 S
350.51 718.35 M 350.51 718.35 D 502.32 669.33 D S
502.32 669.33 M  1.000  0.000  0.000 C
 S
  0.00   0.00 M   0.00   0.00 D 250.00 500.00 D S
250.00 500.00 M 250.00 500.00 D 500.00 250.00 D S
500.00 250.00 M 500.00 250.00 D 250.00 1250.00 D S
250.00 1250.00 M 250.00 1250.00 D 750.00 250.00 D S
750.00 250.00 M  0.000  1.000  0.000 C
 S
192.50 385.00 M 192.50 385.00 D 442.50 307.50 D S
442.50 307.50 M 442.50 307.50 D 307.50 1020.00 D S
307.50 1020.00 M 307.50 1020.00 D 635.00 480.00 D S
635.00 480.00 M  0.000  0.000  1.000 C
 S
385.00 325.33 M 385.00 325.33 D 338.55 856.12 D S
338.55 856.13 M 338.55 856.12 D 559.67 604.20 D S
559.67 604.20 M  0.000  1.000  1.000 C
 S
349.23 734.04 M 349.23 734.04 D 508.82 662.14 D S
508.82 662.14 M  1.000  0.000  0.000 C
 S
  0.00   0.00 M   0.00   0.00 D 250.00 500.00 D S
250.00 500.00 M 250.00 500.00 D 500.00 250.00 D S
500.00 250.00 M 500.00 250.00 D 250.00 1250.00 D S
250.00 1250.00 M 250.00 1250.00 D 750.00 250.00 D S
750.00 250.00 M  0.000  1.000  0.000 C
 S
195.00 390.00 M 195.00 390.00 D 445.00 305.00 D S
445.00 305.00 M 445.00 305.00 D 305.00 1030.00 D S
305.00 1030.00 M 305.00 1030.00 D 640.00 470.00 D S
640.00 470.00 M  0.000  0.000  1.000 C
 S
390.00 323.70 M 390.00 323.70 D 335.80 870.50 D S
335.80 870.50 M 335.80 870.50 D 566.30 593.20 D S
566.30 593.20 M  0.000  1.000  1.000 C
 S
347.72 750.20 M 347.72 750.20 D 515.59 654.21 D S
515.59 654.21 M  1.000  0.000  0.000 C
 S
  0.00   0.00 M   0.00   0.00 D 250.00 500.00 D S
250.00 500.00 M 250.00 500.00 D 500.00 250.00 D S
500.00 250.00 M 500.00 250.00 D 250.00 1250.00 D S
250.00 1250.00 M 250.00 1250.00 D 750.00 250.00 D S
750.00 250.00 M  0.000  1.000  0.000 C
 S
197.50 395.00 M 197.50 395.00 D 447.50 302.50 D S
447.50 302.50 M 447.50 302.50 D 302.50 1040.00 D S
302.50 1040.00 M 302.50 1040.00 D 645.00 460.00 D S
645.00 460.00 M  0.000  0.000  1.000 C
 S
395.00 321.93 M 395.00 321.93 D 332.95 885.12 D S
332.95 885.13 M 332.95 885.12 D 573.08 581.80 D S
573.08 581.80 M  0.000  1.000  1.000 C
 S
345.98 766.85 M 345.98 766.85 D 522.65 645.50 D S
522.65 645.50 M  1.000  0.000  0.000 C
 S
  0.00   0.00 M   0.00   0.00 D 250.00 500.00 D S
250.00 500.00 M 250.00 500.00 D 500.00 250.00 D S
500.00 250.00 M 500.00 250.00 D 250.00 1250.00 D S
250.00 1250.00 M 250.00 1250.00 D 750.00 250.00 D S
750.00 250.00 M  0.000  1.000  0.000 C
 S
200.00 400.00 M 200.00 400.00 D 450.00 300.00 D S
450.00 300.00 M 450.00 300.00 D 300.00 1050.00 D S
300.00 1050.00 M 300.00 1050.00 D 650.00 450.00 D S
650.00 450.00 M  0.000  0.000  1.000 C
 S
400.00 320.00 M 400.00 320.00 D 330.00 900.00 D S
330.00 900.00 M 330.00 900.00 D 580.00 570.00 D S
580.00 570.00 M  0.000  1.000  1.000 C
 S
344.00 784.00 M 344.00 784.00 D 530.00 636.00 D S
530.00 636.00 M  1.000  0.000  0.000 C
 S
  0.00   0.00 M   0.00   0.00 D 250.00 500.00 D S
250.00 500.00 M 250.00 500.00 D 500.00 250.00 D S
500.00 250.00 M 500.00 250.00 D 250.00 1250.00 D S
250.00 1250.00 M 250.00 1250.00 D 750.00 250.00 D S
750.00 250.00 M  0.000  1.000  0.000 C
 S
202.50 405.00 M 202.50 405.00 D 452.50 297.50 D S
452.50 297.50 M 452.50 297.50 D 297.50 1060.00 D S
297.50 1060.00 M 297.50 1060.00 D 655.00 440.00 D S
655.00 440.00 M  0.000  0.000  1.000 C
 S
405.00 317.93 M 405.00 317.93 D 326.95 915.12 D S
326.95 915.13 M 326.95 915.12 D 587.08 557.80 D S
587.08 557.80 M  0.000  1.000  1.000 C
 S
341.78 801.66 M 341.78 801.66 D 537.65 625.69 D S
537.65 625.69 M  1.000  0.000  0.000 C
 S
  0.00   0.00 M   0.00   0.00 D 250.00 500.00 D S
250.00 500.00 M 250.00 500.00 D 500.00 250.00 D S
500.00 250.00 M 500.00 250.00 D 250.00 1250.00 D S
250.00 1250.00 M 250.00 1250.00 D 750.00 250.00 D S
750.00 250.00 M  0.000  1.000  0.000 C
 S
205.00 410.00 M 205.00 410.00 D 455.00 295.00 D S
455.00 295.00 M 455.00 295.00 D 295.00 1070.00 D S
295.00 1070.00 M 295.00 1070.00 D 660.00 430.00 D S
660.00 430.00 M  0.000  0.000  1.000 C
 S
410.00 315.70 M 410.00 315.70 D 323.80 930.50 D S
323.80 930.50 M 323.80 930.50 D 594.30 545.20 D S
594.30 545.20 M  0.000  1.000  1.000 C
 S
339.32 819.84 M 339.32 819.84 D 545.61 614.55 D S
545.61 614.55 M  1.000  0.000  0.000 C
 S
  0.00   0.00 M   0.00   0.00 D 250.00 500.00 D S
250.00 500.00 M 250.00 500.00 D 500.00 250.00 D S
500.00 250.00 M 500.00 250.00 D 250.00 1250.00 D S
250.00 1250.00 M 250.00 1250.00 D 750.00 250.00 D S
750.00 250.00 M  0.000  1.000  0.000 C
 S
207.50 415.00 M 207.50 415.00 D 457.50 292.50 D S
457.50 292.50 M 457.50 292.50 D 292.50 1080.00 D S
292.50 1080.00 M 292.50 1080.00 D 665.00 420.00 D S
665.00 420.00 M  0.000  0.000  1.000 C
 S
415.00 313.33 M 415.00 313.33 D 320.55 946.12 D S
320.55 946.13 M 320.55 946.12 D 601.67 532.20 D S
601.67 532.20 M  0.000  1.000  1.000 C
 S
336.61 838.55 M 336.61 838.55 D 553.88 602.57 D S
553.88 602.57 M  1.000  0.000  0.000 C
 S
  0.00   0.00 M   0.00   0.00 D 250.00 500.00 D S
250.00 500.00 M 250.00 500.00 D 500.00 250.00 D S
500.00 250.00 M 500.00 250.00 D 250.00 1250.00 D S
250.00 1250.00 M 250.00 1250.00 D 750.00 250.00 D S
750.00 250.00 M  0.000  1.000  0.000 C
 S
210.00 420.00 M 210.00 420.00 D 460.00 290.00 D S
460.00 290.00 M 460.00 290.00 D 290.00 1090.00 D S
290.00 1090.00 M 290.00 1090.00 D 670.00 410.00 D S
670.00 410.00 M  0.000  0.000  1.000 C
 S
420.00 310.80 M 420.00 310.80 D 317.20 962.00 D S
317.20 962.00 M 317.20 962.00 D 609.20 518.80 D S
609.20 518.80 M  0.000  1.000  1.000 C
 S
333.65 857.81 M 333.65 857.81 D 562.48 589.71 D S
562.48 589.71 M  1.000  0.000  0.000 C
 S
  0.00   0.00 M   0.00   0.00 D 250.00 500.00 D S
250.00 500.00 M 250.00 500.00 D 500.00 250.00 D S
500.00 250.00 M 500.00 250.00 D 250.00 1250.00 D S
250.00 1250.00 M 250.00 1250.00 D 750.00 250.00 D S
750.00 250.00 M  0.000  1.000  0.000 C
 S
212.50 425.00 M 212.50 425.00 D 462.50 287.50 D S
462.50 287.50 M 462.50 287.50 D 287.50 1100.00 D S
287.50 1100.00 M 287.50 1100.00 D 675.00 400.00 D S
675.00 400.00 M  0.000  0.000  1.000 C
 S
425.00 308.13 M 425.00 308.12 D 313.75 978.12 D S
313.75 978.13 M 313.75 978.12 D 616.88 505.00 D S
616.88 505.00 M  0.000  1.000  1.000 C
 S
330.44 877.63 M 330.44 877.62 D 571.41 575.97 D S
571.41 575.97 M  1.000  0.000  0.000 C
 S
  0.00   0.00 M   0.00   0.00 D 250.00 500.00 D S
250.00 500.00 M 250.00 500.00 D 500.00 250.00 D S
500.00 250.00 M 500.00 250.00 D 250.00 1250.00 D S
250.00 1250.00 M 250.00 1250.00 D 750.00 250.00 D S
750.00 250.00 M  0.000  1.000  0.000 C
 S
215.00 430.00 M 215.00 430.00 D 465.00 285.00 D S
465.00 285.00 M 465.00 285.00 D 285.00 1110.00 D S
285.00 1110.00 M 285.00 1110.00 D 680.00 390.00 D S
680.00 390.00 M  0.000  0.000  1.000 C
 S
430.00 305.30 M 430.00 305.30 D 310.20 994.50 D S
310.20 994.50 M 310.20 994.50 D 624.70 490.80 D S
624.70 490.80 M  0.000  1.000  1.000 C
 S
326.97 898.01 M 326.97 898.01 D 580.67 561.32 D S
580.67 561.32 M  1.000  0.000  0.000 C
 S
  0.00   0.00 M   0.00   0.00 D 250.00 500.00 D S
250.00 500.00 M 250.00 500.00 D 500.00 250.00 D S
500.00 250.00 M 500.00 250.00 D 250.00 1250.00 D S
250.00 1250.00 M 250.00 1250.00 D 750.00 250.00 D S
750.00 250.00 M  0.000  1.000  0.000 C
 S
217.50 435.00 M 217.50 435.00 D 467.50 282.50 D S
467.50 282.50 M 467.50 282.50 D 282.50 1120.00 D S
282.50 1120.00 M 282.50 1120.00 D 685.00 380.00 D S
685.00 380.00 M  0.000  0.000  1.000 C
 S
435.00 302.33 M 435.00 302.33 D 306.55 1011.12 D S
306.55 1011.13 M 306.55 1011.12 D 632.67 476.20 D S
632.67 476.20 M  0.000  1.000  1.000 C
 S
323.25 918.98 M 323.25 918.98 D 590.28 545.74 D S
590.28 545.74 M  1.000  0.000  0.000 C
 S
  0.00   0.00 M   0.00   0.00 D 250.00 500.00 D S
250.00 500.00 M 250.00 500.00 D 500.00 250.00 D S
500.00 250.00 M 500.00 250.00 D 250.00 1250.00 D S
250.00 1250.00 M 250.00 1250.00 D 750.00 250.00 D S
750.00 250.00 M  0.000  1.000  0.000 C
 S
220.00 440.00 M 220.00 440.00 D 470.00 280.00 D S
470.00 280.00 M 470.00 280.00 D 280.00 1130.00 D S
280.00 1130.00 M 280.00 1130.00 D 690.00 370.00 D S
690.00 370.00 M  0.000  0.000  1.000 C
 S
440.00 299.20 M 440.00 299.20 D 302.80 1028.00 D S
302.80 1028.00 M 302.80 1028.00 D 640.80 461.20 D S
640.80 461.20 M  0.000  1.000  1.000 C
 S
319.26 940.54 M 319.26 940.54 D 600.24 529.22 D S
600.24 529.22 M  1.000  0.000  0.000 C
 S
  0.00   0.00 M   0.00   0.00 D 250.00 500.00 D S
250.00 500.00 M 250.00 500.00 D 500.00 250.00 D S
500.00 250.00 M 500.00 250.00 D 250.00 1250.00 D S
250.00 1250.00 M 250.00 1250.00 D 750.00 250.00 D S
750.00 250.00 M  0.000  1.000  0.000 C
 S
222.50 445.00 M 222.50 445.00 D 472.50 277.50 D S
472.50 277.50 M 472.50 277.50 D 277.50 1140.00 D S
277.50 1140.00 M 277.50 1140.00 D 695.00 360.00 D S
695.00 360.00 M  0.000  0.000  1.000 C
 S
445.00 295.93 M 445.00 295.93 D 298.95 1045.12 D S
298.95 1045.13 M 298.95 1045.12 D 649.08 445.80 D S
649.08 445.80 M  0.000  1.000  1.000 C
 S
315.02 962.71 M 315.02 962.71 D 610.56 511.73 D S
610.56 511.73 M  1.000  0.000  0.000 C
 S
  0.00   0.00 M   0.00   0.00 D 250.00 500.00 D S
250.00 500.00 M 250.00 500.00 D 500.00 250.00 D S
500.00 250.00 M 500.00 250.00 D 250.00 1250.00 D S
250.00 1250.00 M 250.00 1250.00 D 750.00 250.00 D S
750.00 250.00 M  0.000  1.000  0.000 C
 S
225.00 450.00 M 225.00 450.00 D 475.00 275.00 D S
475.00 275.00 M 475.00 275.00 D 275.00 1150.00 D S
275.00 1150.00 M 275.00 1150.00 D 700.00 350.00 D S
700.00 350.00 M  0.000  0.000  1.000 C
 S
450.00 292.50 M 450.00 292.50 D 295.00 1062.50 D S
295.00 1062.50 M 295.00 1062.50 D 657.50 430.00 D S
657.50 430.00 M  0.000  1.000  1.000 C
 S
310.50 985.50 M 310.50 985.50 D 621.25 493.25 D S
621.25 493.25 M  1.000  0.000  0.000 C
 S
  0.00   0.00 M   0.00   0.00 D 250.00 500.00 D S
250.00 500.00 M 250.00 500.00 D 500.00 250.00 D S
500.00 250.00 M 500.00 250.00 D 250.00 1250.00 D S
250.00 1250.00 M 250.00 1250.00 D 750.00 250.00 D S
750.00 250.00 M  0.000  1.000  0.000 C
 S
227.50 455.00 M 227.50 455.00 D 477.50 272.50 D S
477.50 272.50 M 477.50 272.50 D 272.50 1160.00 D S
272.50 1160.00 M 272.50 1160.00 D 705.00 340.00 D S
705.00 340.00 M  0.000  0.000  1.000 C
 S
455.00 288.93 M 455.00 288.93 D 290.95 1080.12 D S
290.95 1080.13 M 290.95 1080.12 D 666.08 413.80 D S
666.08 413.80 M  0.000  1.000  1.000 C
 S
305.71 1008.92 M 305.71 1008.92 D 632.31 473.77 D S
632.31 473.77 M  1.000  0.000  0.000 C
 S
  0.00   0.00 M   0.00   0.00 D 250.00 500.00 D S
250.00 500.00 M 250.00 500.00 D 500.00 250.00 D S
500.00 250.00 M 500.00 250.00 D 250.00 1250.00 D S
250.00 1250.00 M 250.00 1250.00 D 750.00 250.00 D S
750.00 250.00 M  0.000  1.000  0.000 C
 S
230.00 460.00 M 230.00 460.00 D 480.00 270.00 D S
480.00 270.00 M 480.00 270.00 D 270.00 1170.00 D S
270.00 1170.00 M 270.00 1170.00 D 710.00 330.00 D S
710.00 330.00 M  0.000  0.000  1.000 C
 S
460.00 285.20 M 460.00 285.20 D 286.80 1098.00 D S
286.80 1098.00 M 286.80 1098.00 D 674.80 397.20 D S
674.80 397.20 M  0.000  1.000  1.000 C
 S
300.66 1032.98 M 300.66 1032.98 D 643.76 453.26 D S
643.76 453.26 M  1.000  0.000  0.000 C
 S
  0.00   0.00 M   0.00   0.00 D 250.00 500.00 D S
250.00 500.00 M 250.00 500.00 D 500.00 250.00 D S
500.00 250.00 M 500.00 250.00 D 250.00 1250.00 D S
250.00 1250.00 M 250.00 1250.00 D 750.00 250.00 D S
750.00 250.00 M  0.000  1.000  0.000 C
 S
232.50 465.00 M 232.50 465.00 D 482.50 267.50 D S
482.50 267.50 M 482.50 267.50 D 267.50 1180.00 D S
267.50 1180.00 M 267.50 1180.00 D 715.00 320.00 D S
715.00 320.00 M  0.000  0.000  1.000 C
 S
465.00 281.33 M 465.00 281.33 D 282.55 1116.12 D S
282.55 1116.13 M 282.55 1116.12 D 683.67 380.20 D S
683.67 380.20 M  0.000  1.000  1.000 C
 S
295.32 1057.69 M 295.32 1057.69 D 655.60 431.71 D S
655.60 431.71 M  1.000  0.000  0.000 C
 S
  0.00   0.00 M   0.00   0.00 D 250.00 500.00 D S
250.00 500.00 M 250.00 500.00 D 500.00 250.00 D S
500.00 250.00 M 500.00 250.00 D 250.00 1250.00 D S
250.00 1250.00 M 250.00 1250.00 D 750.00 250.00 D S
750.00 250.00 M  0.000  1.000  0.000 C
 S
235.00 470.00 M 235.00 470.00 D 485.00 265.00 D S
485.00 265.00 M 485.00 265.00 D 265.00 1190.00 D S
265.00 1190.00 M 265.00 1190.00 D 720.00 310.00 D S
720.00 310.00 M  0.000  0.000  1.000 C
 S
470.00 277.30 M 470.00 277.30 D 278.20 1134.50 D S
278.20 1134.50 M 278.20 1134.50 D 692.70 362.80 D S
692.70 362.80 M  0.000  1.000  1.000 C
 S
289.71 1083.07 M 289.71 1083.07 D 667.83 409.10 D S
667.83 409.10 M  1.000  0.000  0.000 C
 S
  0.00   0.00 M   0.00   0.00 D 250.00 500.00 D S
250.00 500.00 M 250.00 500.00 D 500.00 250.00 D S
500.00 250.00 M 500.00 250.00 D 250.00 1250.00 D S
250.00 1250.00 M 250.00 1250.00 D 750.00 250.00 D S
750.00 250.00 M  0.000  1.000  0.000 C
 S
237.50 475.00 M 237.50 475.00 D 487.50 262.50 D S
487.50 262.50 M 487.50 262.50 D 262.50 1200.00 D S
262.50 1200.00 M 262.50 1200.00 D 725.00 300.00 D S
725.00 300.00 M  0.000  0.000  1.000 C
 S
475.00 273.13 M 475.00 273.12 D 273.75 1153.12 D S
273.75 1153.13 M 273.75 1153.12 D 701.88 345.00 D S
701.88 345.00 M  0.000  1.000  1.000 C
 S
283.81 1109.13 M 283.81 1109.12 D 680.47 385.41 D S
680.47 385.41 M  1.000  0.000  0.000 C
 S
  0.00   0.00 M   0.00   0.00 D 250.00 500.00 D S
250.00 500.00 M 250.00 500.00 D 500.00 250.00 D S
500.00 250.00 M 500.00 250.00 D 250.00 1250.00 D S
250.00 1250.00 M 250.00 1250.00 D 750.00 250.00 D S
750.00 250.00 M  0.000  1.000  0.000 C
 S
240.00 480.00 M 240.00 480.00 D 490.00 260.00 D S
490.00 260.00 M 490.00 260.00 D 260.00 1210.00 D S
260.00 1210.00 M 260.00 1210.00 D 730.00 290.00 D S
730.00 290.00 M  0.000  0.000  1.000 C
 S
480.00 268.80 M 480.00 268.80 D 269.20 1172.00 D S
269.20 1172.00 M 269.20 1172.00 D 711.20 326.80 D S
711.20 326.80 M  0.000  1.000  1.000 C
 S
277.63 1135.87 M 277.63 1135.87 D 693.52 360.61 D S
693.52 360.61 M  1.000  0.000  0.000 C
 S
  0.00   0.00 M   0.00   0.00 D 250.00 500.00 D S
250.00 500.00 M 250.00 500.00 D 500.00 250.00 D S
500.00 250.00 M 500.00 250.00 D 250.00 1250.00 D S
250.00 1250.00 M 250.00 1250.00 D 750.00 250.00 D S
750.00 250.00 M  0.000  1.000  0.000 C
 S
242.50 485.00 M 242.50 485.00 D 492.50 257.50 D S
492.50 257.50 M 492.50 257.50 D 257.50 1220.00 D S
257.50 1220.00 M 257.50 1220.00 D 735.00 280.00 D S
735.00 280.00 M  0.000  0.000  1.000 C
 S
485.00 264.33 M 485.00 264.33 D 264.55 1191.12 D S
264.55 1191.13 M 264.55 1191.12 D 720.67 308.20 D S
720.67 308.20 M  0.000  1.000  1.000 C
 S
271.16 1163.32 M 271.16 1163.32 D 706.99 334.69 D S
706.99 334.69 M  1.000  0.000  0.000 C
 S
  0.00   0.00 M   0.00   0.00 D 250.00 500.00 D S
250.00 500.00 M 250.00 500.00 D 500.00 250.00 D S
500.00 250.00 M 500.00 250.00 D 250.00 1250.00 D S
250.00 1250.00 M 250.00 1250.00 D 750.00 250.00 D S
750.00 250.00 M  0.000  1.000  0.000 C
 S
245.00 490.00 M 245.00 490.00 D 495.00 255.00 D S
495.00 255.00 M 495.00 255.00 D 255.00 1230.00 D S
255.00 1230.00 M 255.00 1230.00 D 740.00 270.00 D S
740.00 270.00 M  0.000  0.000  1.000 C
 S
490.00 259.70 M 490.00 259.70 D 259.80 1210.50 D S
259.80 1210.50 M 259.80 1210.50 D 730.30 289.20 D S
730.30 289.20 M  0.000  1.000  1.000 C
 S
264.40 1191.48 M 264.40 1191.48 D 720.89 307.63 D S
720.89 307.63 M  1.000  0.000  0.000 C
 S
  0.00   0.00 M   0.00   0.00 D 250.00 500.00 D S
250.00 500.00 M 250.00 500.00 D 500.00 250.00 D S
500.00 250.00 M 500.00 250.00 D 250.00 1250.00 D S
250.00 1250.00 M 250.00 1250.00 D 750.00 250.00 D S
750.00 250.00 M  0.000  1.000  0.000 C
 S
247.50 495.00 M 247.50 495.00 D 497.50 252.50 D S
497.50 252.50 M 497.50 252.50 D 252.50 1240.00 D S
252.50 1240.00 M 252.50 1240.00 D 745.00 260.00 D S
745.00 260.00 M  0.000  0.000  1.000 C
 S
495.00 254.93 M 495.00 254.93 D 254.95 1230.12 D S
254.95 1230.13 M 254.95 1230.12 D 740.08 269.80 D S
740.08 269.80 M  0.000  1.000  1.000 C
 S
257.35 1220.37 M 257.35 1220.37 D 735.22 279.40 D S
735.22 279.40 M  1.000  0.000  0.000 C
 S
  0.00   0.00 M   0.00   0.00 D 250.00 500.00 D S
250.00 500.00 M 250.00 500.00 D 500.00 250.00 D S
500.00 250.00 M 500.00 250.00 D 250.00 1250.00 D S
250.00 1250.00 M 250.00 1250.00 D 750.00 250.00 D S
750.00 250.00 M  0.000  1.000  0.000 C
 S
250.00 500.00 M 250.00 500.00 D 500.00 250.00 D S
500.00 250.00 M 500.00 250.00 D 250.00 1250.00 D S
250.00 1250.00 M 250.00 1250.00 D 750.00 250.00 D S
750.00 250.00 M  0.000  0.000  1.000 C
 S
500.00 250.00 M 500.00 250.00 D 250.00 1250.00 D S
250.00 1250.00 M 250.00 1250.00 D 750.00 250.00 D S
750.00 250.00 M  0.000  1.000  1.000 C
 S
250.00 1250.00 M 250.00 1250.00 D 750.00 250.00 D S
750.00 250.00 M  0.000  0.000  0.000 C
 S
  0.00   0.00 M   0.00   0.00 D  10.00  19.56 D  19.98  38.26 D  29.95  56.16 D
 39.88  73.30 D  49.76  89.72 D  59.59 105.46 D  69.36 120.57 D
 79.05 135.08 D  88.66 149.04 D  98.18 162.48 D 107.59 175.43 D
116.91 187.94 D 126.11 200.03 D 135.18 211.74 D 144.14 223.09 D
152.96 234.13 D 161.64 244.87 D 170.17 255.34 D 178.56 265.58 D
186.80 275.60 D 194.88 285.43 D 202.80 295.09 D 210.56 304.59 D
218.16 313.97 D 225.59 323.24 D 232.85 332.42 D 239.93 341.51 D
246.85 350.55 D 253.60 359.53 D 260.18 368.48 D 266.58 377.39 D
272.81 386.29 D 278.88 395.19 D 284.78 404.07 D 290.51 412.97 D
296.08 421.87 D 301.49 430.78 D 306.75 439.71 D 311.85 448.65 D
316.80 457.60 D 321.61 466.57 D 326.28 475.54 D 330.82 484.52 D
335.22 493.50 D 339.51 502.47 D 343.68 511.42 D 347.75 520.35 D
351.71 529.24 D 355.59 538.09 D 359.38 546.88 D 363.09 555.59 D
366.74 564.20 D 370.33 572.72 D 373.88 581.10 D 377.39 589.34 D
380.87 597.42 D 384.34 605.30 D 387.81 612.98 D 391.30 620.42 D
394.80 627.60 D 398.34 634.49 D 401.93 641.07 D 405.58 647.30 D
409.31 653.15 D 413.14 658.59 D 417.07 663.59 D 421.12 668.12 D
425.31 672.13 D 429.66 675.60 D 434.18 678.48 D 438.88 680.72 D
443.80 682.31 D 448.94 683.18 D 454.32 683.30 D 459.96 682.62 D
465.89 681.09 D 472.11 678.68 D 478.66 675.33 D 485.55 670.98 D
492.80 665.60 D 500.44 659.13 D 508.48 651.50 D 516.95 642.68 D
525.87 632.61 D 535.26 621.22 D 545.15 608.46 D 555.56 594.26 D
566.52 578.58 D 578.05 561.33 D 590.17 542.48 D 602.92 521.93 D
616.31 499.64 D 630.38 475.53 D 645.14 449.54 D 660.64 421.59 D
676.88 391.62 D 693.92 359.55 D 711.76 325.30 D 730.45 288.81 D
750.00 250.00 D S
eop
@end
%%PageTrailer
%%Trailer
%%EOF
