%!PS-Adobe-2.0 EPSF-2.0
%%Title: /home/gijs/.chiplotle/output/20140703_102325.eps
%%Creator: hp2xx 3.4.4 (c) 1991-1994 by H. Werntges, 1999-2003 by M. Kroeker
%%CreationDate: Thu Jul  3 10:23:25 2014
%%Pages: 1
%%BoundingBox: 0 0 1418 1418
%%EndComments

%%BeginProcSet:
/PSSave save def
/PSDict 200 dict def
PSDict begin
/@restore /restore load def
/restore
   {vmstatus pop
    dup @VMused lt {pop @VMused} if
    exch pop exch @restore /@VMused exch def
   } def
/@pri
   {
    ( ) print
    (                                       ) cvs print
   } def
/@start
   {
    vmstatus pop /@VMused exch def pop
   } def
/@end
   {(VM Used: ) print @VMused @pri
    (. Unused: ) print vmstatus @VMused sub @pri pop pop
    (\n) print flush
    end
    PSSave restore
   } def
/bop
   {
    /SaveImage save def
   } def
/eop
   {
    showpage
    SaveImage restore
   } def
/@line
   {
%%    1 setlinejoin      %% now set from LA command
%%    1 setmiterlimit    %% now set from LA command
   } def
/@SetPlot
   {
    2.834646 2.834646 scale
      0.050   0.050 translate
     0.100 setlinewidth
   } def
/C {setrgbcolor} def
/D {lineto} def
/M {moveto} def
/S {stroke} def
/W {setlinewidth} def
/Z {stroke newpath} def
end
%%EndProcSet

%%BeginSetup
/#copies 1 def
%%EndSetup
%%Page: 1 1
%%BeginPageSetup
PSDict begin
@start
@line
@SetPlot

bop
%%EndPageSetup
  0.100 W
 S
  0.00 250.00 M  0.100 W
 S
  0.00 250.00 M 1 setlinecap
 S
  0.00 250.00 M 1 setlinejoin
 S
  0.00 250.00 M  1.000  0.000  0.000 C
 S
  0.00 250.00 M   0.00 250.00 D 250.00 500.00 D S
250.00 500.00 M 250.00 500.00 D 250.00   0.00 D S
250.00   0.00 M 250.00   0.00 D 500.00 250.00 D S
500.00 250.00 M  0.000  1.000  0.000 C
 S
  0.00 250.00 M   0.00 250.00 D 250.00 500.00 D S
250.00 500.00 M 250.00 500.00 D 250.00   0.00 D S
250.00   0.00 M  0.000  0.000  1.000 C
 S
  0.00 250.00 M   0.00 250.00 D 250.00 500.00 D S
250.00 500.00 M  1.000  0.000  0.000 C
 S
  0.00 250.00 M   0.00 250.00 D 250.00 500.00 D S
250.00 500.00 M 250.00 500.00 D 250.00   0.00 D S
250.00   0.00 M 250.00   0.00 D 500.00 250.00 D S
500.00 250.00 M  0.000  1.000  0.000 C
 S
  2.50 252.50 M   2.50 252.50 D 250.00 495.00 D S
250.00 495.00 M 250.00 495.00 D 252.50   2.50 D S
252.50   2.50 M  0.000  0.000  1.000 C
 S
  4.98 254.93 M   4.97 254.93 D 250.03 490.08 D S
250.03 490.08 M  1.000  0.000  0.000 C
 S
  0.00 250.00 M   0.00 250.00 D 250.00 500.00 D S
250.00 500.00 M 250.00 500.00 D 250.00   0.00 D S
250.00   0.00 M 250.00   0.00 D 500.00 250.00 D S
500.00 250.00 M  0.000  1.000  0.000 C
 S
  5.00 255.00 M   5.00 255.00 D 250.00 490.00 D S
250.00 490.00 M 250.00 490.00 D 255.00   5.00 D S
255.00   5.00 M  0.000  0.000  1.000 C
 S
  9.90 259.70 M   9.90 259.70 D 250.10 480.30 D S
250.10 480.30 M  1.000  0.000  0.000 C
 S
  0.00 250.00 M   0.00 250.00 D 250.00 500.00 D S
250.00 500.00 M 250.00 500.00 D 250.00   0.00 D S
250.00   0.00 M 250.00   0.00 D 500.00 250.00 D S
500.00 250.00 M  0.000  1.000  0.000 C
 S
  7.50 257.50 M   7.50 257.50 D 250.00 485.00 D S
250.00 485.00 M 250.00 485.00 D 257.50   7.50 D S
257.50   7.50 M  0.000  0.000  1.000 C
 S
 14.78 264.33 M  14.78 264.33 D 250.23 470.68 D S
250.23 470.68 M  1.000  0.000  0.000 C
 S
  0.00 250.00 M   0.00 250.00 D 250.00 500.00 D S
250.00 500.00 M 250.00 500.00 D 250.00   0.00 D S
250.00   0.00 M 250.00   0.00 D 500.00 250.00 D S
500.00 250.00 M  0.000  1.000  0.000 C
 S
 10.00 260.00 M  10.00 260.00 D 250.00 480.00 D S
250.00 480.00 M 250.00 480.00 D 260.00  10.00 D S
260.00  10.00 M  0.000  0.000  1.000 C
 S
 19.60 268.80 M  19.60 268.80 D 250.40 461.20 D S
250.40 461.20 M  1.000  0.000  0.000 C
 S
  0.00 250.00 M   0.00 250.00 D 250.00 500.00 D S
250.00 500.00 M 250.00 500.00 D 250.00   0.00 D S
250.00   0.00 M 250.00   0.00 D 500.00 250.00 D S
500.00 250.00 M  0.000  1.000  0.000 C
 S
 12.50 262.50 M  12.50 262.50 D 250.00 475.00 D S
250.00 475.00 M 250.00 475.00 D 262.50  12.50 D S
262.50  12.50 M  0.000  0.000  1.000 C
 S
 24.38 273.13 M  24.38 273.12 D 250.62 451.88 D S
250.62 451.88 M  1.000  0.000  0.000 C
 S
  0.00 250.00 M   0.00 250.00 D 250.00 500.00 D S
250.00 500.00 M 250.00 500.00 D 250.00   0.00 D S
250.00   0.00 M 250.00   0.00 D 500.00 250.00 D S
500.00 250.00 M  0.000  1.000  0.000 C
 S
 15.00 265.00 M  15.00 265.00 D 250.00 470.00 D S
250.00 470.00 M 250.00 470.00 D 265.00  15.00 D S
265.00  15.00 M  0.000  0.000  1.000 C
 S
 29.10 277.30 M  29.10 277.30 D 250.90 442.70 D S
250.90 442.70 M  1.000  0.000  0.000 C
 S
  0.00 250.00 M   0.00 250.00 D 250.00 500.00 D S
250.00 500.00 M 250.00 500.00 D 250.00   0.00 D S
250.00   0.00 M 250.00   0.00 D 500.00 250.00 D S
500.00 250.00 M  0.000  1.000  0.000 C
 S
 17.50 267.50 M  17.50 267.50 D 250.00 465.00 D S
250.00 465.00 M 250.00 465.00 D 267.50  17.50 D S
267.50  17.50 M  0.000  0.000  1.000 C
 S
 33.78 281.33 M  33.78 281.33 D 251.23 433.68 D S
251.23 433.68 M  1.000  0.000  0.000 C
 S
  0.00 250.00 M   0.00 250.00 D 250.00 500.00 D S
250.00 500.00 M 250.00 500.00 D 250.00   0.00 D S
250.00   0.00 M 250.00   0.00 D 500.00 250.00 D S
500.00 250.00 M  0.000  1.000  0.000 C
 S
 20.00 270.00 M  20.00 270.00 D 250.00 460.00 D S
250.00 460.00 M 250.00 460.00 D 270.00  20.00 D S
270.00  20.00 M  0.000  0.000  1.000 C
 S
 38.40 285.20 M  38.40 285.20 D 251.60 424.80 D S
251.60 424.80 M  1.000  0.000  0.000 C
 S
  0.00 250.00 M   0.00 250.00 D 250.00 500.00 D S
250.00 500.00 M 250.00 500.00 D 250.00   0.00 D S
250.00   0.00 M 250.00   0.00 D 500.00 250.00 D S
500.00 250.00 M  0.000  1.000  0.000 C
 S
 22.50 272.50 M  22.50 272.50 D 250.00 455.00 D S
250.00 455.00 M 250.00 455.00 D 272.50  22.50 D S
272.50  22.50 M  0.000  0.000  1.000 C
 S
 42.98 288.93 M  42.98 288.93 D 252.03 416.08 D S
252.03 416.08 M  1.000  0.000  0.000 C
 S
  0.00 250.00 M   0.00 250.00 D 250.00 500.00 D S
250.00 500.00 M 250.00 500.00 D 250.00   0.00 D S
250.00   0.00 M 250.00   0.00 D 500.00 250.00 D S
500.00 250.00 M  0.000  1.000  0.000 C
 S
 25.00 275.00 M  25.00 275.00 D 250.00 450.00 D S
250.00 450.00 M 250.00 450.00 D 275.00  25.00 D S
275.00  25.00 M  0.000  0.000  1.000 C
 S
 47.50 292.50 M  47.50 292.50 D 252.50 407.50 D S
252.50 407.50 M  1.000  0.000  0.000 C
 S
  0.00 250.00 M   0.00 250.00 D 250.00 500.00 D S
250.00 500.00 M 250.00 500.00 D 250.00   0.00 D S
250.00   0.00 M 250.00   0.00 D 500.00 250.00 D S
500.00 250.00 M  0.000  1.000  0.000 C
 S
 27.50 277.50 M  27.50 277.50 D 250.00 445.00 D S
250.00 445.00 M 250.00 445.00 D 277.50  27.50 D S
277.50  27.50 M  0.000  0.000  1.000 C
 S
 51.98 295.93 M  51.98 295.93 D 253.03 399.08 D S
253.03 399.08 M  1.000  0.000  0.000 C
 S
  0.00 250.00 M   0.00 250.00 D 250.00 500.00 D S
250.00 500.00 M 250.00 500.00 D 250.00   0.00 D S
250.00   0.00 M 250.00   0.00 D 500.00 250.00 D S
500.00 250.00 M  0.000  1.000  0.000 C
 S
 30.00 280.00 M  30.00 280.00 D 250.00 440.00 D S
250.00 440.00 M 250.00 440.00 D 280.00  30.00 D S
280.00  30.00 M  0.000  0.000  1.000 C
 S
 56.40 299.20 M  56.40 299.20 D 253.60 390.80 D S
253.60 390.80 M  1.000  0.000  0.000 C
 S
  0.00 250.00 M   0.00 250.00 D 250.00 500.00 D S
250.00 500.00 M 250.00 500.00 D 250.00   0.00 D S
250.00   0.00 M 250.00   0.00 D 500.00 250.00 D S
500.00 250.00 M  0.000  1.000  0.000 C
 S
 32.50 282.50 M  32.50 282.50 D 250.00 435.00 D S
250.00 435.00 M 250.00 435.00 D 282.50  32.50 D S
282.50  32.50 M  0.000  0.000  1.000 C
 S
 60.78 302.33 M  60.78 302.33 D 254.23 382.68 D S
254.23 382.68 M  1.000  0.000  0.000 C
 S
  0.00 250.00 M   0.00 250.00 D 250.00 500.00 D S
250.00 500.00 M 250.00 500.00 D 250.00   0.00 D S
250.00   0.00 M 250.00   0.00 D 500.00 250.00 D S
500.00 250.00 M  0.000  1.000  0.000 C
 S
 35.00 285.00 M  35.00 285.00 D 250.00 430.00 D S
250.00 430.00 M 250.00 430.00 D 285.00  35.00 D S
285.00  35.00 M  0.000  0.000  1.000 C
 S
 65.10 305.30 M  65.10 305.30 D 254.90 374.70 D S
254.90 374.70 M  1.000  0.000  0.000 C
 S
  0.00 250.00 M   0.00 250.00 D 250.00 500.00 D S
250.00 500.00 M 250.00 500.00 D 250.00   0.00 D S
250.00   0.00 M 250.00   0.00 D 500.00 250.00 D S
500.00 250.00 M  0.000  1.000  0.000 C
 S
 37.50 287.50 M  37.50 287.50 D 250.00 425.00 D S
250.00 425.00 M 250.00 425.00 D 287.50  37.50 D S
287.50  37.50 M  0.000  0.000  1.000 C
 S
 69.38 308.13 M  69.38 308.12 D 255.62 366.88 D S
255.62 366.88 M  1.000  0.000  0.000 C
 S
  0.00 250.00 M   0.00 250.00 D 250.00 500.00 D S
250.00 500.00 M 250.00 500.00 D 250.00   0.00 D S
250.00   0.00 M 250.00   0.00 D 500.00 250.00 D S
500.00 250.00 M  0.000  1.000  0.000 C
 S
 40.00 290.00 M  40.00 290.00 D 250.00 420.00 D S
250.00 420.00 M 250.00 420.00 D 290.00  40.00 D S
290.00  40.00 M  0.000  0.000  1.000 C
 S
 73.60 310.80 M  73.60 310.80 D 256.40 359.20 D S
256.40 359.20 M  1.000  0.000  0.000 C
 S
  0.00 250.00 M   0.00 250.00 D 250.00 500.00 D S
250.00 500.00 M 250.00 500.00 D 250.00   0.00 D S
250.00   0.00 M 250.00   0.00 D 500.00 250.00 D S
500.00 250.00 M  0.000  1.000  0.000 C
 S
 42.50 292.50 M  42.50 292.50 D 250.00 415.00 D S
250.00 415.00 M 250.00 415.00 D 292.50  42.50 D S
292.50  42.50 M  0.000  0.000  1.000 C
 S
 77.78 313.33 M  77.78 313.33 D 257.23 351.68 D S
257.23 351.68 M  1.000  0.000  0.000 C
 S
  0.00 250.00 M   0.00 250.00 D 250.00 500.00 D S
250.00 500.00 M 250.00 500.00 D 250.00   0.00 D S
250.00   0.00 M 250.00   0.00 D 500.00 250.00 D S
500.00 250.00 M  0.000  1.000  0.000 C
 S
 45.00 295.00 M  45.00 295.00 D 250.00 410.00 D S
250.00 410.00 M 250.00 410.00 D 295.00  45.00 D S
295.00  45.00 M  0.000  0.000  1.000 C
 S
 81.90 315.70 M  81.90 315.70 D 258.10 344.30 D S
258.10 344.30 M  1.000  0.000  0.000 C
 S
  0.00 250.00 M   0.00 250.00 D 250.00 500.00 D S
250.00 500.00 M 250.00 500.00 D 250.00   0.00 D S
250.00   0.00 M 250.00   0.00 D 500.00 250.00 D S
500.00 250.00 M  0.000  1.000  0.000 C
 S
 47.50 297.50 M  47.50 297.50 D 250.00 405.00 D S
250.00 405.00 M 250.00 405.00 D 297.50  47.50 D S
297.50  47.50 M  0.000  0.000  1.000 C
 S
 85.98 317.93 M  85.97 317.93 D 259.02 337.08 D S
259.02 337.08 M  1.000  0.000  0.000 C
 S
  0.00 250.00 M   0.00 250.00 D 250.00 500.00 D S
250.00 500.00 M 250.00 500.00 D 250.00   0.00 D S
250.00   0.00 M 250.00   0.00 D 500.00 250.00 D S
500.00 250.00 M  0.000  1.000  0.000 C
 S
 50.00 300.00 M  50.00 300.00 D 250.00 400.00 D S
250.00 400.00 M 250.00 400.00 D 300.00  50.00 D S
300.00  50.00 M  0.000  0.000  1.000 C
 S
 90.00 320.00 M  90.00 320.00 D 260.00 330.00 D S
260.00 330.00 M  1.000  0.000  0.000 C
 S
  0.00 250.00 M   0.00 250.00 D 250.00 500.00 D S
250.00 500.00 M 250.00 500.00 D 250.00   0.00 D S
250.00   0.00 M 250.00   0.00 D 500.00 250.00 D S
500.00 250.00 M  0.000  1.000  0.000 C
 S
 52.50 302.50 M  52.50 302.50 D 250.00 395.00 D S
250.00 395.00 M 250.00 395.00 D 302.50  52.50 D S
302.50  52.50 M  0.000  0.000  1.000 C
 S
 93.98 321.93 M  93.97 321.93 D 261.02 323.08 D S
261.02 323.08 M  1.000  0.000  0.000 C
 S
  0.00 250.00 M   0.00 250.00 D 250.00 500.00 D S
250.00 500.00 M 250.00 500.00 D 250.00   0.00 D S
250.00   0.00 M 250.00   0.00 D 500.00 250.00 D S
500.00 250.00 M  0.000  1.000  0.000 C
 S
 55.00 305.00 M  55.00 305.00 D 250.00 390.00 D S
250.00 390.00 M 250.00 390.00 D 305.00  55.00 D S
305.00  55.00 M  0.000  0.000  1.000 C
 S
 97.90 323.70 M  97.90 323.70 D 262.10 316.30 D S
262.10 316.30 M  1.000  0.000  0.000 C
 S
  0.00 250.00 M   0.00 250.00 D 250.00 500.00 D S
250.00 500.00 M 250.00 500.00 D 250.00   0.00 D S
250.00   0.00 M 250.00   0.00 D 500.00 250.00 D S
500.00 250.00 M  0.000  1.000  0.000 C
 S
 57.50 307.50 M  57.50 307.50 D 250.00 385.00 D S
250.00 385.00 M 250.00 385.00 D 307.50  57.50 D S
307.50  57.50 M  0.000  0.000  1.000 C
 S
101.78 325.33 M 101.78 325.33 D 263.23 309.68 D S
263.23 309.68 M  1.000  0.000  0.000 C
 S
  0.00 250.00 M   0.00 250.00 D 250.00 500.00 D S
250.00 500.00 M 250.00 500.00 D 250.00   0.00 D S
250.00   0.00 M 250.00   0.00 D 500.00 250.00 D S
500.00 250.00 M  0.000  1.000  0.000 C
 S
 60.00 310.00 M  60.00 310.00 D 250.00 380.00 D S
250.00 380.00 M 250.00 380.00 D 310.00  60.00 D S
310.00  60.00 M  0.000  0.000  1.000 C
 S
105.60 326.80 M 105.60 326.80 D 264.40 303.20 D S
264.40 303.20 M  1.000  0.000  0.000 C
 S
  0.00 250.00 M   0.00 250.00 D 250.00 500.00 D S
250.00 500.00 M 250.00 500.00 D 250.00   0.00 D S
250.00   0.00 M 250.00   0.00 D 500.00 250.00 D S
500.00 250.00 M  0.000  1.000  0.000 C
 S
 62.50 312.50 M  62.50 312.50 D 250.00 375.00 D S
250.00 375.00 M 250.00 375.00 D 312.50  62.50 D S
312.50  62.50 M  0.000  0.000  1.000 C
 S
109.38 328.13 M 109.38 328.12 D 265.62 296.88 D S
265.62 296.88 M  1.000  0.000  0.000 C
 S
  0.00 250.00 M   0.00 250.00 D 250.00 500.00 D S
250.00 500.00 M 250.00 500.00 D 250.00   0.00 D S
250.00   0.00 M 250.00   0.00 D 500.00 250.00 D S
500.00 250.00 M  0.000  1.000  0.000 C
 S
 65.00 315.00 M  65.00 315.00 D 250.00 370.00 D S
250.00 370.00 M 250.00 370.00 D 315.00  65.00 D S
315.00  65.00 M  0.000  0.000  1.000 C
 S
113.10 329.30 M 113.10 329.30 D 266.90 290.70 D S
266.90 290.70 M  1.000  0.000  0.000 C
 S
  0.00 250.00 M   0.00 250.00 D 250.00 500.00 D S
250.00 500.00 M 250.00 500.00 D 250.00   0.00 D S
250.00   0.00 M 250.00   0.00 D 500.00 250.00 D S
500.00 250.00 M  0.000  1.000  0.000 C
 S
 67.50 317.50 M  67.50 317.50 D 250.00 365.00 D S
250.00 365.00 M 250.00 365.00 D 317.50  67.50 D S
317.50  67.50 M  0.000  0.000  1.000 C
 S
116.78 330.33 M 116.78 330.33 D 268.23 284.68 D S
268.23 284.68 M  1.000  0.000  0.000 C
 S
  0.00 250.00 M   0.00 250.00 D 250.00 500.00 D S
250.00 500.00 M 250.00 500.00 D 250.00   0.00 D S
250.00   0.00 M 250.00   0.00 D 500.00 250.00 D S
500.00 250.00 M  0.000  1.000  0.000 C
 S
 70.00 320.00 M  70.00 320.00 D 250.00 360.00 D S
250.00 360.00 M 250.00 360.00 D 320.00  70.00 D S
320.00  70.00 M  0.000  0.000  1.000 C
 S
120.40 331.20 M 120.40 331.20 D 269.60 278.80 D S
269.60 278.80 M  1.000  0.000  0.000 C
 S
  0.00 250.00 M   0.00 250.00 D 250.00 500.00 D S
250.00 500.00 M 250.00 500.00 D 250.00   0.00 D S
250.00   0.00 M 250.00   0.00 D 500.00 250.00 D S
500.00 250.00 M  0.000  1.000  0.000 C
 S
 72.50 322.50 M  72.50 322.50 D 250.00 355.00 D S
250.00 355.00 M 250.00 355.00 D 322.50  72.50 D S
322.50  72.50 M  0.000  0.000  1.000 C
 S
123.98 331.93 M 123.97 331.93 D 271.02 273.08 D S
271.02 273.08 M  1.000  0.000  0.000 C
 S
  0.00 250.00 M   0.00 250.00 D 250.00 500.00 D S
250.00 500.00 M 250.00 500.00 D 250.00   0.00 D S
250.00   0.00 M 250.00   0.00 D 500.00 250.00 D S
500.00 250.00 M  0.000  1.000  0.000 C
 S
 75.00 325.00 M  75.00 325.00 D 250.00 350.00 D S
250.00 350.00 M 250.00 350.00 D 325.00  75.00 D S
325.00  75.00 M  0.000  0.000  1.000 C
 S
127.50 332.50 M 127.50 332.50 D 272.50 267.50 D S
272.50 267.50 M  1.000  0.000  0.000 C
 S
  0.00 250.00 M   0.00 250.00 D 250.00 500.00 D S
250.00 500.00 M 250.00 500.00 D 250.00   0.00 D S
250.00   0.00 M 250.00   0.00 D 500.00 250.00 D S
500.00 250.00 M  0.000  1.000  0.000 C
 S
 77.50 327.50 M  77.50 327.50 D 250.00 345.00 D S
250.00 345.00 M 250.00 345.00 D 327.50  77.50 D S
327.50  77.50 M  0.000  0.000  1.000 C
 S
130.98 332.93 M 130.98 332.93 D 274.02 262.08 D S
274.02 262.08 M  1.000  0.000  0.000 C
 S
  0.00 250.00 M   0.00 250.00 D 250.00 500.00 D S
250.00 500.00 M 250.00 500.00 D 250.00   0.00 D S
250.00   0.00 M 250.00   0.00 D 500.00 250.00 D S
500.00 250.00 M  0.000  1.000  0.000 C
 S
 80.00 330.00 M  80.00 330.00 D 250.00 340.00 D S
250.00 340.00 M 250.00 340.00 D 330.00  80.00 D S
330.00  80.00 M  0.000  0.000  1.000 C
 S
134.40 333.20 M 134.40 333.20 D 275.60 256.80 D S
275.60 256.80 M  1.000  0.000  0.000 C
 S
  0.00 250.00 M   0.00 250.00 D 250.00 500.00 D S
250.00 500.00 M 250.00 500.00 D 250.00   0.00 D S
250.00   0.00 M 250.00   0.00 D 500.00 250.00 D S
500.00 250.00 M  0.000  1.000  0.000 C
 S
 82.50 332.50 M  82.50 332.50 D 250.00 335.00 D S
250.00 335.00 M 250.00 335.00 D 332.50  82.50 D S
332.50  82.50 M  0.000  0.000  1.000 C
 S
137.78 333.33 M 137.78 333.33 D 277.23 251.68 D S
277.23 251.68 M  1.000  0.000  0.000 C
 S
  0.00 250.00 M   0.00 250.00 D 250.00 500.00 D S
250.00 500.00 M 250.00 500.00 D 250.00   0.00 D S
250.00   0.00 M 250.00   0.00 D 500.00 250.00 D S
500.00 250.00 M  0.000  1.000  0.000 C
 S
 85.00 335.00 M  85.00 335.00 D 250.00 330.00 D S
250.00 330.00 M 250.00 330.00 D 335.00  85.00 D S
335.00  85.00 M  0.000  0.000  1.000 C
 S
141.10 333.30 M 141.10 333.30 D 278.90 246.70 D S
278.90 246.70 M  1.000  0.000  0.000 C
 S
  0.00 250.00 M   0.00 250.00 D 250.00 500.00 D S
250.00 500.00 M 250.00 500.00 D 250.00   0.00 D S
250.00   0.00 M 250.00   0.00 D 500.00 250.00 D S
500.00 250.00 M  0.000  1.000  0.000 C
 S
 87.50 337.50 M  87.50 337.50 D 250.00 325.00 D S
250.00 325.00 M 250.00 325.00 D 337.50  87.50 D S
337.50  87.50 M  0.000  0.000  1.000 C
 S
144.38 333.13 M 144.38 333.12 D 280.62 241.88 D S
280.62 241.88 M  1.000  0.000  0.000 C
 S
  0.00 250.00 M   0.00 250.00 D 250.00 500.00 D S
250.00 500.00 M 250.00 500.00 D 250.00   0.00 D S
250.00   0.00 M 250.00   0.00 D 500.00 250.00 D S
500.00 250.00 M  0.000  1.000  0.000 C
 S
 90.00 340.00 M  90.00 340.00 D 250.00 320.00 D S
250.00 320.00 M 250.00 320.00 D 340.00  90.00 D S
340.00  90.00 M  0.000  0.000  1.000 C
 S
147.60 332.80 M 147.60 332.80 D 282.40 237.20 D S
282.40 237.20 M  1.000  0.000  0.000 C
 S
  0.00 250.00 M   0.00 250.00 D 250.00 500.00 D S
250.00 500.00 M 250.00 500.00 D 250.00   0.00 D S
250.00   0.00 M 250.00   0.00 D 500.00 250.00 D S
500.00 250.00 M  0.000  1.000  0.000 C
 S
 92.50 342.50 M  92.50 342.50 D 250.00 315.00 D S
250.00 315.00 M 250.00 315.00 D 342.50  92.50 D S
342.50  92.50 M  0.000  0.000  1.000 C
 S
150.78 332.33 M 150.78 332.33 D 284.23 232.68 D S
284.23 232.68 M  1.000  0.000  0.000 C
 S
  0.00 250.00 M   0.00 250.00 D 250.00 500.00 D S
250.00 500.00 M 250.00 500.00 D 250.00   0.00 D S
250.00   0.00 M 250.00   0.00 D 500.00 250.00 D S
500.00 250.00 M  0.000  1.000  0.000 C
 S
 95.00 345.00 M  95.00 345.00 D 250.00 310.00 D S
250.00 310.00 M 250.00 310.00 D 345.00  95.00 D S
345.00  95.00 M  0.000  0.000  1.000 C
 S
153.90 331.70 M 153.90 331.70 D 286.10 228.30 D S
286.10 228.30 M  1.000  0.000  0.000 C
 S
  0.00 250.00 M   0.00 250.00 D 250.00 500.00 D S
250.00 500.00 M 250.00 500.00 D 250.00   0.00 D S
250.00   0.00 M 250.00   0.00 D 500.00 250.00 D S
500.00 250.00 M  0.000  1.000  0.000 C
 S
 97.50 347.50 M  97.50 347.50 D 250.00 305.00 D S
250.00 305.00 M 250.00 305.00 D 347.50  97.50 D S
347.50  97.50 M  0.000  0.000  1.000 C
 S
156.98 330.93 M 156.98 330.93 D 288.02 224.07 D S
288.02 224.07 M  1.000  0.000  0.000 C
 S
  0.00 250.00 M   0.00 250.00 D 250.00 500.00 D S
250.00 500.00 M 250.00 500.00 D 250.00   0.00 D S
250.00   0.00 M 250.00   0.00 D 500.00 250.00 D S
500.00 250.00 M  0.000  1.000  0.000 C
 S
100.00 350.00 M 100.00 350.00 D 250.00 300.00 D S
250.00 300.00 M 250.00 300.00 D 350.00 100.00 D S
350.00 100.00 M  0.000  0.000  1.000 C
 S
160.00 330.00 M 160.00 330.00 D 290.00 220.00 D S
290.00 220.00 M  1.000  0.000  0.000 C
 S
  0.00 250.00 M   0.00 250.00 D 250.00 500.00 D S
250.00 500.00 M 250.00 500.00 D 250.00   0.00 D S
250.00   0.00 M 250.00   0.00 D 500.00 250.00 D S
500.00 250.00 M  0.000  1.000  0.000 C
 S
102.50 352.50 M 102.50 352.50 D 250.00 295.00 D S
250.00 295.00 M 250.00 295.00 D 352.50 102.50 D S
352.50 102.50 M  0.000  0.000  1.000 C
 S
162.98 328.93 M 162.98 328.93 D 292.02 216.07 D S
292.02 216.07 M  1.000  0.000  0.000 C
 S
  0.00 250.00 M   0.00 250.00 D 250.00 500.00 D S
250.00 500.00 M 250.00 500.00 D 250.00   0.00 D S
250.00   0.00 M 250.00   0.00 D 500.00 250.00 D S
500.00 250.00 M  0.000  1.000  0.000 C
 S
105.00 355.00 M 105.00 355.00 D 250.00 290.00 D S
250.00 290.00 M 250.00 290.00 D 355.00 105.00 D S
355.00 105.00 M  0.000  0.000  1.000 C
 S
165.90 327.70 M 165.90 327.70 D 294.10 212.30 D S
294.10 212.30 M  1.000  0.000  0.000 C
 S
  0.00 250.00 M   0.00 250.00 D 250.00 500.00 D S
250.00 500.00 M 250.00 500.00 D 250.00   0.00 D S
250.00   0.00 M 250.00   0.00 D 500.00 250.00 D S
500.00 250.00 M  0.000  1.000  0.000 C
 S
107.50 357.50 M 107.50 357.50 D 250.00 285.00 D S
250.00 285.00 M 250.00 285.00 D 357.50 107.50 D S
357.50 107.50 M  0.000  0.000  1.000 C
 S
168.78 326.33 M 168.78 326.33 D 296.23 208.68 D S
296.23 208.68 M  1.000  0.000  0.000 C
 S
  0.00 250.00 M   0.00 250.00 D 250.00 500.00 D S
250.00 500.00 M 250.00 500.00 D 250.00   0.00 D S
250.00   0.00 M 250.00   0.00 D 500.00 250.00 D S
500.00 250.00 M  0.000  1.000  0.000 C
 S
110.00 360.00 M 110.00 360.00 D 250.00 280.00 D S
250.00 280.00 M 250.00 280.00 D 360.00 110.00 D S
360.00 110.00 M  0.000  0.000  1.000 C
 S
171.60 324.80 M 171.60 324.80 D 298.40 205.20 D S
298.40 205.20 M  1.000  0.000  0.000 C
 S
  0.00 250.00 M   0.00 250.00 D 250.00 500.00 D S
250.00 500.00 M 250.00 500.00 D 250.00   0.00 D S
250.00   0.00 M 250.00   0.00 D 500.00 250.00 D S
500.00 250.00 M  0.000  1.000  0.000 C
 S
112.50 362.50 M 112.50 362.50 D 250.00 275.00 D S
250.00 275.00 M 250.00 275.00 D 362.50 112.50 D S
362.50 112.50 M  0.000  0.000  1.000 C
 S
174.38 323.13 M 174.38 323.12 D 300.62 201.88 D S
300.62 201.88 M  1.000  0.000  0.000 C
 S
  0.00 250.00 M   0.00 250.00 D 250.00 500.00 D S
250.00 500.00 M 250.00 500.00 D 250.00   0.00 D S
250.00   0.00 M 250.00   0.00 D 500.00 250.00 D S
500.00 250.00 M  0.000  1.000  0.000 C
 S
115.00 365.00 M 115.00 365.00 D 250.00 270.00 D S
250.00 270.00 M 250.00 270.00 D 365.00 115.00 D S
365.00 115.00 M  0.000  0.000  1.000 C
 S
177.10 321.30 M 177.10 321.30 D 302.90 198.70 D S
302.90 198.70 M  1.000  0.000  0.000 C
 S
  0.00 250.00 M   0.00 250.00 D 250.00 500.00 D S
250.00 500.00 M 250.00 500.00 D 250.00   0.00 D S
250.00   0.00 M 250.00   0.00 D 500.00 250.00 D S
500.00 250.00 M  0.000  1.000  0.000 C
 S
117.50 367.50 M 117.50 367.50 D 250.00 265.00 D S
250.00 265.00 M 250.00 265.00 D 367.50 117.50 D S
367.50 117.50 M  0.000  0.000  1.000 C
 S
179.78 319.33 M 179.78 319.33 D 305.23 195.68 D S
305.23 195.68 M  1.000  0.000  0.000 C
 S
  0.00 250.00 M   0.00 250.00 D 250.00 500.00 D S
250.00 500.00 M 250.00 500.00 D 250.00   0.00 D S
250.00   0.00 M 250.00   0.00 D 500.00 250.00 D S
500.00 250.00 M  0.000  1.000  0.000 C
 S
120.00 370.00 M 120.00 370.00 D 250.00 260.00 D S
250.00 260.00 M 250.00 260.00 D 370.00 120.00 D S
370.00 120.00 M  0.000  0.000  1.000 C
 S
182.40 317.20 M 182.40 317.20 D 307.60 192.80 D S
307.60 192.80 M  1.000  0.000  0.000 C
 S
  0.00 250.00 M   0.00 250.00 D 250.00 500.00 D S
250.00 500.00 M 250.00 500.00 D 250.00   0.00 D S
250.00   0.00 M 250.00   0.00 D 500.00 250.00 D S
500.00 250.00 M  0.000  1.000  0.000 C
 S
122.50 372.50 M 122.50 372.50 D 250.00 255.00 D S
250.00 255.00 M 250.00 255.00 D 372.50 122.50 D S
372.50 122.50 M  0.000  0.000  1.000 C
 S
184.98 314.93 M 184.98 314.93 D 310.02 190.07 D S
310.02 190.07 M  1.000  0.000  0.000 C
 S
  0.00 250.00 M   0.00 250.00 D 250.00 500.00 D S
250.00 500.00 M 250.00 500.00 D 250.00   0.00 D S
250.00   0.00 M 250.00   0.00 D 500.00 250.00 D S
500.00 250.00 M  0.000  1.000  0.000 C
 S
125.00 375.00 M 125.00 375.00 D 250.00 250.00 D S
250.00 250.00 M 250.00 250.00 D 375.00 125.00 D S
375.00 125.00 M  0.000  0.000  1.000 C
 S
187.50 312.50 M 187.50 312.50 D 312.50 187.50 D S
312.50 187.50 M  1.000  0.000  0.000 C
 S
  0.00 250.00 M   0.00 250.00 D 250.00 500.00 D S
250.00 500.00 M 250.00 500.00 D 250.00   0.00 D S
250.00   0.00 M 250.00   0.00 D 500.00 250.00 D S
500.00 250.00 M  0.000  1.000  0.000 C
 S
127.50 377.50 M 127.50 377.50 D 250.00 245.00 D S
250.00 245.00 M 250.00 245.00 D 377.50 127.50 D S
377.50 127.50 M  0.000  0.000  1.000 C
 S
189.98 309.93 M 189.98 309.93 D 315.02 185.07 D S
315.02 185.07 M  1.000  0.000  0.000 C
 S
  0.00 250.00 M   0.00 250.00 D 250.00 500.00 D S
250.00 500.00 M 250.00 500.00 D 250.00   0.00 D S
250.00   0.00 M 250.00   0.00 D 500.00 250.00 D S
500.00 250.00 M  0.000  1.000  0.000 C
 S
130.00 380.00 M 130.00 380.00 D 250.00 240.00 D S
250.00 240.00 M 250.00 240.00 D 380.00 130.00 D S
380.00 130.00 M  0.000  0.000  1.000 C
 S
192.40 307.20 M 192.40 307.20 D 317.60 182.80 D S
317.60 182.80 M  1.000  0.000  0.000 C
 S
  0.00 250.00 M   0.00 250.00 D 250.00 500.00 D S
250.00 500.00 M 250.00 500.00 D 250.00   0.00 D S
250.00   0.00 M 250.00   0.00 D 500.00 250.00 D S
500.00 250.00 M  0.000  1.000  0.000 C
 S
132.50 382.50 M 132.50 382.50 D 250.00 235.00 D S
250.00 235.00 M 250.00 235.00 D 382.50 132.50 D S
382.50 132.50 M  0.000  0.000  1.000 C
 S
194.78 304.33 M 194.78 304.33 D 320.23 180.68 D S
320.23 180.68 M  1.000  0.000  0.000 C
 S
  0.00 250.00 M   0.00 250.00 D 250.00 500.00 D S
250.00 500.00 M 250.00 500.00 D 250.00   0.00 D S
250.00   0.00 M 250.00   0.00 D 500.00 250.00 D S
500.00 250.00 M  0.000  1.000  0.000 C
 S
135.00 385.00 M 135.00 385.00 D 250.00 230.00 D S
250.00 230.00 M 250.00 230.00 D 385.00 135.00 D S
385.00 135.00 M  0.000  0.000  1.000 C
 S
197.10 301.30 M 197.10 301.30 D 322.90 178.70 D S
322.90 178.70 M  1.000  0.000  0.000 C
 S
  0.00 250.00 M   0.00 250.00 D 250.00 500.00 D S
250.00 500.00 M 250.00 500.00 D 250.00   0.00 D S
250.00   0.00 M 250.00   0.00 D 500.00 250.00 D S
500.00 250.00 M  0.000  1.000  0.000 C
 S
137.50 387.50 M 137.50 387.50 D 250.00 225.00 D S
250.00 225.00 M 250.00 225.00 D 387.50 137.50 D S
387.50 137.50 M  0.000  0.000  1.000 C
 S
199.38 298.13 M 199.38 298.12 D 325.62 176.88 D S
325.62 176.88 M  1.000  0.000  0.000 C
 S
  0.00 250.00 M   0.00 250.00 D 250.00 500.00 D S
250.00 500.00 M 250.00 500.00 D 250.00   0.00 D S
250.00   0.00 M 250.00   0.00 D 500.00 250.00 D S
500.00 250.00 M  0.000  1.000  0.000 C
 S
140.00 390.00 M 140.00 390.00 D 250.00 220.00 D S
250.00 220.00 M 250.00 220.00 D 390.00 140.00 D S
390.00 140.00 M  0.000  0.000  1.000 C
 S
201.60 294.80 M 201.60 294.80 D 328.40 175.20 D S
328.40 175.20 M  1.000  0.000  0.000 C
 S
  0.00 250.00 M   0.00 250.00 D 250.00 500.00 D S
250.00 500.00 M 250.00 500.00 D 250.00   0.00 D S
250.00   0.00 M 250.00   0.00 D 500.00 250.00 D S
500.00 250.00 M  0.000  1.000  0.000 C
 S
142.50 392.50 M 142.50 392.50 D 250.00 215.00 D S
250.00 215.00 M 250.00 215.00 D 392.50 142.50 D S
392.50 142.50 M  0.000  0.000  1.000 C
 S
203.78 291.33 M 203.78 291.33 D 331.23 173.68 D S
331.23 173.68 M  1.000  0.000  0.000 C
 S
  0.00 250.00 M   0.00 250.00 D 250.00 500.00 D S
250.00 500.00 M 250.00 500.00 D 250.00   0.00 D S
250.00   0.00 M 250.00   0.00 D 500.00 250.00 D S
500.00 250.00 M  0.000  1.000  0.000 C
 S
145.00 395.00 M 145.00 395.00 D 250.00 210.00 D S
250.00 210.00 M 250.00 210.00 D 395.00 145.00 D S
395.00 145.00 M  0.000  0.000  1.000 C
 S
205.90 287.70 M 205.90 287.70 D 334.10 172.30 D S
334.10 172.30 M  1.000  0.000  0.000 C
 S
  0.00 250.00 M   0.00 250.00 D 250.00 500.00 D S
250.00 500.00 M 250.00 500.00 D 250.00   0.00 D S
250.00   0.00 M 250.00   0.00 D 500.00 250.00 D S
500.00 250.00 M  0.000  1.000  0.000 C
 S
147.50 397.50 M 147.50 397.50 D 250.00 205.00 D S
250.00 205.00 M 250.00 205.00 D 397.50 147.50 D S
397.50 147.50 M  0.000  0.000  1.000 C
 S
207.98 283.93 M 207.98 283.93 D 337.02 171.07 D S
337.02 171.07 M  1.000  0.000  0.000 C
 S
  0.00 250.00 M   0.00 250.00 D 250.00 500.00 D S
250.00 500.00 M 250.00 500.00 D 250.00   0.00 D S
250.00   0.00 M 250.00   0.00 D 500.00 250.00 D S
500.00 250.00 M  0.000  1.000  0.000 C
 S
150.00 400.00 M 150.00 400.00 D 250.00 200.00 D S
250.00 200.00 M 250.00 200.00 D 400.00 150.00 D S
400.00 150.00 M  0.000  0.000  1.000 C
 S
210.00 280.00 M 210.00 280.00 D 340.00 170.00 D S
340.00 170.00 M  1.000  0.000  0.000 C
 S
  0.00 250.00 M   0.00 250.00 D 250.00 500.00 D S
250.00 500.00 M 250.00 500.00 D 250.00   0.00 D S
250.00   0.00 M 250.00   0.00 D 500.00 250.00 D S
500.00 250.00 M  0.000  1.000  0.000 C
 S
152.50 402.50 M 152.50 402.50 D 250.00 195.00 D S
250.00 195.00 M 250.00 195.00 D 402.50 152.50 D S
402.50 152.50 M  0.000  0.000  1.000 C
 S
211.98 275.93 M 211.98 275.93 D 343.02 169.07 D S
343.02 169.07 M  1.000  0.000  0.000 C
 S
  0.00 250.00 M   0.00 250.00 D 250.00 500.00 D S
250.00 500.00 M 250.00 500.00 D 250.00   0.00 D S
250.00   0.00 M 250.00   0.00 D 500.00 250.00 D S
500.00 250.00 M  0.000  1.000  0.000 C
 S
155.00 405.00 M 155.00 405.00 D 250.00 190.00 D S
250.00 190.00 M 250.00 190.00 D 405.00 155.00 D S
405.00 155.00 M  0.000  0.000  1.000 C
 S
213.90 271.70 M 213.90 271.70 D 346.10 168.30 D S
346.10 168.30 M  1.000  0.000  0.000 C
 S
  0.00 250.00 M   0.00 250.00 D 250.00 500.00 D S
250.00 500.00 M 250.00 500.00 D 250.00   0.00 D S
250.00   0.00 M 250.00   0.00 D 500.00 250.00 D S
500.00 250.00 M  0.000  1.000  0.000 C
 S
157.50 407.50 M 157.50 407.50 D 250.00 185.00 D S
250.00 185.00 M 250.00 185.00 D 407.50 157.50 D S
407.50 157.50 M  0.000  0.000  1.000 C
 S
215.78 267.33 M 215.78 267.33 D 349.23 167.68 D S
349.23 167.68 M  1.000  0.000  0.000 C
 S
  0.00 250.00 M   0.00 250.00 D 250.00 500.00 D S
250.00 500.00 M 250.00 500.00 D 250.00   0.00 D S
250.00   0.00 M 250.00   0.00 D 500.00 250.00 D S
500.00 250.00 M  0.000  1.000  0.000 C
 S
160.00 410.00 M 160.00 410.00 D 250.00 180.00 D S
250.00 180.00 M 250.00 180.00 D 410.00 160.00 D S
410.00 160.00 M  0.000  0.000  1.000 C
 S
217.60 262.80 M 217.60 262.80 D 352.40 167.20 D S
352.40 167.20 M  1.000  0.000  0.000 C
 S
  0.00 250.00 M   0.00 250.00 D 250.00 500.00 D S
250.00 500.00 M 250.00 500.00 D 250.00   0.00 D S
250.00   0.00 M 250.00   0.00 D 500.00 250.00 D S
500.00 250.00 M  0.000  1.000  0.000 C
 S
162.50 412.50 M 162.50 412.50 D 250.00 175.00 D S
250.00 175.00 M 250.00 175.00 D 412.50 162.50 D S
412.50 162.50 M  0.000  0.000  1.000 C
 S
219.38 258.13 M 219.38 258.12 D 355.62 166.88 D S
355.62 166.88 M  1.000  0.000  0.000 C
 S
  0.00 250.00 M   0.00 250.00 D 250.00 500.00 D S
250.00 500.00 M 250.00 500.00 D 250.00   0.00 D S
250.00   0.00 M 250.00   0.00 D 500.00 250.00 D S
500.00 250.00 M  0.000  1.000  0.000 C
 S
165.00 415.00 M 165.00 415.00 D 250.00 170.00 D S
250.00 170.00 M 250.00 170.00 D 415.00 165.00 D S
415.00 165.00 M  0.000  0.000  1.000 C
 S
221.10 253.30 M 221.10 253.30 D 358.90 166.70 D S
358.90 166.70 M  1.000  0.000  0.000 C
 S
  0.00 250.00 M   0.00 250.00 D 250.00 500.00 D S
250.00 500.00 M 250.00 500.00 D 250.00   0.00 D S
250.00   0.00 M 250.00   0.00 D 500.00 250.00 D S
500.00 250.00 M  0.000  1.000  0.000 C
 S
167.50 417.50 M 167.50 417.50 D 250.00 165.00 D S
250.00 165.00 M 250.00 165.00 D 417.50 167.50 D S
417.50 167.50 M  0.000  0.000  1.000 C
 S
222.78 248.33 M 222.78 248.32 D 362.23 166.68 D S
362.23 166.68 M  1.000  0.000  0.000 C
 S
  0.00 250.00 M   0.00 250.00 D 250.00 500.00 D S
250.00 500.00 M 250.00 500.00 D 250.00   0.00 D S
250.00   0.00 M 250.00   0.00 D 500.00 250.00 D S
500.00 250.00 M  0.000  1.000  0.000 C
 S
170.00 420.00 M 170.00 420.00 D 250.00 160.00 D S
250.00 160.00 M 250.00 160.00 D 420.00 170.00 D S
420.00 170.00 M  0.000  0.000  1.000 C
 S
224.40 243.20 M 224.40 243.20 D 365.60 166.80 D S
365.60 166.80 M  1.000  0.000  0.000 C
 S
  0.00 250.00 M   0.00 250.00 D 250.00 500.00 D S
250.00 500.00 M 250.00 500.00 D 250.00   0.00 D S
250.00   0.00 M 250.00   0.00 D 500.00 250.00 D S
500.00 250.00 M  0.000  1.000  0.000 C
 S
172.50 422.50 M 172.50 422.50 D 250.00 155.00 D S
250.00 155.00 M 250.00 155.00 D 422.50 172.50 D S
422.50 172.50 M  0.000  0.000  1.000 C
 S
225.98 237.93 M 225.98 237.93 D 369.02 167.07 D S
369.02 167.07 M  1.000  0.000  0.000 C
 S
  0.00 250.00 M   0.00 250.00 D 250.00 500.00 D S
250.00 500.00 M 250.00 500.00 D 250.00   0.00 D S
250.00   0.00 M 250.00   0.00 D 500.00 250.00 D S
500.00 250.00 M  0.000  1.000  0.000 C
 S
175.00 425.00 M 175.00 425.00 D 250.00 150.00 D S
250.00 150.00 M 250.00 150.00 D 425.00 175.00 D S
425.00 175.00 M  0.000  0.000  1.000 C
 S
227.50 232.50 M 227.50 232.50 D 372.50 167.50 D S
372.50 167.50 M  1.000  0.000  0.000 C
 S
  0.00 250.00 M   0.00 250.00 D 250.00 500.00 D S
250.00 500.00 M 250.00 500.00 D 250.00   0.00 D S
250.00   0.00 M 250.00   0.00 D 500.00 250.00 D S
500.00 250.00 M  0.000  1.000  0.000 C
 S
177.50 427.50 M 177.50 427.50 D 250.00 145.00 D S
250.00 145.00 M 250.00 145.00 D 427.50 177.50 D S
427.50 177.50 M  0.000  0.000  1.000 C
 S
228.98 226.93 M 228.98 226.93 D 376.02 168.07 D S
376.02 168.07 M  1.000  0.000  0.000 C
 S
  0.00 250.00 M   0.00 250.00 D 250.00 500.00 D S
250.00 500.00 M 250.00 500.00 D 250.00   0.00 D S
250.00   0.00 M 250.00   0.00 D 500.00 250.00 D S
500.00 250.00 M  0.000  1.000  0.000 C
 S
180.00 430.00 M 180.00 430.00 D 250.00 140.00 D S
250.00 140.00 M 250.00 140.00 D 430.00 180.00 D S
430.00 180.00 M  0.000  0.000  1.000 C
 S
230.40 221.20 M 230.40 221.20 D 379.60 168.80 D S
379.60 168.80 M  1.000  0.000  0.000 C
 S
  0.00 250.00 M   0.00 250.00 D 250.00 500.00 D S
250.00 500.00 M 250.00 500.00 D 250.00   0.00 D S
250.00   0.00 M 250.00   0.00 D 500.00 250.00 D S
500.00 250.00 M  0.000  1.000  0.000 C
 S
182.50 432.50 M 182.50 432.50 D 250.00 135.00 D S
250.00 135.00 M 250.00 135.00 D 432.50 182.50 D S
432.50 182.50 M  0.000  0.000  1.000 C
 S
231.78 215.33 M 231.78 215.32 D 383.23 169.68 D S
383.23 169.68 M  1.000  0.000  0.000 C
 S
  0.00 250.00 M   0.00 250.00 D 250.00 500.00 D S
250.00 500.00 M 250.00 500.00 D 250.00   0.00 D S
250.00   0.00 M 250.00   0.00 D 500.00 250.00 D S
500.00 250.00 M  0.000  1.000  0.000 C
 S
185.00 435.00 M 185.00 435.00 D 250.00 130.00 D S
250.00 130.00 M 250.00 130.00 D 435.00 185.00 D S
435.00 185.00 M  0.000  0.000  1.000 C
 S
233.10 209.30 M 233.10 209.30 D 386.90 170.70 D S
386.90 170.70 M  1.000  0.000  0.000 C
 S
  0.00 250.00 M   0.00 250.00 D 250.00 500.00 D S
250.00 500.00 M 250.00 500.00 D 250.00   0.00 D S
250.00   0.00 M 250.00   0.00 D 500.00 250.00 D S
500.00 250.00 M  0.000  1.000  0.000 C
 S
187.50 437.50 M 187.50 437.50 D 250.00 125.00 D S
250.00 125.00 M 250.00 125.00 D 437.50 187.50 D S
437.50 187.50 M  0.000  0.000  1.000 C
 S
234.38 203.13 M 234.38 203.12 D 390.62 171.88 D S
390.62 171.88 M  1.000  0.000  0.000 C
 S
  0.00 250.00 M   0.00 250.00 D 250.00 500.00 D S
250.00 500.00 M 250.00 500.00 D 250.00   0.00 D S
250.00   0.00 M 250.00   0.00 D 500.00 250.00 D S
500.00 250.00 M  0.000  1.000  0.000 C
 S
190.00 440.00 M 190.00 440.00 D 250.00 120.00 D S
250.00 120.00 M 250.00 120.00 D 440.00 190.00 D S
440.00 190.00 M  0.000  0.000  1.000 C
 S
235.60 196.80 M 235.60 196.80 D 394.40 173.20 D S
394.40 173.20 M  1.000  0.000  0.000 C
 S
  0.00 250.00 M   0.00 250.00 D 250.00 500.00 D S
250.00 500.00 M 250.00 500.00 D 250.00   0.00 D S
250.00   0.00 M 250.00   0.00 D 500.00 250.00 D S
500.00 250.00 M  0.000  1.000  0.000 C
 S
192.50 442.50 M 192.50 442.50 D 250.00 115.00 D S
250.00 115.00 M 250.00 115.00 D 442.50 192.50 D S
442.50 192.50 M  0.000  0.000  1.000 C
 S
236.78 190.33 M 236.78 190.32 D 398.23 174.68 D S
398.23 174.68 M  1.000  0.000  0.000 C
 S
  0.00 250.00 M   0.00 250.00 D 250.00 500.00 D S
250.00 500.00 M 250.00 500.00 D 250.00   0.00 D S
250.00   0.00 M 250.00   0.00 D 500.00 250.00 D S
500.00 250.00 M  0.000  1.000  0.000 C
 S
195.00 445.00 M 195.00 445.00 D 250.00 110.00 D S
250.00 110.00 M 250.00 110.00 D 445.00 195.00 D S
445.00 195.00 M  0.000  0.000  1.000 C
 S
237.90 183.70 M 237.90 183.70 D 402.10 176.30 D S
402.10 176.30 M  1.000  0.000  0.000 C
 S
  0.00 250.00 M   0.00 250.00 D 250.00 500.00 D S
250.00 500.00 M 250.00 500.00 D 250.00   0.00 D S
250.00   0.00 M 250.00   0.00 D 500.00 250.00 D S
500.00 250.00 M  0.000  1.000  0.000 C
 S
197.50 447.50 M 197.50 447.50 D 250.00 105.00 D S
250.00 105.00 M 250.00 105.00 D 447.50 197.50 D S
447.50 197.50 M  0.000  0.000  1.000 C
 S
238.98 176.93 M 238.98 176.93 D 406.02 178.07 D S
406.02 178.07 M  1.000  0.000  0.000 C
 S
  0.00 250.00 M   0.00 250.00 D 250.00 500.00 D S
250.00 500.00 M 250.00 500.00 D 250.00   0.00 D S
250.00   0.00 M 250.00   0.00 D 500.00 250.00 D S
500.00 250.00 M  0.000  1.000  0.000 C
 S
200.00 450.00 M 200.00 450.00 D 250.00 100.00 D S
250.00 100.00 M 250.00 100.00 D 450.00 200.00 D S
450.00 200.00 M  0.000  0.000  1.000 C
 S
240.00 170.00 M 240.00 170.00 D 410.00 180.00 D S
410.00 180.00 M  1.000  0.000  0.000 C
 S
  0.00 250.00 M   0.00 250.00 D 250.00 500.00 D S
250.00 500.00 M 250.00 500.00 D 250.00   0.00 D S
250.00   0.00 M 250.00   0.00 D 500.00 250.00 D S
500.00 250.00 M  0.000  1.000  0.000 C
 S
202.50 452.50 M 202.50 452.50 D 250.00  95.00 D S
250.00  95.00 M 250.00  95.00 D 452.50 202.50 D S
452.50 202.50 M  0.000  0.000  1.000 C
 S
240.98 162.93 M 240.98 162.93 D 414.02 182.07 D S
414.02 182.07 M  1.000  0.000  0.000 C
 S
  0.00 250.00 M   0.00 250.00 D 250.00 500.00 D S
250.00 500.00 M 250.00 500.00 D 250.00   0.00 D S
250.00   0.00 M 250.00   0.00 D 500.00 250.00 D S
500.00 250.00 M  0.000  1.000  0.000 C
 S
205.00 455.00 M 205.00 455.00 D 250.00  90.00 D S
250.00  90.00 M 250.00  90.00 D 455.00 205.00 D S
455.00 205.00 M  0.000  0.000  1.000 C
 S
241.90 155.70 M 241.90 155.70 D 418.10 184.30 D S
418.10 184.30 M  1.000  0.000  0.000 C
 S
  0.00 250.00 M   0.00 250.00 D 250.00 500.00 D S
250.00 500.00 M 250.00 500.00 D 250.00   0.00 D S
250.00   0.00 M 250.00   0.00 D 500.00 250.00 D S
500.00 250.00 M  0.000  1.000  0.000 C
 S
207.50 457.50 M 207.50 457.50 D 250.00  85.00 D S
250.00  85.00 M 250.00  85.00 D 457.50 207.50 D S
457.50 207.50 M  0.000  0.000  1.000 C
 S
242.78 148.33 M 242.78 148.32 D 422.23 186.68 D S
422.23 186.68 M  1.000  0.000  0.000 C
 S
  0.00 250.00 M   0.00 250.00 D 250.00 500.00 D S
250.00 500.00 M 250.00 500.00 D 250.00   0.00 D S
250.00   0.00 M 250.00   0.00 D 500.00 250.00 D S
500.00 250.00 M  0.000  1.000  0.000 C
 S
210.00 460.00 M 210.00 460.00 D 250.00  80.00 D S
250.00  80.00 M 250.00  80.00 D 460.00 210.00 D S
460.00 210.00 M  0.000  0.000  1.000 C
 S
243.60 140.80 M 243.60 140.80 D 426.40 189.20 D S
426.40 189.20 M  1.000  0.000  0.000 C
 S
  0.00 250.00 M   0.00 250.00 D 250.00 500.00 D S
250.00 500.00 M 250.00 500.00 D 250.00   0.00 D S
250.00   0.00 M 250.00   0.00 D 500.00 250.00 D S
500.00 250.00 M  0.000  1.000  0.000 C
 S
212.50 462.50 M 212.50 462.50 D 250.00  75.00 D S
250.00  75.00 M 250.00  75.00 D 462.50 212.50 D S
462.50 212.50 M  0.000  0.000  1.000 C
 S
244.38 133.13 M 244.38 133.12 D 430.62 191.88 D S
430.62 191.88 M  1.000  0.000  0.000 C
 S
  0.00 250.00 M   0.00 250.00 D 250.00 500.00 D S
250.00 500.00 M 250.00 500.00 D 250.00   0.00 D S
250.00   0.00 M 250.00   0.00 D 500.00 250.00 D S
500.00 250.00 M  0.000  1.000  0.000 C
 S
215.00 465.00 M 215.00 465.00 D 250.00  70.00 D S
250.00  70.00 M 250.00  70.00 D 465.00 215.00 D S
465.00 215.00 M  0.000  0.000  1.000 C
 S
245.10 125.30 M 245.10 125.30 D 434.90 194.70 D S
434.90 194.70 M  1.000  0.000  0.000 C
 S
  0.00 250.00 M   0.00 250.00 D 250.00 500.00 D S
250.00 500.00 M 250.00 500.00 D 250.00   0.00 D S
250.00   0.00 M 250.00   0.00 D 500.00 250.00 D S
500.00 250.00 M  0.000  1.000  0.000 C
 S
217.50 467.50 M 217.50 467.50 D 250.00  65.00 D S
250.00  65.00 M 250.00  65.00 D 467.50 217.50 D S
467.50 217.50 M  0.000  0.000  1.000 C
 S
245.78 117.33 M 245.78 117.33 D 439.23 197.68 D S
439.23 197.68 M  1.000  0.000  0.000 C
 S
  0.00 250.00 M   0.00 250.00 D 250.00 500.00 D S
250.00 500.00 M 250.00 500.00 D 250.00   0.00 D S
250.00   0.00 M 250.00   0.00 D 500.00 250.00 D S
500.00 250.00 M  0.000  1.000  0.000 C
 S
220.00 470.00 M 220.00 470.00 D 250.00  60.00 D S
250.00  60.00 M 250.00  60.00 D 470.00 220.00 D S
470.00 220.00 M  0.000  0.000  1.000 C
 S
246.40 109.20 M 246.40 109.20 D 443.60 200.80 D S
443.60 200.80 M  1.000  0.000  0.000 C
 S
  0.00 250.00 M   0.00 250.00 D 250.00 500.00 D S
250.00 500.00 M 250.00 500.00 D 250.00   0.00 D S
250.00   0.00 M 250.00   0.00 D 500.00 250.00 D S
500.00 250.00 M  0.000  1.000  0.000 C
 S
222.50 472.50 M 222.50 472.50 D 250.00  55.00 D S
250.00  55.00 M 250.00  55.00 D 472.50 222.50 D S
472.50 222.50 M  0.000  0.000  1.000 C
 S
246.98 100.93 M 246.98 100.93 D 448.02 204.07 D S
448.02 204.07 M  1.000  0.000  0.000 C
 S
  0.00 250.00 M   0.00 250.00 D 250.00 500.00 D S
250.00 500.00 M 250.00 500.00 D 250.00   0.00 D S
250.00   0.00 M 250.00   0.00 D 500.00 250.00 D S
500.00 250.00 M  0.000  1.000  0.000 C
 S
225.00 475.00 M 225.00 475.00 D 250.00  50.00 D S
250.00  50.00 M 250.00  50.00 D 475.00 225.00 D S
475.00 225.00 M  0.000  0.000  1.000 C
 S
247.50  92.50 M 247.50  92.50 D 452.50 207.50 D S
452.50 207.50 M  1.000  0.000  0.000 C
 S
  0.00 250.00 M   0.00 250.00 D 250.00 500.00 D S
250.00 500.00 M 250.00 500.00 D 250.00   0.00 D S
250.00   0.00 M 250.00   0.00 D 500.00 250.00 D S
500.00 250.00 M  0.000  1.000  0.000 C
 S
227.50 477.50 M 227.50 477.50 D 250.00  45.00 D S
250.00  45.00 M 250.00  45.00 D 477.50 227.50 D S
477.50 227.50 M  0.000  0.000  1.000 C
 S
247.98  83.93 M 247.98  83.93 D 457.02 211.07 D S
457.02 211.07 M  1.000  0.000  0.000 C
 S
  0.00 250.00 M   0.00 250.00 D 250.00 500.00 D S
250.00 500.00 M 250.00 500.00 D 250.00   0.00 D S
250.00   0.00 M 250.00   0.00 D 500.00 250.00 D S
500.00 250.00 M  0.000  1.000  0.000 C
 S
230.00 480.00 M 230.00 480.00 D 250.00  40.00 D S
250.00  40.00 M 250.00  40.00 D 480.00 230.00 D S
480.00 230.00 M  0.000  0.000  1.000 C
 S
248.40  75.20 M 248.40  75.20 D 461.60 214.80 D S
461.60 214.80 M  1.000  0.000  0.000 C
 S
  0.00 250.00 M   0.00 250.00 D 250.00 500.00 D S
250.00 500.00 M 250.00 500.00 D 250.00   0.00 D S
250.00   0.00 M 250.00   0.00 D 500.00 250.00 D S
500.00 250.00 M  0.000  1.000  0.000 C
 S
232.50 482.50 M 232.50 482.50 D 250.00  35.00 D S
250.00  35.00 M 250.00  35.00 D 482.50 232.50 D S
482.50 232.50 M  0.000  0.000  1.000 C
 S
248.78  66.33 M 248.78  66.33 D 466.23 218.68 D S
466.23 218.68 M  1.000  0.000  0.000 C
 S
  0.00 250.00 M   0.00 250.00 D 250.00 500.00 D S
250.00 500.00 M 250.00 500.00 D 250.00   0.00 D S
250.00   0.00 M 250.00   0.00 D 500.00 250.00 D S
500.00 250.00 M  0.000  1.000  0.000 C
 S
235.00 485.00 M 235.00 485.00 D 250.00  30.00 D S
250.00  30.00 M 250.00  30.00 D 485.00 235.00 D S
485.00 235.00 M  0.000  0.000  1.000 C
 S
249.10  57.30 M 249.10  57.30 D 470.90 222.70 D S
470.90 222.70 M  1.000  0.000  0.000 C
 S
  0.00 250.00 M   0.00 250.00 D 250.00 500.00 D S
250.00 500.00 M 250.00 500.00 D 250.00   0.00 D S
250.00   0.00 M 250.00   0.00 D 500.00 250.00 D S
500.00 250.00 M  0.000  1.000  0.000 C
 S
237.50 487.50 M 237.50 487.50 D 250.00  25.00 D S
250.00  25.00 M 250.00  25.00 D 487.50 237.50 D S
487.50 237.50 M  0.000  0.000  1.000 C
 S
249.38  48.13 M 249.38  48.12 D 475.62 226.88 D S
475.62 226.88 M  1.000  0.000  0.000 C
 S
  0.00 250.00 M   0.00 250.00 D 250.00 500.00 D S
250.00 500.00 M 250.00 500.00 D 250.00   0.00 D S
250.00   0.00 M 250.00   0.00 D 500.00 250.00 D S
500.00 250.00 M  0.000  1.000  0.000 C
 S
240.00 490.00 M 240.00 490.00 D 250.00  20.00 D S
250.00  20.00 M 250.00  20.00 D 490.00 240.00 D S
490.00 240.00 M  0.000  0.000  1.000 C
 S
249.60  38.80 M 249.60  38.80 D 480.40 231.20 D S
480.40 231.20 M  1.000  0.000  0.000 C
 S
  0.00 250.00 M   0.00 250.00 D 250.00 500.00 D S
250.00 500.00 M 250.00 500.00 D 250.00   0.00 D S
250.00   0.00 M 250.00   0.00 D 500.00 250.00 D S
500.00 250.00 M  0.000  1.000  0.000 C
 S
242.50 492.50 M 242.50 492.50 D 250.00  15.00 D S
250.00  15.00 M 250.00  15.00 D 492.50 242.50 D S
492.50 242.50 M  0.000  0.000  1.000 C
 S
249.78  29.33 M 249.78  29.33 D 485.23 235.68 D S
485.23 235.68 M  1.000  0.000  0.000 C
 S
  0.00 250.00 M   0.00 250.00 D 250.00 500.00 D S
250.00 500.00 M 250.00 500.00 D 250.00   0.00 D S
250.00   0.00 M 250.00   0.00 D 500.00 250.00 D S
500.00 250.00 M  0.000  1.000  0.000 C
 S
245.00 495.00 M 245.00 495.00 D 250.00  10.00 D S
250.00  10.00 M 250.00  10.00 D 495.00 245.00 D S
495.00 245.00 M  0.000  0.000  1.000 C
 S
249.90  19.70 M 249.90  19.70 D 490.10 240.30 D S
490.10 240.30 M  1.000  0.000  0.000 C
 S
  0.00 250.00 M   0.00 250.00 D 250.00 500.00 D S
250.00 500.00 M 250.00 500.00 D 250.00   0.00 D S
250.00   0.00 M 250.00   0.00 D 500.00 250.00 D S
500.00 250.00 M  0.000  1.000  0.000 C
 S
247.50 497.50 M 247.50 497.50 D 250.00   5.00 D S
250.00   5.00 M 250.00   5.00 D 497.50 247.50 D S
497.50 247.50 M  0.000  0.000  1.000 C
 S
249.98   9.93 M 249.98   9.93 D 495.02 245.07 D S
495.02 245.07 M  1.000  0.000  0.000 C
 S
  0.00 250.00 M   0.00 250.00 D 250.00 500.00 D S
250.00 500.00 M 250.00 500.00 D 250.00   0.00 D S
250.00   0.00 M 250.00   0.00 D 500.00 250.00 D S
500.00 250.00 M  0.000  1.000  0.000 C
 S
250.00 500.00 M 250.00 500.00 D 250.00   0.00 D S
250.00   0.00 M 250.00   0.00 D 500.00 250.00 D S
500.00 250.00 M  0.000  0.000  1.000 C
 S
250.00   0.00 M 250.00   0.00 D 500.00 250.00 D S
500.00 250.00 M  0.000  0.000  0.000 C
 S
  0.00 250.00 M   0.00 250.00 D   7.43 257.28 D  14.70 264.11 D  21.84 270.52 D
 28.83 276.50 D  35.69 282.06 D  42.41 287.22 D  49.00 291.99 D
 55.46 296.37 D  61.79 300.37 D  68.00 304.00 D  74.09 307.27 D
 80.06 310.19 D  85.92 312.77 D  91.67 315.02 D  97.31 316.94 D
102.85 318.54 D 108.28 319.84 D 113.62 320.85 D 118.85 321.56 D
124.00 322.00 D 129.06 322.17 D 134.02 322.07 D 138.91 321.73 D
143.71 321.14 D 148.44 320.31 D 153.09 319.26 D 157.67 318.00 D
162.18 316.53 D 166.62 314.86 D 171.00 313.00 D 175.32 310.96 D
179.58 308.75 D 183.79 306.38 D 187.95 303.86 D 192.06 301.19 D
196.13 298.38 D 200.15 295.45 D 204.14 292.41 D 208.08 289.25 D
212.00 286.00 D 215.89 282.66 D 219.74 279.23 D 223.58 275.74 D
227.39 272.18 D 231.19 268.56 D 234.97 264.90 D 238.74 261.21 D
242.50 257.49 D 246.25 253.75 D 250.00 250.00 D 253.75 246.25 D
257.50 242.51 D 261.26 238.79 D 265.03 235.10 D 268.81 231.44 D
272.61 227.82 D 276.42 224.26 D 280.26 220.77 D 284.11 217.34 D
288.00 214.00 D 291.92 210.75 D 295.86 207.59 D 299.85 204.55 D
303.87 201.62 D 307.94 198.81 D 312.05 196.14 D 316.21 193.62 D
320.42 191.25 D 324.68 189.04 D 329.00 187.00 D 333.38 185.14 D
337.82 183.47 D 342.33 182.00 D 346.91 180.74 D 351.56 179.69 D
356.29 178.86 D 361.09 178.27 D 365.98 177.93 D 370.94 177.83 D
376.00 178.00 D 381.15 178.44 D 386.38 179.15 D 391.72 180.16 D
397.15 181.46 D 402.69 183.06 D 408.33 184.98 D 414.08 187.23 D
419.94 189.81 D 425.91 192.73 D 432.00 196.00 D 438.21 199.63 D
444.54 203.63 D 451.00 208.01 D 457.59 212.78 D 464.31 217.94 D
471.17 223.50 D 478.16 229.48 D 485.30 235.89 D 492.57 242.72 D
500.00 250.00 D S
eop
@end
%%PageTrailer
%%Trailer
%%EOF
