<?xml version="1.0" encoding="UTF-8" standalone="no"?>
<!-- Created with Inkscape (http://www.inkscape.org/) -->

<svg
   xmlns:dc="http://purl.org/dc/elements/1.1/"
   xmlns:cc="http://creativecommons.org/ns#"
   xmlns:rdf="http://www.w3.org/1999/02/22-rdf-syntax-ns#"
   xmlns:svg="http://www.w3.org/2000/svg"
   xmlns="http://www.w3.org/2000/svg"
   xmlns:sodipodi="http://sodipodi.sourceforge.net/DTD/sodipodi-0.dtd"
   xmlns:inkscape="http://www.inkscape.org/namespaces/inkscape"
   width="744.09448819"
   height="1052.3622047"
   id="svg2"
   version="1.1"
   inkscape:version="0.48.3.1 r9886"
   sodipodi:docname="Relay_network.svg">
  <defs
     id="defs4">
    <marker
       inkscape:stockid="Arrow2Lend"
       orient="auto"
       refY="0.0"
       refX="0.0"
       id="Arrow2Lend"
       style="overflow:visible;">
      <path
         id="path3938"
         style="fill-rule:evenodd;stroke-width:0.62500000;stroke-linejoin:round;"
         d="M 8.7185878,4.0337352 L -2.2072895,0.016013256 L 8.7185884,-4.0017078 C 6.9730900,-1.6296469 6.9831476,1.6157441 8.7185878,4.0337352 z "
         transform="scale(1.1) rotate(180) translate(1,0)" />
    </marker>
    <inkscape:path-effect
       effect="spiro"
       id="path-effect4389"
       is_visible="true" />
    <inkscape:path-effect
       effect="spiro"
       id="path-effect4385"
       is_visible="true" />
    <marker
       inkscape:stockid="Arrow1Mend"
       orient="auto"
       refY="0.0"
       refX="0.0"
       id="Arrow1Mend"
       style="overflow:visible;">
      <path
         id="path3926"
         d="M 0.0,0.0 L 5.0,-5.0 L -12.5,0.0 L 5.0,5.0 L 0.0,0.0 z "
         style="fill-rule:evenodd;stroke:#000000;stroke-width:1.0pt;"
         transform="scale(0.4) rotate(180) translate(10,0)" />
    </marker>
    <inkscape:path-effect
       effect="spiro"
       id="path-effect3143"
       is_visible="true" />
  </defs>
  <sodipodi:namedview
     id="base"
     pagecolor="#ffffff"
     bordercolor="#666666"
     borderopacity="1.0"
     inkscape:pageopacity="0.0"
     inkscape:pageshadow="2"
     inkscape:zoom="1"
     inkscape:cx="426.69037"
     inkscape:cy="854.07498"
     inkscape:document-units="px"
     inkscape:current-layer="layer1"
     showgrid="false"
     showborder="false"
     inkscape:window-width="1280"
     inkscape:window-height="741"
     inkscape:window-x="0"
     inkscape:window-y="27"
     inkscape:window-maximized="1" />
  <metadata
     id="metadata7">
    <rdf:RDF>
      <cc:Work
         rdf:about="">
        <dc:format>image/svg+xml</dc:format>
        <dc:type
           rdf:resource="http://purl.org/dc/dcmitype/StillImage" />
        <dc:title></dc:title>
      </cc:Work>
    </rdf:RDF>
  </metadata>
  <g
     inkscape:label="Layer 1"
     inkscape:groupmode="layer"
     id="layer1">
    <text
       xml:space="preserve"
       style="font-size:10px;font-style:normal;font-variant:normal;font-weight:normal;font-stretch:normal;text-align:start;line-height:125%;letter-spacing:0px;word-spacing:0px;text-anchor:start;fill:#000000;fill-opacity:1;stroke:none;font-family:Univers Else;-inkscape-font-specification:Univers Else"
       x="602"
       y="51.862183"
       id="text2985"
       sodipodi:linespacing="125%"><tspan
         sodipodi:role="line"
         x="602"
         y="51.862183"
         id="tspan2991">config interface 'lan'</tspan><tspan
         sodipodi:role="line"
         x="602"
         y="64.362183"
         id="tspan2998">    option ifname 'eth0'</tspan><tspan
         sodipodi:role="line"
         x="602"
         y="76.862183"
         id="tspan3000">    option type 'bridge'</tspan><tspan
         sodipodi:role="line"
         x="602"
         y="89.362183"
         id="tspan3002">    option proto 'static'</tspan><tspan
         sodipodi:role="line"
         x="602"
         y="101.86218"
         id="tspan3004">    option ipaddr '192.168.10.1'</tspan><tspan
         sodipodi:role="line"
         x="602"
         y="114.36218"
         id="tspan3120">    # Your main router's IP</tspan><tspan
         sodipodi:role="line"
         x="602"
         y="126.86218"
         id="tspan3006">    option gateway '192.168.1.1' </tspan><tspan
         sodipodi:role="line"
         x="602"
         y="139.36218"
         id="tspan3008">    option netmask '255.255.255.0'</tspan><tspan
         sodipodi:role="line"
         x="602"
         y="151.86218"
         id="tspan3010">    option dns     '192.168.1.1'</tspan></text>
    <text
       xml:space="preserve"
       style="font-size:10px;font-style:normal;font-variant:normal;font-weight:normal;font-stretch:normal;text-align:start;line-height:125%;letter-spacing:0px;word-spacing:0px;text-anchor:start;fill:#000000;fill-opacity:1;stroke:none;font-family:Univers Else;-inkscape-font-specification:Univers Else"
       x="118.24115"
       y="49.782181"
       id="text3012"
       sodipodi:linespacing="125%"><tspan
         sodipodi:role="line"
         id="tspan3014"
         x="118.24115"
         y="49.782181">config interface 'wwan'</tspan><tspan
         sodipodi:role="line"
         x="118.24115"
         y="62.282181"
         id="tspan3016">    option proto 'static'</tspan><tspan
         sodipodi:role="line"
         x="118.24115"
         y="74.782181"
         id="tspan3112">     #match you main router network 192.168.x.254</tspan><tspan
         sodipodi:role="line"
         x="118.24115"
         y="87.282181"
         id="tspan3018">    option ipaddr '192.168.1.254'</tspan><tspan
         sodipodi:role="line"
         x="118.24115"
         y="99.782181"
         id="tspan3020">    option netmask '255.255.255.0'</tspan><tspan
         sodipodi:role="line"
         x="118.24115"
         y="112.28218"
         id="tspan3114">    #your main router's IP </tspan><tspan
         sodipodi:role="line"
         x="118.24115"
         y="124.78218"
         id="tspan3022">    option gateway '192.168.1.1'</tspan></text>
    <text
       xml:space="preserve"
       style="font-size:10px;font-style:normal;font-variant:normal;font-weight:normal;font-stretch:normal;text-align:start;line-height:125%;letter-spacing:0px;word-spacing:0px;text-anchor:start;fill:#000000;fill-opacity:1;stroke:none;font-family:Univers Else;-inkscape-font-specification:Univers Else"
       x="405.00003"
       y="49.782181"
       id="text3024"
       sodipodi:linespacing="125%"><tspan
         sodipodi:role="line"
         id="tspan3026"
         x="405.00003"
         y="49.782181">config 'interface' 'stabridge' </tspan><tspan
         sodipodi:role="line"
         x="405.00003"
         y="62.282181"
         id="tspan3028">    option 'proto' 'relay' </tspan><tspan
         sodipodi:role="line"
         x="405.00003"
         y="74.782181"
         id="tspan3030">    option 'network' 'lan wwan' </tspan><tspan
         sodipodi:role="line"
         x="405.00003"
         y="87.282181"
         id="tspan3116">    #Same IP as in WWAN</tspan><tspan
         sodipodi:role="line"
         x="405.00003"
         y="99.782181"
         id="tspan3032">    option ipaddr '192.168.1.254'</tspan></text>
    <text
       xml:space="preserve"
       style="font-size:10px;font-style:normal;font-variant:normal;font-weight:normal;font-stretch:normal;text-align:start;line-height:125%;letter-spacing:0px;word-spacing:0px;text-anchor:start;fill:#000000;fill-opacity:1;stroke:none;font-family:Univers Else;-inkscape-font-specification:Univers Else"
       x="-91.559921"
       y="226.83405"
       id="text3034"
       sodipodi:linespacing="125%"><tspan
         sodipodi:role="line"
         id="tspan3036"
         x="-91.559921"
         y="226.83405">config wifi-device 'radio0'</tspan><tspan
         sodipodi:role="line"
         x="-91.559921"
         y="239.33405"
         id="tspan3038">        #blahblah (default settings)</tspan><tspan
         sodipodi:role="line"
         x="-91.559921"
         y="251.83405"
         id="tspan3040">    # match with the main network channel</tspan><tspan
         sodipodi:role="line"
         x="-91.559921"
         y="264.33405"
         id="tspan4357">    option channel '1' </tspan><tspan
         sodipodi:role="line"
         x="-91.559921"
         y="276.83405"
         id="tspan3042">    option disabled '0'</tspan></text>
    <text
       xml:space="preserve"
       style="font-size:10px;font-style:normal;font-variant:normal;font-weight:normal;font-stretch:normal;text-align:start;line-height:125%;letter-spacing:0px;word-spacing:0px;text-anchor:start;fill:#000000;fill-opacity:1;stroke:none;font-family:Univers Else;-inkscape-font-specification:Univers Else"
       x="-242.30867"
       y="97.86496"
       id="text3044"
       sodipodi:linespacing="125%"><tspan
         sodipodi:role="line"
         id="tspan3046"
         x="-242.30867"
         y="97.86496">NETWORK</tspan></text>
    <text
       xml:space="preserve"
       style="font-size:10px;font-style:normal;font-variant:normal;font-weight:normal;font-stretch:normal;text-align:start;line-height:125%;letter-spacing:0px;word-spacing:0px;text-anchor:start;fill:#000000;fill-opacity:1;stroke:none;font-family:Univers Else;-inkscape-font-specification:Univers Else"
       x="-228.89444"
       y="247.84267"
       id="text3048"
       sodipodi:linespacing="125%"><tspan
         sodipodi:role="line"
         id="tspan3050"
         x="-228.89444"
         y="247.84267">WIRELESS</tspan></text>
    <text
       xml:space="preserve"
       style="font-size:10px;font-style:normal;font-variant:normal;font-weight:normal;font-stretch:normal;text-align:start;line-height:125%;letter-spacing:0px;word-spacing:0px;text-anchor:start;fill:#000000;fill-opacity:1;stroke:none;font-family:Univers Else;-inkscape-font-specification:Univers Else"
       x="121.69196"
       y="216.52034"
       id="text3052"
       sodipodi:linespacing="125%"><tspan
         sodipodi:role="line"
         id="tspan3054"
         x="121.69196"
         y="216.52034">config wifi-iface</tspan><tspan
         sodipodi:role="line"
         x="121.69196"
         y="229.02034"
         id="tspan3056">    option ssid 'MainWirelessNetwork'</tspan><tspan
         sodipodi:role="line"
         x="121.69196"
         y="241.52034"
         id="tspan3058">    option encryption 'psk' </tspan><tspan
         sodipodi:role="line"
         x="121.69196"
         y="254.02032"
         id="tspan3060">    option device 'radio0'</tspan><tspan
         sodipodi:role="line"
         x="121.69196"
         y="266.52032"
         id="tspan3062">    option mode 'sta'</tspan><tspan
         sodipodi:role="line"
         x="121.69196"
         y="279.02032"
         id="tspan3064">    option network 'wwan'</tspan><tspan
         sodipodi:role="line"
         x="121.69196"
         y="291.52032"
         id="tspan3066">    option key 'MainRouterWirelessPassword'</tspan></text>
    <text
       xml:space="preserve"
       style="font-size:10px;font-style:normal;font-variant:normal;font-weight:normal;font-stretch:normal;text-align:start;line-height:125%;letter-spacing:0px;word-spacing:0px;text-anchor:start;fill:#000000;fill-opacity:1;stroke:none;font-family:Univers Else;-inkscape-font-specification:Univers Else"
       x="598.49603"
       y="222.46503"
       id="text3068"
       sodipodi:linespacing="125%"><tspan
         sodipodi:role="line"
         id="tspan3070"
         x="598.49603"
         y="222.46503">config wifi-iface</tspan><tspan
         sodipodi:role="line"
         x="598.49603"
         y="234.96503"
         id="tspan3072">    option device 'radio0'</tspan><tspan
         sodipodi:role="line"
         x="598.49603"
         y="247.46503"
         id="tspan3074">    option mode 'ap'</tspan><tspan
         sodipodi:role="line"
         x="598.49603"
         y="259.96503"
         id="tspan3076">    option ssid 'RepeaterWirelessNetwork'</tspan><tspan
         sodipodi:role="line"
         x="598.49603"
         y="272.46503"
         id="tspan3078">    option encryption 'psk'</tspan><tspan
         sodipodi:role="line"
         x="598.49603"
         y="284.96503"
         id="tspan3080">    option key 'RepeaterWirelessPassword'</tspan><tspan
         sodipodi:role="line"
         x="598.49603"
         y="297.46503"
         id="tspan3082">    option network 'lan'</tspan></text>
    <text
       xml:space="preserve"
       style="font-size:10px;font-style:normal;font-variant:normal;font-weight:normal;font-stretch:normal;text-align:start;line-height:125%;letter-spacing:0px;word-spacing:0px;text-anchor:start;fill:#000000;fill-opacity:1;stroke:none;font-family:Univers Else;-inkscape-font-specification:Univers Else"
       x="603.7746"
       y="360.15848"
       id="text3084"
       sodipodi:linespacing="125%"><tspan
         sodipodi:role="line"
         id="tspan3086"
         x="603.7746"
         y="360.15848">config dhcp lan</tspan><tspan
         sodipodi:role="line"
         x="603.7746"
         y="372.65848"
         id="tspan3088">    option interface    lan</tspan><tspan
         sodipodi:role="line"
         x="603.7746"
         y="385.15848"
         id="tspan3090">    option start     100</tspan><tspan
         sodipodi:role="line"
         x="603.7746"
         y="397.65848"
         id="tspan3092">    option limit    150</tspan><tspan
         sodipodi:role="line"
         x="603.7746"
         y="410.15848"
         id="tspan3094">    option leasetime    12h</tspan><tspan
         sodipodi:role="line"
         x="603.7746"
         y="422.65848"
         id="tspan3096">    option ignore    1</tspan><tspan
         sodipodi:role="line"
         x="603.7746"
         y="435.15848"
         id="tspan3098" /></text>
    <text
       xml:space="preserve"
       style="font-size:10px;font-style:normal;font-variant:normal;font-weight:normal;font-stretch:normal;text-align:start;line-height:125%;letter-spacing:0px;word-spacing:0px;text-anchor:start;fill:#000000;fill-opacity:1;stroke:none;font-family:Univers Else;-inkscape-font-specification:Univers Else"
       x="-71.771027"
       y="370.98691"
       id="text3100"
       sodipodi:linespacing="125%"><tspan
         sodipodi:role="line"
         id="tspan3102"
         x="-71.771027"
         y="370.98691">config dhcp wan</tspan><tspan
         sodipodi:role="line"
         x="-71.771027"
         y="383.48691"
         id="tspan3104">    option interface    wan</tspan><tspan
         sodipodi:role="line"
         x="-71.771027"
         y="395.98691"
         id="tspan3106">    option ignore    1</tspan></text>
    <text
       xml:space="preserve"
       style="font-size:10px;font-style:normal;font-variant:normal;font-weight:normal;font-stretch:normal;text-align:start;line-height:125%;letter-spacing:0px;word-spacing:0px;text-anchor:start;fill:#000000;fill-opacity:1;stroke:none;font-family:Univers Else;-inkscape-font-specification:Univers Else"
       x="-223.77313"
       y="402.73209"
       id="text3108"
       sodipodi:linespacing="125%"><tspan
         sodipodi:role="line"
         id="tspan3110"
         x="-223.77313"
         y="402.73209">DHCP</tspan></text>
    <path
       style="fill:none;stroke:#000000;stroke-width:1px;stroke-linecap:butt;stroke-linejoin:miter;stroke-opacity:1;marker-end:url(#Arrow1Mend)"
       d="m 413,99.362183 -132,-13"
       id="path3141"
       inkscape:path-effect="#path-effect3143"
       inkscape:original-d="m 413,99.362183 -132,-13"
       inkscape:connector-curvature="0" />
    <path
       sodipodi:type="arc"
       style="color:#000000;fill:none;stroke:#000000;stroke-width:1;stroke-linecap:butt;stroke-linejoin:miter;stroke-miterlimit:4;stroke-opacity:1;stroke-dasharray:1, 4;stroke-dashoffset:0;marker:none;visibility:visible;display:inline;overflow:visible;enable-background:accumulate"
       id="path4359"
       sodipodi:cx="236"
       sodipodi:cy="98.362183"
       sodipodi:rx="159"
       sodipodi:ry="86"
       d="m 395,98.362183 a 159,86 0 1 1 -318,0 159,86 0 1 1 318,0 z"
       transform="translate(-10,-15)" />
    <path
       sodipodi:type="arc"
       style="color:#000000;fill:none;stroke:#000000;stroke-width:1;stroke-linecap:butt;stroke-linejoin:miter;stroke-miterlimit:4;stroke-opacity:1;stroke-dasharray:1, 4;stroke-dashoffset:0;marker:none;visibility:visible;display:inline;overflow:visible;enable-background:accumulate"
       id="path4359-2"
       sodipodi:cx="236"
       sodipodi:cy="98.362183"
       sodipodi:rx="159"
       sodipodi:ry="86"
       d="m 395,98.362183 a 159,86 0 1 1 -318,0 159,86 0 1 1 318,0 z"
       transform="translate(473,-12)" />
    <text
       xml:space="preserve"
       style="font-size:10px;font-style:normal;font-variant:normal;font-weight:normal;font-stretch:normal;text-align:start;line-height:125%;letter-spacing:0px;word-spacing:0px;text-anchor:start;fill:#000000;fill-opacity:1;stroke:none;font-family:Univers Else;-inkscape-font-specification:Univers Else"
       x="182"
       y="418.36218"
       id="text4379"
       sodipodi:linespacing="125%"><tspan
         sodipodi:role="line"
         id="tspan4381"
         x="182"
         y="418.36218">RELAY: just-another-botnet 192.18.103.20</tspan></text>
    <path
       style="fill:none;stroke:#000000;stroke-width:1px;stroke-linecap:butt;stroke-linejoin:miter;stroke-opacity:1;marker-end:url(#Arrow1Mend)"
       d="m 709,294.36218 6,-132"
       id="path4383"
       inkscape:path-effect="#path-effect4385"
       inkscape:original-d="m 709,294.36218 6,-132"
       inkscape:connector-curvature="0" />
    <path
       style="fill:none;stroke:#000000;stroke-width:1px;stroke-linecap:butt;stroke-linejoin:miter;stroke-opacity:1;marker-end:url(#Arrow1Mend)"
       d="m 247,274.36218 5,-125"
       id="path4387"
       inkscape:path-effect="#path-effect4389"
       inkscape:original-d="m 247,274.36218 c 5,-125 5,-125 5,-125"
       inkscape:connector-curvature="0" />
    <text
       xml:space="preserve"
       style="font-size:10px;font-style:normal;font-variant:normal;font-weight:normal;font-stretch:normal;text-align:start;line-height:125%;letter-spacing:0px;word-spacing:0px;text-anchor:start;fill:#000000;fill-opacity:1;stroke:none;font-family:Univers Else;-inkscape-font-specification:Univers Else"
       x="-148"
       y="0.36218262"
       id="text4943"
       sodipodi:linespacing="125%"><tspan
         sodipodi:role="line"
         id="tspan4945"
         x="-148"
         y="0.36218262">ifname</tspan></text>
    <text
       xml:space="preserve"
       style="font-size:10px;font-style:normal;font-variant:normal;font-weight:normal;font-stretch:normal;text-align:start;line-height:125%;letter-spacing:0px;word-spacing:0px;text-anchor:start;fill:#000000;fill-opacity:1;stroke:none;font-family:Univers Else;-inkscape-font-specification:Univers Else"
       x="-137"
       y="21.362183"
       id="text4947"
       sodipodi:linespacing="125%"><tspan
         sodipodi:role="line"
         id="tspan4949"
         x="-137"
         y="21.362183">device</tspan></text>
    <text
       xml:space="preserve"
       style="font-size:10px;font-style:normal;font-variant:normal;font-weight:normal;font-stretch:normal;text-align:start;line-height:125%;letter-spacing:0px;word-spacing:0px;text-anchor:start;fill:#000000;fill-opacity:1;stroke:none;font-family:Univers Else;-inkscape-font-specification:Univers Else"
       x="-387"
       y="74.362183"
       id="text4951"
       sodipodi:linespacing="125%"><tspan
         sodipodi:role="line"
         id="tspan4953"
         x="-387"
         y="74.362183" /></text>
    <text
       xml:space="preserve"
       style="font-size:10px;font-style:normal;font-variant:normal;font-weight:normal;font-stretch:normal;text-align:start;line-height:125%;letter-spacing:0px;word-spacing:0px;text-anchor:start;fill:#000000;fill-opacity:1;stroke:none;font-family:Univers Else;-inkscape-font-specification:Univers Else"
       x="91"
       y="-37.637817"
       id="text4955"
       sodipodi:linespacing="125%"><tspan
         sodipodi:role="line"
         id="tspan4957"
         x="91"
         y="-37.637817">http://wiki.openwrt.org/doc/recipes/bridgedclient</tspan></text>
  </g>
</svg>
