<?xml version="1.0" encoding="UTF-8" standalone="no"?>
<!-- Created with Inkscape (http://www.inkscape.org/) -->

<svg
   xmlns:dc="http://purl.org/dc/elements/1.1/"
   xmlns:cc="http://creativecommons.org/ns#"
   xmlns:rdf="http://www.w3.org/1999/02/22-rdf-syntax-ns#"
   xmlns:svg="http://www.w3.org/2000/svg"
   xmlns="http://www.w3.org/2000/svg"
   xmlns:xlink="http://www.w3.org/1999/xlink"
   xmlns:sodipodi="http://sodipodi.sourceforge.net/DTD/sodipodi-0.dtd"
   xmlns:inkscape="http://www.inkscape.org/namespaces/inkscape"
   width="256"
   height="256"
   id="svg2"
   version="1.1"
   inkscape:version="0.48+devel r"
   viewBox="0 0 256 256"
   sodipodi:docname="flag.svg"
   inkscape:export-filename="/home/hellocatfood/Desktop/flag.png"
   inkscape:export-xdpi="90"
   inkscape:export-ydpi="90">
  <defs
     id="defs4">
    <linearGradient
       inkscape:collect="always"
       id="linearGradient4325">
      <stop
         style="stop-color:#0000ff;stop-opacity:1"
         offset="0"
         id="stop4327" />
      <stop
         style="stop-color:#ff0000;stop-opacity:0;"
         offset="1"
         id="stop4329" />
    </linearGradient>
    <linearGradient
       inkscape:collect="always"
       id="linearGradient4317">
      <stop
         style="stop-color:#ff0000;stop-opacity:1;"
         offset="0"
         id="stop4319" />
      <stop
         style="stop-color:#ff0000;stop-opacity:0;"
         offset="1"
         id="stop4321" />
    </linearGradient>
    <linearGradient
       inkscape:collect="always"
       id="linearGradient4309">
      <stop
         style="stop-color:#333333;stop-opacity:1"
         offset="0"
         id="stop4311" />
      <stop
         style="stop-color:#ff0000;stop-opacity:0;"
         offset="1"
         id="stop4313" />
    </linearGradient>
    <linearGradient
       inkscape:collect="always"
       xlink:href="#linearGradient4309"
       id="linearGradient4315"
       x1="0"
       y1="-1052.3622"
       x2="128"
       y2="-1052.3622"
       gradientUnits="userSpaceOnUse" />
    <linearGradient
       inkscape:collect="always"
       xlink:href="#linearGradient4317"
       id="linearGradient4323"
       x1="128"
       y1="-1052.3622"
       x2="256"
       y2="-1052.3622"
       gradientUnits="userSpaceOnUse" />
    <radialGradient
       inkscape:collect="always"
       xlink:href="#linearGradient4325"
       id="radialGradient4331"
       cx="128"
       cy="-1040.3622"
       fx="128"
       fy="-1040.3622"
       r="64"
       gradientTransform="matrix(1,0,0,0.09375,0,-942.82823)"
       gradientUnits="userSpaceOnUse" />
    <linearGradient
       inkscape:collect="always"
       xlink:href="#linearGradient4317-8"
       id="linearGradient4345"
       gradientUnits="userSpaceOnUse"
       x1="128"
       y1="-1052.3622"
       x2="256"
       y2="-1052.3622"
       gradientTransform="translate(-64,1.7187404e-8)" />
    <linearGradient
       inkscape:collect="always"
       id="linearGradient4317-8">
      <stop
         style="stop-color:#ff0000;stop-opacity:1;"
         offset="0"
         id="stop4319-4" />
      <stop
         id="stop4343"
         offset="0.52436638"
         style="stop-color:#ff35cc;stop-opacity:1" />
      <stop
         style="stop-color:#ff6600;stop-opacity:1"
         offset="1"
         id="stop4321-6" />
    </linearGradient>
    <linearGradient
       inkscape:collect="always"
       xlink:href="#linearGradient4317"
       id="linearGradient4407"
       gradientUnits="userSpaceOnUse"
       x1="128"
       y1="-1052.3622"
       x2="256"
       y2="-1052.3622"
       gradientTransform="translate(-384,0)" />
    <clipPath
       clipPathUnits="userSpaceOnUse"
       id="clipPath4421">
      <rect
         transform="scale(1,-1)"
         y="-1052.3622"
         x="0"
         height="12"
         width="256"
         id="rect4423"
         style="opacity:1;fill:#008000;fill-opacity:1;fill-rule:evenodd;stroke:none;stroke-width:3;stroke-linejoin:round;stroke-miterlimit:4;stroke-dasharray:none;stroke-dashoffset:0;stroke-opacity:1" />
    </clipPath>
    <linearGradient
       inkscape:collect="always"
       xlink:href="#linearGradient4317-8"
       id="linearGradient4135"
       x1="12"
       y1="1034.3622"
       x2="24"
       y2="1034.3622"
       gradientUnits="userSpaceOnUse" />
  </defs>
  <sodipodi:namedview
     id="base"
     pagecolor="#ffffff"
     bordercolor="#666666"
     borderopacity="1.0"
     inkscape:pageopacity="0.0"
     inkscape:pageshadow="2"
     inkscape:zoom="2.6999776"
     inkscape:cx="73.19211"
     inkscape:cy="75.024937"
     inkscape:document-units="px"
     inkscape:current-layer="layer1"
     showgrid="false"
     inkscape:snap-bbox="true"
     inkscape:bbox-paths="true"
     inkscape:bbox-nodes="true"
     inkscape:snap-bbox-edge-midpoints="true"
     inkscape:object-paths="true"
     inkscape:snap-page="true"
     inkscape:snap-bbox-midpoints="true"
     inkscape:window-width="1223"
     inkscape:window-height="1000"
     inkscape:window-x="57"
     inkscape:window-y="24"
     inkscape:window-maximized="1"
     units="in" />
  <metadata
     id="metadata7">
    <rdf:RDF>
      <cc:Work
         rdf:about="">
        <dc:format>image/svg+xml</dc:format>
        <dc:type
           rdf:resource="http://purl.org/dc/dcmitype/StillImage" />
        <dc:title />
      </cc:Work>
    </rdf:RDF>
  </metadata>
  <g
     inkscape:label="Layer 1"
     inkscape:groupmode="layer"
     id="layer1"
     transform="translate(0,-796.3622)">
    <rect
       style="opacity:1;fill:#ff6600;fill-opacity:1;fill-rule:evenodd;stroke:none;stroke-width:3;stroke-linejoin:round;stroke-miterlimit:4;stroke-dasharray:none;stroke-dashoffset:0;stroke-opacity:1"
       id="rect4449"
       width="12"
       height="12"
       x="0"
       y="1028.3622" />
    <g
       id="g4413"
       clip-path="url(#clipPath4421)">
      <rect
         transform="scale(1,-1)"
         y="-1052.3622"
         x="0"
         height="12"
         width="256"
         id="rect4301"
         style="opacity:1;fill:#008000;fill-opacity:1;fill-rule:evenodd;stroke:none;stroke-width:3;stroke-linejoin:round;stroke-miterlimit:4;stroke-dasharray:none;stroke-dashoffset:0;stroke-opacity:1" />
      <rect
         transform="scale(1,-1)"
         y="-1058.3622"
         x="64"
         height="12"
         width="128"
         id="rect4341-1"
         style="opacity:1;fill:url(#linearGradient4345);fill-opacity:1;fill-rule:evenodd;stroke:none;stroke-width:3;stroke-linejoin:round;stroke-miterlimit:4;stroke-dasharray:none;stroke-dashoffset:0;stroke-opacity:1" />
      <rect
         style="opacity:1;fill:url(#radialGradient4331);fill-opacity:1;fill-rule:evenodd;stroke:none;stroke-width:3;stroke-linejoin:round;stroke-miterlimit:4;stroke-dasharray:none;stroke-dashoffset:0;stroke-opacity:1"
         id="rect4303"
         width="128"
         height="12"
         x="64"
         y="-1046.3622"
         transform="scale(1,-1)" />
      <rect
         style="opacity:1;fill:url(#linearGradient4323);fill-opacity:1;fill-rule:evenodd;stroke:none;stroke-width:3;stroke-linejoin:round;stroke-miterlimit:4;stroke-dasharray:none;stroke-dashoffset:0;stroke-opacity:1"
         id="rect4307"
         width="128"
         height="12"
         x="128"
         y="-1058.3622"
         transform="scale(1,-1)" />
      <rect
         transform="scale(1,-1)"
         y="-1058.3622"
         x="0"
         height="12"
         width="128"
         id="rect4305"
         style="opacity:1;fill:url(#linearGradient4315);fill-opacity:1;fill-rule:evenodd;stroke:none;stroke-width:3;stroke-linejoin:round;stroke-miterlimit:4;stroke-dasharray:none;stroke-dashoffset:0;stroke-opacity:1" />
      <rect
         transform="scale(-1,-1)"
         y="-1058.3622"
         x="-256"
         height="12"
         width="128"
         id="rect4341"
         style="opacity:1;fill:url(#linearGradient4407);fill-opacity:1;fill-rule:evenodd;stroke:none;stroke-width:3;stroke-linejoin:round;stroke-miterlimit:4;stroke-dasharray:none;stroke-dashoffset:0;stroke-opacity:1" />
    </g>
    <rect
       transform="matrix(0,1,1,0,0,0)"
       y="0"
       x="796.36218"
       height="1"
       width="256"
       id="rect4409"
       style="opacity:1;fill:#ffffff;fill-opacity:1;fill-rule:evenodd;stroke:none;stroke-width:3;stroke-linejoin:round;stroke-miterlimit:4;stroke-dasharray:none;stroke-dashoffset:0;stroke-opacity:1" />
    <rect
       y="1028.3622"
       x="12"
       height="12"
       width="12"
       id="rect4127"
       style="opacity:1;fill:url(#linearGradient4135);fill-opacity:1.0;fill-rule:evenodd;stroke:none;stroke-width:3;stroke-linejoin:round;stroke-miterlimit:4;stroke-dasharray:none;stroke-dashoffset:0;stroke-opacity:1" />
    <rect
       style="opacity:1;fill:#ffffff;fill-opacity:1;fill-rule:evenodd;stroke:none;stroke-width:3;stroke-linejoin:round;stroke-miterlimit:4;stroke-dasharray:none;stroke-dashoffset:0;stroke-opacity:1"
       id="rect4137"
       width="256"
       height="1"
       x="796.36218"
       y="20"
       transform="matrix(0,1,1,0,0,0)" />
  </g>
</svg>
