[16:51] --> You have joined the channel #2084vote (~sakasama@192.168.1.9).
[16:51] *** Channel modes: no messages from outside, topic protection
[16:51] *** This channel was created on 10/07/2014 16:53.
[16:51] --> moose_ has joined this channel (~moose@192.168.1.9).
[16:51] --> manetta has joined this channel (~relearn@192.168.1.9).
[16:51] <sakasama_> we need 5 verbs first
[16:51] --> sista has joined this channel (~ana@192.168.1.9).
[16:52] --> SF-Votebot-Verb has joined this channel (~SF-Votebo@192.168.1.9).
[16:54] <manetta> will be
[16:54] <manetta> question
[16:54] <manetta> connect
[16:54] <manetta> live
[16:54] <manetta> love
[16:54] <Demure> #vote which verbs
[16:54] <SF-Votebot-Verb> Demure calls for a vote...
[16:54] <SF-Votebot-Verb> Demure votes "which verbs"
[16:55] <manetta> become
[16:55] <manetta> talk
[16:55] <sista> #vote peep
[16:55] <SF-Votebot-Verb> sista votes "peep"
[16:55] <Demure> #vote connect
[16:55] <SF-Votebot-Verb> Demure changes vote to "connect"
[16:56] <manetta> trace
[16:56] <sista> #vote strip
[16:56] <SF-Votebot-Verb> sista changes vote to "strip"
[16:56] <manetta> speak
[16:56] <Demure> #vote trace
[16:56] <SF-Votebot-Verb> Demure changes vote to "trace"
[16:56] --> natacha has joined this channel (~natacha@192.168.1.10).
[16:56] <manetta> #vote #results
[16:56] <SF-Votebot-Verb> Here are the (current) results of the vote:
[16:56] <SF-Votebot-Verb> Out of 2 total votes
[16:56] <SF-Votebot-Verb>     1 votes for: 'strip'
[16:56] <SF-Votebot-Verb>     1 votes for: 'trace'
[16:56] <sista> #vote love
[16:56] <SF-Votebot-Verb> sista changes vote to "love"
[16:57] <sista> #vote nicefood
[16:57] <SF-Votebot-Verb> sista changes vote to "nicefood"
[16:57] <sakasama_> #vote connect
[16:57] <SF-Votebot-Verb> sakasama_ votes "connect"
[16:57] <sista> #vote sun
[16:57] <SF-Votebot-Verb> sista changes vote to "sun"
[16:57] <manetta> #vote love
[16:57] <SF-Votebot-Verb> manetta votes "love"
[16:57] <natacha> #vote sun
[16:57] <SF-Votebot-Verb> natacha votes "sun"
[16:57] <sista> #vote suntanning
[16:57] <SF-Votebot-Verb> sista changes vote to "suntanning"
[16:57] <sista> #vote swim
[16:57] <SF-Votebot-Verb> sista changes vote to "swim"
[16:57] <sista> #vote drawn
[16:57] <SF-Votebot-Verb> sista changes vote to "drawn"
[16:58] <sista> #vote connect
[16:58] <SF-Votebot-Verb> sista changes vote to "connect"
[16:58] <manetta> hug
[16:58] <moose_> #vote become
[16:58] <SF-Votebot-Verb> moose_ votes "become"
[16:58] <manetta> meet up
[16:58] <sista> #vote become
[16:58] <SF-Votebot-Verb> sista changes vote to "become"
[16:58] <manetta> #vote #results
[16:58] <SF-Votebot-Verb> Here are the (current) results of the vote:
[16:58] <SF-Votebot-Verb> Out of 6 total votes
[16:58] <SF-Votebot-Verb>     1 votes for: 'connect'
[16:58] <SF-Votebot-Verb>     1 votes for: 'love'
[16:58] <SF-Votebot-Verb>     1 votes for: 'sun'
[16:58] <SF-Votebot-Verb>     1 votes for: 'trace'
[16:58] <SF-Votebot-Verb>     2 votes for: 'become'
[16:58] <sista> #vote meet up
[16:58] <SF-Votebot-Verb> sista changes vote to "meet up"
[16:58] <sista> #vote love
[16:58] <SF-Votebot-Verb> sista changes vote to "love"
[16:58] <sista> #vote results
[16:58] <SF-Votebot-Verb> sista changes vote to "results"
[16:58] <natacha> #vote try
[16:58] <SF-Votebot-Verb> natacha changes vote to "try"
[16:58] <sista> #vote #results
[16:58] <SF-Votebot-Verb> Here are the (current) results of the vote:
[16:58] <SF-Votebot-Verb> Out of 6 total votes
[16:58] <SF-Votebot-Verb>     1 votes for: 'become'
[16:58] <SF-Votebot-Verb>     1 votes for: 'connect'
[16:58] <SF-Votebot-Verb>     1 votes for: 'love'
[16:58] <SF-Votebot-Verb>     1 votes for: 'results'
[16:58] <SF-Votebot-Verb>     1 votes for: 'trace'
[16:58] <SF-Votebot-Verb>     1 votes for: 'try'
[16:59] <sakasama_> #vote engage
[16:59] <SF-Votebot-Verb> sakasama_ changes vote to "engage"
[16:59] <sakasama_> #vote embrace
[16:59] <SF-Votebot-Verb> sakasama_ changes vote to "embrace"
[16:59] <manetta> #vote #results
[16:59] <SF-Votebot-Verb> Here are the (current) results of the vote:
[16:59] <SF-Votebot-Verb> Out of 6 total votes
[16:59] <SF-Votebot-Verb>     1 votes for: 'become'
[16:59] <SF-Votebot-Verb>     1 votes for: 'embrace'
[16:59] <SF-Votebot-Verb>     1 votes for: 'love'
[16:59] <SF-Votebot-Verb>     1 votes for: 'results'
[16:59] <SF-Votebot-Verb>     1 votes for: 'trace'
[16:59] <SF-Votebot-Verb>     1 votes for: 'try'
[16:59] <sakasama_> #vote connect
[16:59] <SF-Votebot-Verb> sakasama_ changes vote to "connect"
[17:00] <manetta> #vote #results
[17:00] <SF-Votebot-Verb> Here are the (current) results of the vote:
[17:00] <SF-Votebot-Verb> Out of 6 total votes
[17:00] <SF-Votebot-Verb>     1 votes for: 'become'
[17:00] <SF-Votebot-Verb>     1 votes for: 'connect'
[17:00] <SF-Votebot-Verb>     1 votes for: 'love'
[17:00] <SF-Votebot-Verb>     1 votes for: 'results'
[17:00] <SF-Votebot-Verb>     1 votes for: 'trace'
[17:00] *** natacha is now known as here_net.
[17:00] <SF-Votebot-Verb>     1 votes for: 'try'
[17:00] *** Demure is now known as temp.
[17:00] <here_net> #vote zip
[17:00] <SF-Votebot-Verb> here_net votes "zip"
[17:00] <manetta> #vote #results
[17:00] <SF-Votebot-Verb> Here are the (current) results of the vote:
[17:00] <SF-Votebot-Verb> Out of 7 total votes
[17:00] <SF-Votebot-Verb>     1 votes for: 'become'
[17:00] <SF-Votebot-Verb>     1 votes for: 'connect'
[17:00] <SF-Votebot-Verb>     1 votes for: 'love'
[17:00] <SF-Votebot-Verb>     1 votes for: 'results'
[17:00] <SF-Votebot-Verb>     1 votes for: 'trace'
[17:00] <SF-Votebot-Verb>     1 votes for: 'try'
[17:00] <SF-Votebot-Verb>     1 votes for: 'zip'
[17:00] <temp> #vote personalizee
[17:00] <SF-Votebot-Verb> temp votes "personalizee"
[17:00] <temp> #vote personalize
[17:00] <SF-Votebot-Verb> temp changes vote to "personalize"
[17:00] *** here_net is now known as there_now.
[17:00] <there_now> #vote flip
[17:00] <SF-Votebot-Verb> there_now votes "flip"
[17:00] <manetta> meet up
[17:01] <manetta> #vote #results
[17:01] <SF-Votebot-Verb> Here are the (current) results of the vote:
[17:01] <SF-Votebot-Verb> Out of 9 total votes
[17:01] <SF-Votebot-Verb>     1 votes for: 'become'
[17:01] <SF-Votebot-Verb>     1 votes for: 'connect'
[17:01] <SF-Votebot-Verb>     1 votes for: 'flip'
[17:01] <SF-Votebot-Verb>     1 votes for: 'love'
[17:01] <SF-Votebot-Verb>     1 votes for: 'personalize'
[17:01] <SF-Votebot-Verb>     1 votes for: 'results'
[17:01] <SF-Votebot-Verb>     1 votes for: 'trace'
[17:01] <SF-Votebot-Verb>     1 votes for: 'try'
[17:01] <SF-Votebot-Verb>     1 votes for: 'zip'
[17:01] <there_now> #vote try
[17:01] <SF-Votebot-Verb> there_now changes vote to "try"
[17:01] *** You are now known as s.
[17:01] *** there_now is now known as natacha_.
[17:01] <moose_> #vote empower
[17:01] <SF-Votebot-Verb> moose_ changes vote to "empower"
[17:01] <natacha_> #vote personnalize
[17:01] <SF-Votebot-Verb> natacha_ votes "personnalize"
[17:02] *** moose_ is now known as moose.
[17:02] <manetta> #vote #results
[17:02] <SF-Votebot-Verb> Here are the (current) results of the vote:
[17:02] <SF-Votebot-Verb> Out of 10 total votes
[17:02] <SF-Votebot-Verb>     1 votes for: 'connect'
[17:02] <SF-Votebot-Verb>     1 votes for: 'empower'
[17:02] <SF-Votebot-Verb>     1 votes for: 'love'
[17:02] <SF-Votebot-Verb>     1 votes for: 'personalize'
[17:02] <SF-Votebot-Verb>     1 votes for: 'personnalize'
[17:02] <natacha_> #vote personalize
[17:02] <SF-Votebot-Verb>     1 votes for: 'results'
[17:02] <SF-Votebot-Verb>     1 votes for: 'trace'
[17:02] <SF-Votebot-Verb>     1 votes for: 'zip'
[17:02] <SF-Votebot-Verb>     2 votes for: 'try'
[17:02] *** temp is now known as Demure.
[17:02] <SF-Votebot-Verb> natacha_ changes vote to "personalize"
[17:02] <manetta> #vote #results
[17:02] <SF-Votebot-Verb> Here are the (current) results of the vote:
[17:02] <SF-Votebot-Verb> Out of 10 total votes
[17:02] <SF-Votebot-Verb>     1 votes for: 'connect'
[17:02] <SF-Votebot-Verb>     1 votes for: 'empower'
[17:02] <SF-Votebot-Verb>     1 votes for: 'love'
[17:02] <SF-Votebot-Verb>     1 votes for: 'results'
[17:02] <SF-Votebot-Verb>     1 votes for: 'trace'
[17:02] <SF-Votebot-Verb>     1 votes for: 'zip'
[17:02] <SF-Votebot-Verb>     2 votes for: 'personalize'
[17:02] <SF-Votebot-Verb>     2 votes for: 'try'
[17:04] *** moose is now known as holy_handgranad.
