<?xml version="1.0" encoding="UTF-8" standalone="no"?>
<!-- Created with Inkscape (http://www.inkscape.org/) -->

<svg
   xmlns:dc="http://purl.org/dc/elements/1.1/"
   xmlns:cc="http://creativecommons.org/ns#"
   xmlns:rdf="http://www.w3.org/1999/02/22-rdf-syntax-ns#"
   xmlns:svg="http://www.w3.org/2000/svg"
   xmlns="http://www.w3.org/2000/svg"
   xmlns:xlink="http://www.w3.org/1999/xlink"
   xmlns:sodipodi="http://sodipodi.sourceforge.net/DTD/sodipodi-0.dtd"
   xmlns:inkscape="http://www.inkscape.org/namespaces/inkscape"
   width="256"
   height="256"
   id="svg2"
   version="1.1"
   inkscape:version="0.48+devel r"
   viewBox="0 0 256 256"
   sodipodi:docname="bass.svg"
   inkscape:export-filename="/home/hellocatfood/Desktop/bass.png"
   inkscape:export-xdpi="90"
   inkscape:export-ydpi="90">
  <defs
     id="defs4">
    <linearGradient
       inkscape:collect="always"
       id="linearGradient9163">
      <stop
         id="stop9165"
         offset="0"
         style="stop-color:#000000;stop-opacity:1" />
      <stop
         style="stop-color:#d35400;stop-opacity:1;"
         offset="0.16872372"
         id="stop9169" />
      <stop
         style="stop-color:#000000;stop-opacity:1"
         offset="1"
         id="stop9167" />
    </linearGradient>
    <linearGradient
       inkscape:collect="always"
       id="linearGradient9015">
      <stop
         id="stop9017"
         offset="0"
         style="stop-color:#992159;stop-opacity:1" />
      <stop
         style="stop-color:#430000;stop-opacity:1;"
         offset="0.5"
         id="stop9019" />
      <stop
         style="stop-color:#000000;stop-opacity:1"
         offset="1"
         id="stop9021" />
    </linearGradient>
    <linearGradient
       inkscape:collect="always"
       xlink:href="#linearGradient9015"
       id="linearGradient9023"
       gradientUnits="userSpaceOnUse"
       gradientTransform="matrix(0.0995229,0,0,0.79618323,-5.374039,292.65701)"
       x1="53.998016"
       y1="793.41681"
       x2="234.40562"
       y2="793.41681" />
    <linearGradient
       inkscape:collect="always"
       xlink:href="#linearGradient9163"
       id="linearGradient9161"
       gradientUnits="userSpaceOnUse"
       gradientTransform="matrix(0.0995229,0,0,0.0995229,-5.374039,925.39906)"
       x1="53.998016"
       y1="793.41681"
       x2="234.40562"
       y2="793.41681" />
    <linearGradient
       inkscape:collect="always"
       xlink:href="#linearGradient9163"
       id="linearGradient9198"
       gradientUnits="userSpaceOnUse"
       gradientTransform="matrix(0.04976145,0,0,0.0995229,29.312981,925.39906)"
       x1="53.998016"
       y1="793.41681"
       x2="234.40562"
       y2="793.41681" />
    <linearGradient
       inkscape:collect="always"
       xlink:href="#linearGradient9163"
       id="linearGradient9202"
       gradientUnits="userSpaceOnUse"
       gradientTransform="matrix(0.04976145,0,0,0.0995229,45.312981,925.39906)"
       x1="53.998016"
       y1="793.41681"
       x2="234.40562"
       y2="793.41681" />
    <linearGradient
       inkscape:collect="always"
       xlink:href="#linearGradient9163"
       id="linearGradient9214"
       gradientUnits="userSpaceOnUse"
       gradientTransform="matrix(0.04976145,0,0,0.0995229,29.312981,925.39906)"
       x1="53.998016"
       y1="793.41681"
       x2="234.40562"
       y2="793.41681" />
    <linearGradient
       inkscape:collect="always"
       xlink:href="#linearGradient9163"
       id="linearGradient9216"
       gradientUnits="userSpaceOnUse"
       gradientTransform="matrix(0.04976145,0,0,0.0995229,45.312981,925.39906)"
       x1="53.998016"
       y1="793.41681"
       x2="234.40562"
       y2="793.41681" />
    <linearGradient
       inkscape:collect="always"
       xlink:href="#linearGradient9163"
       id="linearGradient9224"
       gradientUnits="userSpaceOnUse"
       gradientTransform="matrix(0.04976145,0,0,0.0995229,29.312981,925.39906)"
       x1="53.998016"
       y1="793.41681"
       x2="234.40562"
       y2="793.41681" />
    <linearGradient
       inkscape:collect="always"
       xlink:href="#linearGradient9163"
       id="linearGradient9226"
       gradientUnits="userSpaceOnUse"
       gradientTransform="matrix(0.04976145,0,0,0.0995229,45.312981,925.39906)"
       x1="53.998016"
       y1="793.41681"
       x2="234.40562"
       y2="793.41681" />
    <linearGradient
       inkscape:collect="always"
       xlink:href="#linearGradient9163"
       id="linearGradient9234"
       gradientUnits="userSpaceOnUse"
       gradientTransform="matrix(0.04976145,0,0,0.0995229,29.312981,925.39906)"
       x1="53.998016"
       y1="793.41681"
       x2="234.40562"
       y2="793.41681" />
    <linearGradient
       inkscape:collect="always"
       xlink:href="#linearGradient9163"
       id="linearGradient9236"
       gradientUnits="userSpaceOnUse"
       gradientTransform="matrix(0.04976145,0,0,0.0995229,45.312981,925.39906)"
       x1="53.998016"
       y1="793.41681"
       x2="234.40562"
       y2="793.41681" />
    <linearGradient
       inkscape:collect="always"
       xlink:href="#linearGradient9163"
       id="linearGradient9262"
       gradientUnits="userSpaceOnUse"
       gradientTransform="matrix(0.04976145,0,0,0.0995229,29.312981,925.39906)"
       x1="53.998016"
       y1="793.41681"
       x2="234.40562"
       y2="793.41681" />
    <linearGradient
       inkscape:collect="always"
       xlink:href="#linearGradient9163"
       id="linearGradient9264"
       gradientUnits="userSpaceOnUse"
       gradientTransform="matrix(0.04976145,0,0,0.0995229,45.312981,925.39906)"
       x1="53.998016"
       y1="793.41681"
       x2="234.40562"
       y2="793.41681" />
    <linearGradient
       inkscape:collect="always"
       xlink:href="#linearGradient9163"
       id="linearGradient9266"
       gradientUnits="userSpaceOnUse"
       gradientTransform="matrix(0.04976145,0,0,0.0995229,29.312981,925.39906)"
       x1="53.998016"
       y1="793.41681"
       x2="234.40562"
       y2="793.41681" />
    <linearGradient
       inkscape:collect="always"
       xlink:href="#linearGradient9163"
       id="linearGradient9268"
       gradientUnits="userSpaceOnUse"
       gradientTransform="matrix(0.04976145,0,0,0.0995229,45.312981,925.39906)"
       x1="53.998016"
       y1="793.41681"
       x2="234.40562"
       y2="793.41681" />
    <linearGradient
       inkscape:collect="always"
       xlink:href="#linearGradient9163"
       id="linearGradient9270"
       gradientUnits="userSpaceOnUse"
       gradientTransform="matrix(0.04976145,0,0,0.0995229,29.312981,925.39906)"
       x1="53.998016"
       y1="793.41681"
       x2="234.40562"
       y2="793.41681" />
    <linearGradient
       inkscape:collect="always"
       xlink:href="#linearGradient9163"
       id="linearGradient9272"
       gradientUnits="userSpaceOnUse"
       gradientTransform="matrix(0.04976145,0,0,0.0995229,45.312981,925.39906)"
       x1="53.998016"
       y1="793.41681"
       x2="234.40562"
       y2="793.41681" />
    <linearGradient
       inkscape:collect="always"
       xlink:href="#linearGradient9163"
       id="linearGradient9274"
       gradientUnits="userSpaceOnUse"
       gradientTransform="matrix(0.04976145,0,0,0.0995229,29.312981,925.39906)"
       x1="53.998016"
       y1="793.41681"
       x2="234.40562"
       y2="793.41681" />
    <linearGradient
       inkscape:collect="always"
       xlink:href="#linearGradient9163"
       id="linearGradient9276"
       gradientUnits="userSpaceOnUse"
       gradientTransform="matrix(0.04976145,0,0,0.0995229,45.312981,925.39906)"
       x1="53.998016"
       y1="793.41681"
       x2="234.40562"
       y2="793.41681" />
    <linearGradient
       inkscape:collect="always"
       xlink:href="#linearGradient9163"
       id="linearGradient9302"
       gradientUnits="userSpaceOnUse"
       gradientTransform="matrix(0.04976145,0,0,0.0995229,29.312981,925.39906)"
       x1="53.998016"
       y1="793.41681"
       x2="234.40562"
       y2="793.41681" />
    <linearGradient
       inkscape:collect="always"
       xlink:href="#linearGradient9163"
       id="linearGradient9304"
       gradientUnits="userSpaceOnUse"
       gradientTransform="matrix(0.04976145,0,0,0.0995229,45.312981,925.39906)"
       x1="53.998016"
       y1="793.41681"
       x2="234.40562"
       y2="793.41681" />
    <linearGradient
       inkscape:collect="always"
       xlink:href="#linearGradient9163"
       id="linearGradient9306"
       gradientUnits="userSpaceOnUse"
       gradientTransform="matrix(0.04976145,0,0,0.0995229,29.312981,925.39906)"
       x1="53.998016"
       y1="793.41681"
       x2="234.40562"
       y2="793.41681" />
    <linearGradient
       inkscape:collect="always"
       xlink:href="#linearGradient9163"
       id="linearGradient9308"
       gradientUnits="userSpaceOnUse"
       gradientTransform="matrix(0.04976145,0,0,0.0995229,45.312981,925.39906)"
       x1="53.998016"
       y1="793.41681"
       x2="234.40562"
       y2="793.41681" />
    <linearGradient
       inkscape:collect="always"
       xlink:href="#linearGradient9163"
       id="linearGradient9310"
       gradientUnits="userSpaceOnUse"
       gradientTransform="matrix(0.04976145,0,0,0.0995229,29.312981,925.39906)"
       x1="53.998016"
       y1="793.41681"
       x2="234.40562"
       y2="793.41681" />
    <linearGradient
       inkscape:collect="always"
       xlink:href="#linearGradient9163"
       id="linearGradient9312"
       gradientUnits="userSpaceOnUse"
       gradientTransform="matrix(0.04976145,0,0,0.0995229,45.312981,925.39906)"
       x1="53.998016"
       y1="793.41681"
       x2="234.40562"
       y2="793.41681" />
    <linearGradient
       inkscape:collect="always"
       xlink:href="#linearGradient9163"
       id="linearGradient9314"
       gradientUnits="userSpaceOnUse"
       gradientTransform="matrix(0.04976145,0,0,0.0995229,29.312981,925.39906)"
       x1="53.998016"
       y1="793.41681"
       x2="234.40562"
       y2="793.41681" />
    <linearGradient
       inkscape:collect="always"
       xlink:href="#linearGradient9163"
       id="linearGradient9316"
       gradientUnits="userSpaceOnUse"
       gradientTransform="matrix(0.04976145,0,0,0.0995229,45.312981,925.39906)"
       x1="53.998016"
       y1="793.41681"
       x2="234.40562"
       y2="793.41681" />
    <linearGradient
       inkscape:collect="always"
       xlink:href="#linearGradient9163"
       id="linearGradient9342"
       gradientUnits="userSpaceOnUse"
       gradientTransform="matrix(0.04976145,0,0,0.0995229,29.312981,925.39906)"
       x1="53.998016"
       y1="793.41681"
       x2="234.40562"
       y2="793.41681" />
    <linearGradient
       inkscape:collect="always"
       xlink:href="#linearGradient9163"
       id="linearGradient9344"
       gradientUnits="userSpaceOnUse"
       gradientTransform="matrix(0.04976145,0,0,0.0995229,45.312981,925.39906)"
       x1="53.998016"
       y1="793.41681"
       x2="234.40562"
       y2="793.41681" />
    <linearGradient
       inkscape:collect="always"
       xlink:href="#linearGradient9163"
       id="linearGradient9346"
       gradientUnits="userSpaceOnUse"
       gradientTransform="matrix(0.04976145,0,0,0.0995229,29.312981,925.39906)"
       x1="53.998016"
       y1="793.41681"
       x2="234.40562"
       y2="793.41681" />
    <linearGradient
       inkscape:collect="always"
       xlink:href="#linearGradient9163"
       id="linearGradient9348"
       gradientUnits="userSpaceOnUse"
       gradientTransform="matrix(0.04976145,0,0,0.0995229,45.312981,925.39906)"
       x1="53.998016"
       y1="793.41681"
       x2="234.40562"
       y2="793.41681" />
    <linearGradient
       inkscape:collect="always"
       xlink:href="#linearGradient9163"
       id="linearGradient9350"
       gradientUnits="userSpaceOnUse"
       gradientTransform="matrix(0.04976145,0,0,0.0995229,29.312981,925.39906)"
       x1="53.998016"
       y1="793.41681"
       x2="234.40562"
       y2="793.41681" />
    <linearGradient
       inkscape:collect="always"
       xlink:href="#linearGradient9163"
       id="linearGradient9352"
       gradientUnits="userSpaceOnUse"
       gradientTransform="matrix(0.04976145,0,0,0.0995229,45.312981,925.39906)"
       x1="53.998016"
       y1="793.41681"
       x2="234.40562"
       y2="793.41681" />
    <linearGradient
       inkscape:collect="always"
       xlink:href="#linearGradient9163"
       id="linearGradient9354"
       gradientUnits="userSpaceOnUse"
       gradientTransform="matrix(0.04976145,0,0,0.0995229,29.312981,925.39906)"
       x1="53.998016"
       y1="793.41681"
       x2="234.40562"
       y2="793.41681" />
    <linearGradient
       inkscape:collect="always"
       xlink:href="#linearGradient9163"
       id="linearGradient9356"
       gradientUnits="userSpaceOnUse"
       gradientTransform="matrix(0.04976145,0,0,0.0995229,45.312981,925.39906)"
       x1="53.998016"
       y1="793.41681"
       x2="234.40562"
       y2="793.41681" />
  </defs>
  <sodipodi:namedview
     id="base"
     pagecolor="#ffffff"
     bordercolor="#666666"
     borderopacity="1.0"
     inkscape:pageopacity="0.0"
     inkscape:pageshadow="2"
     inkscape:zoom="3.6311038"
     inkscape:cx="110.08428"
     inkscape:cy="191.46992"
     inkscape:document-units="px"
     inkscape:current-layer="layer1"
     showgrid="false"
     inkscape:snap-bbox="true"
     inkscape:bbox-paths="true"
     inkscape:bbox-nodes="true"
     inkscape:snap-bbox-edge-midpoints="true"
     inkscape:object-paths="true"
     inkscape:snap-page="true"
     inkscape:snap-bbox-midpoints="true"
     inkscape:window-width="1863"
     inkscape:window-height="1056"
     inkscape:window-x="57"
     inkscape:window-y="24"
     inkscape:window-maximized="1" />
  <metadata
     id="metadata7">
    <rdf:RDF>
      <cc:Work
         rdf:about="">
        <dc:format>image/svg+xml</dc:format>
        <dc:type
           rdf:resource="http://purl.org/dc/dcmitype/StillImage" />
        <dc:title></dc:title>
      </cc:Work>
    </rdf:RDF>
  </metadata>
  <g
     inkscape:label="Layer 1"
     inkscape:groupmode="layer"
     id="layer1"
     transform="translate(0,-796.3622)">
    <use
       height="100%"
       width="100%"
       style="fill:#2700a2;stroke:#2700a2"
       id="use9374"
       transform="matrix(0.25,0,0,1,168,0)"
       xlink:href="#rect8442"
       inkscape:tiled-clone-of="#rect8442"
       y="0"
       x="0" />
    <use
       height="100%"
       width="100%"
       style="fill:#2700a2;stroke:#2700a2"
       id="use9372"
       transform="matrix(0.25,0,0,1,40,0)"
       xlink:href="#rect8442"
       inkscape:tiled-clone-of="#rect8442"
       y="0"
       x="0" />
    <use
       x="0"
       y="0"
       inkscape:tiled-clone-of="#rect8442"
       xlink:href="#rect8442"
       transform="matrix(0.5,0,0,1,240,3.4765625e-5)"
       id="use9368"
       style="fill:#2700a2;stroke:#2700a2"
       width="100%"
       height="100%" />
    <use
       height="100%"
       width="100%"
       style="fill:#2700a2;stroke:#2700a2"
       id="use9370"
       transform="matrix(0.5,0,0,1,224,3.4765625e-5)"
       xlink:href="#rect8442"
       inkscape:tiled-clone-of="#rect8442"
       y="0"
       x="0" />
    <use
       height="100%"
       width="100%"
       style="fill:#2700a2;stroke:#2700a2"
       id="use9364"
       transform="matrix(0.5,0,0,1,176,0)"
       xlink:href="#rect8442"
       inkscape:tiled-clone-of="#rect8442"
       y="0"
       x="0" />
    <use
       x="0"
       y="0"
       inkscape:tiled-clone-of="#rect8442"
       xlink:href="#rect8442"
       transform="matrix(0.25,0,0,1,160,0)"
       id="use9366"
       style="fill:#2700a2;stroke:#2700a2"
       width="100%"
       height="100%" />
    <use
       x="0"
       y="0"
       inkscape:tiled-clone-of="#rect8442"
       xlink:href="#rect8442"
       transform="matrix(0.5,0,0,1,112,0)"
       id="use9360"
       style="fill:#2700a2;stroke:#2700a2"
       width="100%"
       height="100%" />
    <use
       height="100%"
       width="100%"
       style="fill:#2700a2;stroke:#2700a2"
       id="use9362"
       transform="matrix(0.5,0,0,1,96,0)"
       xlink:href="#rect8442"
       inkscape:tiled-clone-of="#rect8442"
       y="0"
       x="0" />
    <use
       height="100%"
       width="100%"
       style="fill:#2700a2;stroke:#2700a2"
       id="use9358"
       transform="matrix(0.5,0,0,1,48,0)"
       xlink:href="#rect8442"
       inkscape:tiled-clone-of="#rect8442"
       y="0"
       x="0" />
    <rect
       style="opacity:1;fill:url(#linearGradient9023);fill-opacity:1;fill-rule:evenodd;stroke:none;stroke-width:3;stroke-linejoin:round;stroke-miterlimit:4;stroke-dasharray:none;stroke-dashoffset:0;stroke-opacity:1"
       id="rect8442"
       width="32"
       height="256"
       x="0"
       y="796.36218"
       inkscape:tile-cx="16"
       inkscape:tile-cy="127.99998"
       inkscape:tile-w="32"
       inkscape:tile-h="256"
       inkscape:tile-x0="0"
       inkscape:tile-y0="-1.7382813e-05" />
    <use
       x="0"
       y="0"
       inkscape:tiled-clone-of="#rect8442"
       xlink:href="#rect8442"
       transform="matrix(0.25,0,0,1,32,0)"
       id="use8497"
       style="fill:#2700a2;stroke:#2700a2"
       width="100%"
       height="100%" />
    <use
       x="0"
       y="0"
       inkscape:tiled-clone-of="#rect8442"
       xlink:href="#rect8442"
       transform="translate(64,0)"
       fill="#2700a2"
       stroke="#2700a2"
       id="use8499" />
    <use
       x="0"
       y="0"
       inkscape:tiled-clone-of="#rect8442"
       xlink:href="#rect8442"
       transform="translate(128,0)"
       fill="#2700a2"
       stroke="#2700a2"
       id="use8503" />
    <use
       x="0"
       y="0"
       inkscape:tiled-clone-of="#rect8442"
       xlink:href="#rect8442"
       transform="translate(192,0)"
       fill="#2700a2"
       stroke="#2700a2"
       id="use8507" />
    <rect
       inkscape:tile-y0="-1.7382813e-05"
       inkscape:tile-x0="0"
       inkscape:tile-h="256"
       inkscape:tile-w="32"
       inkscape:tile-cy="127.99998"
       inkscape:tile-cx="16"
       y="988.36218"
       x="0"
       height="32"
       width="32"
       id="rect9029"
       style="opacity:1;fill:url(#linearGradient9161);fill-opacity:1;fill-rule:evenodd;stroke:none;stroke-width:3;stroke-linejoin:round;stroke-miterlimit:4;stroke-dasharray:none;stroke-dashoffset:0;stroke-opacity:1" />
    <use
       x="0"
       y="0"
       inkscape:tiled-clone-of="#rect9029"
       xlink:href="#rect9029"
       transform="translate(64,0)"
       id="use9049"
       style="fill:#2700a2;stroke:#2700a2"
       width="100%"
       height="100%" />
    <use
       x="0"
       y="0"
       inkscape:tiled-clone-of="#rect9029"
       xlink:href="#rect9029"
       transform="translate(128,0)"
       id="use9053"
       style="fill:#2700a2;stroke:#2700a2"
       width="100%"
       height="100%" />
    <use
       x="0"
       y="0"
       inkscape:tiled-clone-of="#rect9029"
       xlink:href="#rect9029"
       transform="translate(192,0)"
       id="use9057"
       style="fill:#2700a2;stroke:#2700a2"
       width="100%"
       height="100%" />
    <use
       height="100%"
       width="100%"
       style="fill:#2700a2;stroke:#2700a2"
       id="use9077"
       transform="translate(64,-65.999983)"
       xlink:href="#rect9029"
       inkscape:tiled-clone-of="#rect9029"
       y="0"
       x="0" />
    <use
       height="100%"
       width="100%"
       style="fill:#2700a2;stroke:#2700a2"
       id="use9081"
       transform="translate(128,-65.999983)"
       xlink:href="#rect9029"
       inkscape:tiled-clone-of="#rect9029"
       y="0"
       x="0" />
    <use
       height="100%"
       width="100%"
       style="fill:#2700a2;stroke:#2700a2"
       id="use9085"
       transform="translate(192,-65.999983)"
       xlink:href="#rect9029"
       inkscape:tiled-clone-of="#rect9029"
       y="0"
       x="0" />
    <use
       x="0"
       y="0"
       inkscape:tiled-clone-of="#rect9029"
       xlink:href="#rect9029"
       transform="translate(64,-131.99998)"
       id="use9097"
       style="fill:#2700a2;stroke:#2700a2"
       width="100%"
       height="100%" />
    <use
       x="0"
       y="0"
       inkscape:tiled-clone-of="#rect9029"
       xlink:href="#rect9029"
       transform="translate(128,-131.99998)"
       id="use9101"
       style="fill:#2700a2;stroke:#2700a2"
       width="100%"
       height="100%" />
    <use
       x="0"
       y="0"
       inkscape:tiled-clone-of="#rect9029"
       xlink:href="#rect9029"
       transform="translate(192,-131.99998)"
       id="use9105"
       style="fill:#2700a2;stroke:#2700a2"
       width="100%"
       height="100%" />
    <use
       height="100%"
       width="100%"
       style="fill:#2700a2;stroke:#2700a2"
       id="use9119"
       transform="translate(64,-191.99998)"
       xlink:href="#rect9029"
       inkscape:tiled-clone-of="#rect9029"
       y="0"
       x="0" />
    <use
       height="100%"
       width="100%"
       style="fill:#2700a2;stroke:#2700a2"
       id="use9123"
       transform="translate(128,-191.99998)"
       xlink:href="#rect9029"
       inkscape:tiled-clone-of="#rect9029"
       y="0"
       x="0" />
    <use
       height="100%"
       width="100%"
       style="fill:#2700a2;stroke:#2700a2"
       id="use9127"
       transform="translate(192,-191.99998)"
       xlink:href="#rect9029"
       inkscape:tiled-clone-of="#rect9029"
       y="0"
       x="0" />
    <use
       x="0"
       y="0"
       inkscape:tiled-clone-of="#rect9029"
       xlink:href="#rect9029"
       transform="translate(0,-191.99998)"
       id="use9179"
       style="fill:#2700a2;stroke:#2700a2"
       width="100%"
       height="100%" />
    <use
       height="100%"
       width="100%"
       style="fill:#2700a2;stroke:#2700a2"
       id="use9188"
       transform="translate(0,-131.99998)"
       xlink:href="#rect9029"
       inkscape:tiled-clone-of="#rect9029"
       y="0"
       x="0" />
    <use
       x="0"
       y="0"
       inkscape:tiled-clone-of="#rect9029"
       xlink:href="#rect9029"
       transform="translate(0,-65.999983)"
       id="use9190"
       style="fill:#2700a2;stroke:#2700a2"
       width="100%"
       height="100%" />
    <rect
       style="opacity:1;fill:url(#linearGradient9161);fill-opacity:1;fill-rule:evenodd;stroke:none;stroke-width:3;stroke-linejoin:round;stroke-miterlimit:4;stroke-dasharray:none;stroke-dashoffset:0;stroke-opacity:1"
       id="rect9192"
       width="32"
       height="32"
       x="0"
       y="988.36218"
       inkscape:tile-cx="16"
       inkscape:tile-cy="127.99998"
       inkscape:tile-w="32"
       inkscape:tile-h="256"
       inkscape:tile-x0="0"
       inkscape:tile-y0="-1.7382813e-05" />
    <g
       id="g9204">
      <rect
         style="opacity:1;fill:url(#linearGradient9198);fill-opacity:1;fill-rule:evenodd;stroke:none;stroke-width:3;stroke-linejoin:round;stroke-miterlimit:4;stroke-dasharray:none;stroke-dashoffset:0;stroke-opacity:1"
         id="rect9196"
         width="16"
         height="32"
         x="32"
         y="988.36218"
         inkscape:tile-cx="16"
         inkscape:tile-cy="127.99998"
         inkscape:tile-w="32"
         inkscape:tile-h="256"
         inkscape:tile-x0="0"
         inkscape:tile-y0="-1.7382813e-05" />
      <rect
         inkscape:tile-y0="-1.7382813e-05"
         inkscape:tile-x0="0"
         inkscape:tile-h="256"
         inkscape:tile-w="32"
         inkscape:tile-cy="127.99998"
         inkscape:tile-cx="16"
         y="988.36218"
         x="48"
         height="32"
         width="16"
         id="rect9200"
         style="opacity:1;fill:url(#linearGradient9202);fill-opacity:1;fill-rule:evenodd;stroke:none;stroke-width:3;stroke-linejoin:round;stroke-miterlimit:4;stroke-dasharray:none;stroke-dashoffset:0;stroke-opacity:1" />
    </g>
    <g
       id="g9208"
       transform="translate(64,0)">
      <rect
         inkscape:tile-y0="-1.7382813e-05"
         inkscape:tile-x0="0"
         inkscape:tile-h="256"
         inkscape:tile-w="32"
         inkscape:tile-cy="127.99998"
         inkscape:tile-cx="16"
         y="988.36218"
         x="32"
         height="32"
         width="16"
         id="rect9210"
         style="opacity:1;fill:url(#linearGradient9214);fill-opacity:1;fill-rule:evenodd;stroke:none;stroke-width:3;stroke-linejoin:round;stroke-miterlimit:4;stroke-dasharray:none;stroke-dashoffset:0;stroke-opacity:1" />
      <rect
         style="opacity:1;fill:url(#linearGradient9216);fill-opacity:1;fill-rule:evenodd;stroke:none;stroke-width:3;stroke-linejoin:round;stroke-miterlimit:4;stroke-dasharray:none;stroke-dashoffset:0;stroke-opacity:1"
         id="rect9212"
         width="16"
         height="32"
         x="48"
         y="988.36218"
         inkscape:tile-cx="16"
         inkscape:tile-cy="127.99998"
         inkscape:tile-w="32"
         inkscape:tile-h="256"
         inkscape:tile-x0="0"
         inkscape:tile-y0="-1.7382813e-05" />
    </g>
    <g
       transform="translate(128,0)"
       id="g9218">
      <rect
         style="opacity:1;fill:url(#linearGradient9224);fill-opacity:1;fill-rule:evenodd;stroke:none;stroke-width:3;stroke-linejoin:round;stroke-miterlimit:4;stroke-dasharray:none;stroke-dashoffset:0;stroke-opacity:1"
         id="rect9220"
         width="16"
         height="32"
         x="32"
         y="988.36218"
         inkscape:tile-cx="16"
         inkscape:tile-cy="127.99998"
         inkscape:tile-w="32"
         inkscape:tile-h="256"
         inkscape:tile-x0="0"
         inkscape:tile-y0="-1.7382813e-05" />
      <rect
         inkscape:tile-y0="-1.7382813e-05"
         inkscape:tile-x0="0"
         inkscape:tile-h="256"
         inkscape:tile-w="32"
         inkscape:tile-cy="127.99998"
         inkscape:tile-cx="16"
         y="988.36218"
         x="48"
         height="32"
         width="16"
         id="rect9222"
         style="opacity:1;fill:url(#linearGradient9226);fill-opacity:1;fill-rule:evenodd;stroke:none;stroke-width:3;stroke-linejoin:round;stroke-miterlimit:4;stroke-dasharray:none;stroke-dashoffset:0;stroke-opacity:1" />
    </g>
    <g
       id="g9228"
       transform="translate(192,0)">
      <rect
         inkscape:tile-y0="-1.7382813e-05"
         inkscape:tile-x0="0"
         inkscape:tile-h="256"
         inkscape:tile-w="32"
         inkscape:tile-cy="127.99998"
         inkscape:tile-cx="16"
         y="988.36218"
         x="32"
         height="32"
         width="16"
         id="rect9230"
         style="opacity:1;fill:url(#linearGradient9234);fill-opacity:1;fill-rule:evenodd;stroke:none;stroke-width:3;stroke-linejoin:round;stroke-miterlimit:4;stroke-dasharray:none;stroke-dashoffset:0;stroke-opacity:1" />
      <rect
         style="opacity:1;fill:url(#linearGradient9236);fill-opacity:1;fill-rule:evenodd;stroke:none;stroke-width:3;stroke-linejoin:round;stroke-miterlimit:4;stroke-dasharray:none;stroke-dashoffset:0;stroke-opacity:1"
         id="rect9232"
         width="16"
         height="32"
         x="48"
         y="988.36218"
         inkscape:tile-cx="16"
         inkscape:tile-cy="127.99998"
         inkscape:tile-w="32"
         inkscape:tile-h="256"
         inkscape:tile-x0="0"
         inkscape:tile-y0="-1.7382813e-05" />
    </g>
    <g
       id="g9238"
       transform="translate(0,-65.999983)">
      <rect
         inkscape:tile-y0="-1.7382813e-05"
         inkscape:tile-x0="0"
         inkscape:tile-h="256"
         inkscape:tile-w="32"
         inkscape:tile-cy="127.99998"
         inkscape:tile-cx="16"
         y="988.36218"
         x="32"
         height="32"
         width="16"
         id="rect9240"
         style="opacity:1;fill:url(#linearGradient9262);fill-opacity:1;fill-rule:evenodd;stroke:none;stroke-width:3;stroke-linejoin:round;stroke-miterlimit:4;stroke-dasharray:none;stroke-dashoffset:0;stroke-opacity:1" />
      <rect
         style="opacity:1;fill:url(#linearGradient9264);fill-opacity:1;fill-rule:evenodd;stroke:none;stroke-width:3;stroke-linejoin:round;stroke-miterlimit:4;stroke-dasharray:none;stroke-dashoffset:0;stroke-opacity:1"
         id="rect9242"
         width="16"
         height="32"
         x="48"
         y="988.36218"
         inkscape:tile-cx="16"
         inkscape:tile-cy="127.99998"
         inkscape:tile-w="32"
         inkscape:tile-h="256"
         inkscape:tile-x0="0"
         inkscape:tile-y0="-1.7382813e-05" />
    </g>
    <g
       transform="translate(64,-65.999983)"
       id="g9244">
      <rect
         style="opacity:1;fill:url(#linearGradient9266);fill-opacity:1;fill-rule:evenodd;stroke:none;stroke-width:3;stroke-linejoin:round;stroke-miterlimit:4;stroke-dasharray:none;stroke-dashoffset:0;stroke-opacity:1"
         id="rect9246"
         width="16"
         height="32"
         x="32"
         y="988.36218"
         inkscape:tile-cx="16"
         inkscape:tile-cy="127.99998"
         inkscape:tile-w="32"
         inkscape:tile-h="256"
         inkscape:tile-x0="0"
         inkscape:tile-y0="-1.7382813e-05" />
      <rect
         inkscape:tile-y0="-1.7382813e-05"
         inkscape:tile-x0="0"
         inkscape:tile-h="256"
         inkscape:tile-w="32"
         inkscape:tile-cy="127.99998"
         inkscape:tile-cx="16"
         y="988.36218"
         x="48"
         height="32"
         width="16"
         id="rect9248"
         style="opacity:1;fill:url(#linearGradient9268);fill-opacity:1;fill-rule:evenodd;stroke:none;stroke-width:3;stroke-linejoin:round;stroke-miterlimit:4;stroke-dasharray:none;stroke-dashoffset:0;stroke-opacity:1" />
    </g>
    <g
       id="g9250"
       transform="translate(128,-65.999983)">
      <rect
         inkscape:tile-y0="-1.7382813e-05"
         inkscape:tile-x0="0"
         inkscape:tile-h="256"
         inkscape:tile-w="32"
         inkscape:tile-cy="127.99998"
         inkscape:tile-cx="16"
         y="988.36218"
         x="32"
         height="32"
         width="16"
         id="rect9252"
         style="opacity:1;fill:url(#linearGradient9270);fill-opacity:1;fill-rule:evenodd;stroke:none;stroke-width:3;stroke-linejoin:round;stroke-miterlimit:4;stroke-dasharray:none;stroke-dashoffset:0;stroke-opacity:1" />
      <rect
         style="opacity:1;fill:url(#linearGradient9272);fill-opacity:1;fill-rule:evenodd;stroke:none;stroke-width:3;stroke-linejoin:round;stroke-miterlimit:4;stroke-dasharray:none;stroke-dashoffset:0;stroke-opacity:1"
         id="rect9254"
         width="16"
         height="32"
         x="48"
         y="988.36218"
         inkscape:tile-cx="16"
         inkscape:tile-cy="127.99998"
         inkscape:tile-w="32"
         inkscape:tile-h="256"
         inkscape:tile-x0="0"
         inkscape:tile-y0="-1.7382813e-05" />
    </g>
    <g
       transform="translate(192,-65.999983)"
       id="g9256">
      <rect
         style="opacity:1;fill:url(#linearGradient9274);fill-opacity:1;fill-rule:evenodd;stroke:none;stroke-width:3;stroke-linejoin:round;stroke-miterlimit:4;stroke-dasharray:none;stroke-dashoffset:0;stroke-opacity:1"
         id="rect9258"
         width="16"
         height="32"
         x="32"
         y="988.36218"
         inkscape:tile-cx="16"
         inkscape:tile-cy="127.99998"
         inkscape:tile-w="32"
         inkscape:tile-h="256"
         inkscape:tile-x0="0"
         inkscape:tile-y0="-1.7382813e-05" />
      <rect
         inkscape:tile-y0="-1.7382813e-05"
         inkscape:tile-x0="0"
         inkscape:tile-h="256"
         inkscape:tile-w="32"
         inkscape:tile-cy="127.99998"
         inkscape:tile-cx="16"
         y="988.36218"
         x="48"
         height="32"
         width="16"
         id="rect9260"
         style="opacity:1;fill:url(#linearGradient9276);fill-opacity:1;fill-rule:evenodd;stroke:none;stroke-width:3;stroke-linejoin:round;stroke-miterlimit:4;stroke-dasharray:none;stroke-dashoffset:0;stroke-opacity:1" />
    </g>
    <g
       transform="translate(0,-131.99998)"
       id="g9278">
      <rect
         style="opacity:1;fill:url(#linearGradient9302);fill-opacity:1;fill-rule:evenodd;stroke:none;stroke-width:3;stroke-linejoin:round;stroke-miterlimit:4;stroke-dasharray:none;stroke-dashoffset:0;stroke-opacity:1"
         id="rect9280"
         width="16"
         height="32"
         x="32"
         y="988.36218"
         inkscape:tile-cx="16"
         inkscape:tile-cy="127.99998"
         inkscape:tile-w="32"
         inkscape:tile-h="256"
         inkscape:tile-x0="0"
         inkscape:tile-y0="-1.7382813e-05" />
      <rect
         inkscape:tile-y0="-1.7382813e-05"
         inkscape:tile-x0="0"
         inkscape:tile-h="256"
         inkscape:tile-w="32"
         inkscape:tile-cy="127.99998"
         inkscape:tile-cx="16"
         y="988.36218"
         x="48"
         height="32"
         width="16"
         id="rect9282"
         style="opacity:1;fill:url(#linearGradient9304);fill-opacity:1;fill-rule:evenodd;stroke:none;stroke-width:3;stroke-linejoin:round;stroke-miterlimit:4;stroke-dasharray:none;stroke-dashoffset:0;stroke-opacity:1" />
    </g>
    <g
       id="g9284"
       transform="translate(64,-131.99998)">
      <rect
         inkscape:tile-y0="-1.7382813e-05"
         inkscape:tile-x0="0"
         inkscape:tile-h="256"
         inkscape:tile-w="32"
         inkscape:tile-cy="127.99998"
         inkscape:tile-cx="16"
         y="988.36218"
         x="32"
         height="32"
         width="16"
         id="rect9286"
         style="opacity:1;fill:url(#linearGradient9306);fill-opacity:1;fill-rule:evenodd;stroke:none;stroke-width:3;stroke-linejoin:round;stroke-miterlimit:4;stroke-dasharray:none;stroke-dashoffset:0;stroke-opacity:1" />
      <rect
         style="opacity:1;fill:url(#linearGradient9308);fill-opacity:1;fill-rule:evenodd;stroke:none;stroke-width:3;stroke-linejoin:round;stroke-miterlimit:4;stroke-dasharray:none;stroke-dashoffset:0;stroke-opacity:1"
         id="rect9288"
         width="16"
         height="32"
         x="48"
         y="988.36218"
         inkscape:tile-cx="16"
         inkscape:tile-cy="127.99998"
         inkscape:tile-w="32"
         inkscape:tile-h="256"
         inkscape:tile-x0="0"
         inkscape:tile-y0="-1.7382813e-05" />
    </g>
    <g
       transform="translate(128,-131.99998)"
       id="g9290">
      <rect
         style="opacity:1;fill:url(#linearGradient9310);fill-opacity:1;fill-rule:evenodd;stroke:none;stroke-width:3;stroke-linejoin:round;stroke-miterlimit:4;stroke-dasharray:none;stroke-dashoffset:0;stroke-opacity:1"
         id="rect9292"
         width="16"
         height="32"
         x="32"
         y="988.36218"
         inkscape:tile-cx="16"
         inkscape:tile-cy="127.99998"
         inkscape:tile-w="32"
         inkscape:tile-h="256"
         inkscape:tile-x0="0"
         inkscape:tile-y0="-1.7382813e-05" />
      <rect
         inkscape:tile-y0="-1.7382813e-05"
         inkscape:tile-x0="0"
         inkscape:tile-h="256"
         inkscape:tile-w="32"
         inkscape:tile-cy="127.99998"
         inkscape:tile-cx="16"
         y="988.36218"
         x="48"
         height="32"
         width="16"
         id="rect9294"
         style="opacity:1;fill:url(#linearGradient9312);fill-opacity:1;fill-rule:evenodd;stroke:none;stroke-width:3;stroke-linejoin:round;stroke-miterlimit:4;stroke-dasharray:none;stroke-dashoffset:0;stroke-opacity:1" />
    </g>
    <g
       id="g9296"
       transform="translate(192,-131.99998)">
      <rect
         inkscape:tile-y0="-1.7382813e-05"
         inkscape:tile-x0="0"
         inkscape:tile-h="256"
         inkscape:tile-w="32"
         inkscape:tile-cy="127.99998"
         inkscape:tile-cx="16"
         y="988.36218"
         x="32"
         height="32"
         width="16"
         id="rect9298"
         style="opacity:1;fill:url(#linearGradient9314);fill-opacity:1;fill-rule:evenodd;stroke:none;stroke-width:3;stroke-linejoin:round;stroke-miterlimit:4;stroke-dasharray:none;stroke-dashoffset:0;stroke-opacity:1" />
      <rect
         style="opacity:1;fill:url(#linearGradient9316);fill-opacity:1;fill-rule:evenodd;stroke:none;stroke-width:3;stroke-linejoin:round;stroke-miterlimit:4;stroke-dasharray:none;stroke-dashoffset:0;stroke-opacity:1"
         id="rect9300"
         width="16"
         height="32"
         x="48"
         y="988.36218"
         inkscape:tile-cx="16"
         inkscape:tile-cy="127.99998"
         inkscape:tile-w="32"
         inkscape:tile-h="256"
         inkscape:tile-x0="0"
         inkscape:tile-y0="-1.7382813e-05" />
    </g>
    <g
       id="g9318"
       transform="translate(0,-192)">
      <rect
         inkscape:tile-y0="-1.7382813e-05"
         inkscape:tile-x0="0"
         inkscape:tile-h="256"
         inkscape:tile-w="32"
         inkscape:tile-cy="127.99998"
         inkscape:tile-cx="16"
         y="988.36218"
         x="32"
         height="32"
         width="16"
         id="rect9320"
         style="opacity:1;fill:url(#linearGradient9342);fill-opacity:1;fill-rule:evenodd;stroke:none;stroke-width:3;stroke-linejoin:round;stroke-miterlimit:4;stroke-dasharray:none;stroke-dashoffset:0;stroke-opacity:1" />
      <rect
         style="opacity:1;fill:url(#linearGradient9344);fill-opacity:1;fill-rule:evenodd;stroke:none;stroke-width:3;stroke-linejoin:round;stroke-miterlimit:4;stroke-dasharray:none;stroke-dashoffset:0;stroke-opacity:1"
         id="rect9322"
         width="16"
         height="32"
         x="48"
         y="988.36218"
         inkscape:tile-cx="16"
         inkscape:tile-cy="127.99998"
         inkscape:tile-w="32"
         inkscape:tile-h="256"
         inkscape:tile-x0="0"
         inkscape:tile-y0="-1.7382813e-05" />
    </g>
    <g
       transform="translate(64,-192)"
       id="g9324">
      <rect
         style="opacity:1;fill:url(#linearGradient9346);fill-opacity:1;fill-rule:evenodd;stroke:none;stroke-width:3;stroke-linejoin:round;stroke-miterlimit:4;stroke-dasharray:none;stroke-dashoffset:0;stroke-opacity:1"
         id="rect9326"
         width="16"
         height="32"
         x="32"
         y="988.36218"
         inkscape:tile-cx="16"
         inkscape:tile-cy="127.99998"
         inkscape:tile-w="32"
         inkscape:tile-h="256"
         inkscape:tile-x0="0"
         inkscape:tile-y0="-1.7382813e-05" />
      <rect
         inkscape:tile-y0="-1.7382813e-05"
         inkscape:tile-x0="0"
         inkscape:tile-h="256"
         inkscape:tile-w="32"
         inkscape:tile-cy="127.99998"
         inkscape:tile-cx="16"
         y="988.36218"
         x="48"
         height="32"
         width="16"
         id="rect9328"
         style="opacity:1;fill:url(#linearGradient9348);fill-opacity:1;fill-rule:evenodd;stroke:none;stroke-width:3;stroke-linejoin:round;stroke-miterlimit:4;stroke-dasharray:none;stroke-dashoffset:0;stroke-opacity:1" />
    </g>
    <g
       id="g9330"
       transform="translate(128,-192)">
      <rect
         inkscape:tile-y0="-1.7382813e-05"
         inkscape:tile-x0="0"
         inkscape:tile-h="256"
         inkscape:tile-w="32"
         inkscape:tile-cy="127.99998"
         inkscape:tile-cx="16"
         y="988.36218"
         x="32"
         height="32"
         width="16"
         id="rect9332"
         style="opacity:1;fill:url(#linearGradient9350);fill-opacity:1;fill-rule:evenodd;stroke:none;stroke-width:3;stroke-linejoin:round;stroke-miterlimit:4;stroke-dasharray:none;stroke-dashoffset:0;stroke-opacity:1" />
      <rect
         style="opacity:1;fill:url(#linearGradient9352);fill-opacity:1;fill-rule:evenodd;stroke:none;stroke-width:3;stroke-linejoin:round;stroke-miterlimit:4;stroke-dasharray:none;stroke-dashoffset:0;stroke-opacity:1"
         id="rect9334"
         width="16"
         height="32"
         x="48"
         y="988.36218"
         inkscape:tile-cx="16"
         inkscape:tile-cy="127.99998"
         inkscape:tile-w="32"
         inkscape:tile-h="256"
         inkscape:tile-x0="0"
         inkscape:tile-y0="-1.7382813e-05" />
    </g>
    <g
       transform="translate(192,-192)"
       id="g9336">
      <rect
         style="opacity:1;fill:url(#linearGradient9354);fill-opacity:1;fill-rule:evenodd;stroke:none;stroke-width:3;stroke-linejoin:round;stroke-miterlimit:4;stroke-dasharray:none;stroke-dashoffset:0;stroke-opacity:1"
         id="rect9338"
         width="16"
         height="32"
         x="32"
         y="988.36218"
         inkscape:tile-cx="16"
         inkscape:tile-cy="127.99998"
         inkscape:tile-w="32"
         inkscape:tile-h="256"
         inkscape:tile-x0="0"
         inkscape:tile-y0="-1.7382813e-05" />
      <rect
         inkscape:tile-y0="-1.7382813e-05"
         inkscape:tile-x0="0"
         inkscape:tile-h="256"
         inkscape:tile-w="32"
         inkscape:tile-cy="127.99998"
         inkscape:tile-cx="16"
         y="988.36218"
         x="48"
         height="32"
         width="16"
         id="rect9340"
         style="opacity:1;fill:url(#linearGradient9356);fill-opacity:1;fill-rule:evenodd;stroke:none;stroke-width:3;stroke-linejoin:round;stroke-miterlimit:4;stroke-dasharray:none;stroke-dashoffset:0;stroke-opacity:1" />
    </g>
  </g>
</svg>
