0 154 154
0 154 154
154 154 0 
155 0 155
0 155 155
0 155 155
0 155 155
155 155 0 
156 0 156
0 156 156
0 156 156
0 156 156
156 156 0 
157 0 157
0 157 157
0 157 157
0 157 157
157 157 0 
158 0 158
0 158 158
0 158 158
0 158 158
158 158 0 
159 0 159
0 159 159
0 159 159
0 159 159
159 159 0 
160 0 160
0 160 160
0 160 160
0 160 160
160 160 0 
161 0 161
0 161 161
0 161 161
0 161 161
161 161 0 
162 0 162
0 162 162
0 162 162
0 162 162
162 162 0 
163 0 163
0 163 163
0 163 163
0 163 163
163 163 0 
164 0 164
0 164 164
0 164 164
0 164 164
164 164 0 
165 0 165
0 165 165
0 165 165
0 165 165
165 165 0 
166 0 166
0 166 166
0 166 166
0 166 166
166 166 0 
167 0 167
0 167 167
0 167 167
0 167 167
167 167 0 
168 0 168
0 168 168
0 168 168
0 168 168
168 168 0 
169 0 169
0 169 169
0 169 169
0 169 169
169 169 0 
170 0 170
0 170 170
0 170 170
0 170 170
170 170 0 
171 0 171
0 171 171
0 171 171
0 171 171
171 171 0 
172 0 172
0 172 172
0 172 172
0 172 172
172 172 0 
173 0 173
0 173 173
0 173 173
0 173 173
173 173 0 
174 0 174
0 174 174
0 174 174
0 174 174
174 174 0 
175 0 175
0 175 175
0 175 175
0 175 175
175 175 0 
176 0 176
0 176 176
0 176 176

